%!PS-Adobe-3.0 EPSF-3.0
%%Creator: MATLAB, The MathWorks, Inc. Version 8.0.0.783 (R2012b). Operating System: Linux 3.5.0-17-generic #28-Ubuntu SMP Tue Oct 9 19:31:23 UTC 2012 x86_64.
%%Title: /home/usertesla3/azamat/Научная деятельность/Не прошли верификацию/Cluster of bubbles and particles [Gumerov] [Matlab](случай двух сжимаемых пузырьков)/compare_ANALYT_RP.eps
%%CreationDate: 04/02/2016  12:58:11
%%DocumentNeededFonts: Helvetica
%%DocumentProcessColors: Cyan Magenta Yellow Black
%%LanguageLevel: 2
%%Pages: 1
%%BoundingBox:  -284    72   881   768
%%EndComments

%%BeginProlog
% MathWorks dictionary
/MathWorks 160 dict begin
% definition operators
/bdef {bind def} bind def
/ldef {load def} bind def
/xdef {exch def} bdef
/xstore {exch store} bdef
% operator abbreviations
/c  /clip ldef
/cc /concat ldef
/cp /closepath ldef
/gr /grestore ldef
/gs /gsave ldef
/mt /moveto ldef
/np /newpath ldef
/cm /currentmatrix ldef
/sm /setmatrix ldef
/rm /rmoveto ldef
/rl /rlineto ldef
/s {show newpath} bdef
/sc {setcmykcolor} bdef
/sr /setrgbcolor ldef
/sg /setgray ldef
/w /setlinewidth ldef
/j /setlinejoin ldef
/cap /setlinecap ldef
/rc {rectclip} bdef
/rf {rectfill} bdef
% page state control
/pgsv () def
/bpage {/pgsv save def} bdef
/epage {pgsv restore} bdef
/bplot /gsave ldef
/eplot {stroke grestore} bdef
% orientation switch
/portraitMode 0 def /landscapeMode 1 def /rotateMode 2 def
% coordinate system mappings
/dpi2point 0 def
% font control
/FontSize 0 def
/FMS {/FontSize xstore findfont [FontSize 0 0 FontSize neg 0 0]
  makefont setfont} bdef
/reencode {exch dup where {pop load} {pop StandardEncoding} ifelse
  exch dup 3 1 roll findfont dup length dict begin
  { 1 index /FID ne {def}{pop pop} ifelse } forall
  /Encoding exch def currentdict end definefont pop} bdef
/isroman {findfont /CharStrings get /Agrave known} bdef
/FMSR {3 1 roll 1 index dup isroman {reencode} {pop pop} ifelse
  exch FMS} bdef
/csm {1 dpi2point div -1 dpi2point div scale neg translate
 dup landscapeMode eq {pop -90 rotate}
  {rotateMode eq {90 rotate} if} ifelse} bdef
% line types: solid, dotted, dashed, dotdash
/SO { [] 0 setdash } bdef
/DO { [.5 dpi2point mul 4 dpi2point mul] 0 setdash } bdef
/DA { [6 dpi2point mul] 0 setdash } bdef
/DD { [.5 dpi2point mul 4 dpi2point mul 6 dpi2point mul 4
  dpi2point mul] 0 setdash } bdef
% macros for lines and objects
/L {lineto stroke} bdef
/MP {3 1 roll moveto 1 sub {rlineto} repeat} bdef
/AP {{rlineto} repeat} bdef
/PDlw -1 def
/W {/PDlw currentlinewidth def setlinewidth} def
/PP {closepath eofill} bdef
/DP {closepath stroke} bdef
/MR {4 -2 roll moveto dup  0 exch rlineto exch 0 rlineto
  neg 0 exch rlineto closepath} bdef
/FR {MR stroke} bdef
/PR {MR fill} bdef
/L1i {{currentfile picstr readhexstring pop} image} bdef
/tMatrix matrix def
/MakeOval {newpath tMatrix currentmatrix pop translate scale
0 0 1 0 360 arc tMatrix setmatrix} bdef
/FO {MakeOval stroke} bdef
/PO {MakeOval fill} bdef
/PD {currentlinewidth 2 div 0 360 arc fill
   PDlw -1 eq not {PDlw w /PDlw -1 def} if} def
/FA {newpath tMatrix currentmatrix pop translate scale
  0 0 1 5 -2 roll arc tMatrix setmatrix stroke} bdef
/PA {newpath tMatrix currentmatrix pop	translate 0 0 moveto scale
  0 0 1 5 -2 roll arc closepath tMatrix setmatrix fill} bdef
/FAn {newpath tMatrix currentmatrix pop translate scale
  0 0 1 5 -2 roll arcn tMatrix setmatrix stroke} bdef
/PAn {newpath tMatrix currentmatrix pop translate 0 0 moveto scale
  0 0 1 5 -2 roll arcn closepath tMatrix setmatrix fill} bdef
/vradius 0 def /hradius 0 def /lry 0 def
/lrx 0 def /uly 0 def /ulx 0 def /rad 0 def
/MRR {/vradius xdef /hradius xdef /lry xdef /lrx xdef /uly xdef
  /ulx xdef newpath tMatrix currentmatrix pop ulx hradius add uly
  vradius add translate hradius vradius scale 0 0 1 180 270 arc 
  tMatrix setmatrix lrx hradius sub uly vradius add translate
  hradius vradius scale 0 0 1 270 360 arc tMatrix setmatrix
  lrx hradius sub lry vradius sub translate hradius vradius scale
  0 0 1 0 90 arc tMatrix setmatrix ulx hradius add lry vradius sub
  translate hradius vradius scale 0 0 1 90 180 arc tMatrix setmatrix
  closepath} bdef
/FRR {MRR stroke } bdef
/PRR {MRR fill } bdef
/MlrRR {/lry xdef /lrx xdef /uly xdef /ulx xdef /rad lry uly sub 2 div def
  newpath tMatrix currentmatrix pop ulx rad add uly rad add translate
  rad rad scale 0 0 1 90 270 arc tMatrix setmatrix lrx rad sub lry rad
  sub translate rad rad scale 0 0 1 270 90 arc tMatrix setmatrix
  closepath} bdef
/FlrRR {MlrRR stroke } bdef
/PlrRR {MlrRR fill } bdef
/MtbRR {/lry xdef /lrx xdef /uly xdef /ulx xdef /rad lrx ulx sub 2 div def
  newpath tMatrix currentmatrix pop ulx rad add uly rad add translate
  rad rad scale 0 0 1 180 360 arc tMatrix setmatrix lrx rad sub lry rad
  sub translate rad rad scale 0 0 1 0 180 arc tMatrix setmatrix
  closepath} bdef
/FtbRR {MtbRR stroke } bdef
/PtbRR {MtbRR fill } bdef
/stri 6 array def /dtri 6 array def
/smat 6 array def /dmat 6 array def
/tmat1 6 array def /tmat2 6 array def /dif 3 array def
/asub {/ind2 exch def /ind1 exch def dup dup
  ind1 get exch ind2 get sub exch } bdef
/tri_to_matrix {
  2 0 asub 3 1 asub 4 0 asub 5 1 asub
  dup 0 get exch 1 get 7 -1 roll astore } bdef
/compute_transform {
  dmat dtri tri_to_matrix tmat1 invertmatrix 
  smat stri tri_to_matrix tmat2 concatmatrix } bdef
/ds {stri astore pop} bdef
/dt {dtri astore pop} bdef
/db {2 copy /cols xdef /rows xdef mul dup 3 mul string
  currentfile 
  3 index 0 eq {/ASCIIHexDecode filter}
  {/ASCII85Decode filter 3 index 2 eq {/RunLengthDecode filter} if }
  ifelse exch readstring pop
  dup 0 3 index getinterval /rbmap xdef
  dup 2 index dup getinterval /gbmap xdef
  1 index dup 2 mul exch getinterval /bbmap xdef pop pop}bdef
/it {gs np dtri aload pop moveto lineto lineto cp c
  cols rows 8 compute_transform 
  rbmap gbmap bbmap true 3 colorimage gr}bdef
/il {newpath moveto lineto stroke}bdef
currentdict end def
%%EndProlog

%%BeginSetup
MathWorks begin

0 cap

end
%%EndSetup

%%Page: 1 1
%%BeginPageSetup
%%PageBoundingBox:  -284    72   881   768
MathWorks begin
bpage
%%EndPageSetup

%%BeginObject: obj1
bplot

/dpi2point 12 def
portraitMode -3408 9216 csm

    0     0 13991  8343 rc
85 dict begin %Colortable dictionary
/c0 { 0.000000 0.000000 0.000000 sr} bdef
/c1 { 1.000000 1.000000 1.000000 sr} bdef
/c2 { 0.900000 0.000000 0.000000 sr} bdef
/c3 { 0.000000 0.820000 0.000000 sr} bdef
/c4 { 0.000000 0.000000 0.800000 sr} bdef
/c5 { 0.910000 0.820000 0.320000 sr} bdef
/c6 { 1.000000 0.260000 0.820000 sr} bdef
/c7 { 0.000000 0.820000 0.820000 sr} bdef
c0
1 j
1 sg
   0    0 13992 8344 rf
6 w
0 6799 10843 0 0 -6799 1819 7424 4 MP
PP
-10843 0 0 6799 10843 0 0 -6799 1819 7424 5 MP stroke
4 w
DO
SO
6 w
0 sg
1819 7424 mt 12662 7424 L
1819  625 mt 12662  625 L
1819 7424 mt 1819  625 L
12662 7424 mt 12662  625 L
1819 7424 mt 12662 7424 L
1819 7424 mt 1819  625 L
1819 7424 mt 1819 7316 L
1819  625 mt 1819  734 L
%%IncludeResource: font Helvetica
/Helvetica /ISOLatin1Encoding 120 FMSR

1786 7570 mt 
(0) s
2903 7424 mt 2903 7316 L
2903  625 mt 2903  734 L
2820 7570 mt 
(0.5) s
3987 7424 mt 3987 7316 L
3987  625 mt 3987  734 L
3954 7570 mt 
(1) s
5071 7424 mt 5071 7316 L
5071  625 mt 5071  734 L
4988 7570 mt 
(1.5) s
6156 7424 mt 6156 7316 L
6156  625 mt 6156  734 L
6123 7570 mt 
(2) s
7240 7424 mt 7240 7316 L
7240  625 mt 7240  734 L
7157 7570 mt 
(2.5) s
8324 7424 mt 8324 7316 L
8324  625 mt 8324  734 L
8291 7570 mt 
(3) s
9409 7424 mt 9409 7316 L
9409  625 mt 9409  734 L
9326 7570 mt 
(3.5) s
10493 7424 mt 10493 7316 L
10493  625 mt 10493  734 L
10460 7570 mt 
(4) s
11577 7424 mt 11577 7316 L
11577  625 mt 11577  734 L
11494 7570 mt 
(4.5) s
12662 7424 mt 12662 7316 L
12662  625 mt 12662  734 L
12629 7570 mt 
(5) s
1819 6575 mt 1927 6575 L
12662 6575 mt 12553 6575 L
1618 6619 mt 
(0.7) s
1819 5725 mt 1927 5725 L
12662 5725 mt 12553 5725 L
1618 5769 mt 
(0.8) s
1819 4875 mt 1927 4875 L
12662 4875 mt 12553 4875 L
1618 4919 mt 
(0.9) s
1819 4025 mt 1927 4025 L
12662 4025 mt 12553 4025 L
1718 4069 mt 
(1) s
1819 3175 mt 1927 3175 L
12662 3175 mt 12553 3175 L
1618 3219 mt 
(1.1) s
1819 2325 mt 1927 2325 L
12662 2325 mt 12553 2325 L
1618 2369 mt 
(1.2) s
1819 1475 mt 1927 1475 L
12662 1475 mt 12553 1475 L
1618 1519 mt 
(1.3) s
1819  625 mt 1927  625 L
12662  625 mt 12553  625 L
1618  669 mt 
(1.4) s
1819 7424 mt 12662 7424 L
1819  625 mt 12662  625 L
1819 7424 mt 1819  625 L
12662 7424 mt 12662  625 L
gs 1819 625 10844 6801 rc
/c8 { 0.000000 0.000000 1.000000 sr} bdef
c8
3 -1 2 -1 2 -2 2 -1 2 -1 3 -1 2 -2 2 -1 
2 -1 2 -2 2 -1 3 -2 2 -1 2 -2 2 -1 2 -2 
2 -2 3 -1 2 -2 2 -2 2 -2 2 -1 2 -2 3 -2 
2 -2 2 -2 2 -2 2 -2 2 -2 3 -3 2 -2 2 -2 
2 -2 2 -3 2 -2 3 -3 2 -2 2 -3 2 -2 2 -3 
2 -3 3 -3 2 -2 2 -3 2 -3 2 -3 2 -3 3 -3 
2 -3 2 -3 2 -4 2 -3 2 -3 3 -4 2 -3 2 -4 
2 -3 2 -4 2 -3 3 -4 2 -4 2 -4 2 -4 2 -4 
2 -4 3 -4 2 -4 2 -4 2 -4 2 -5 2 -4 3 -4 
2 -5 2 -5 2 -4 2 -5 2 -5 3 -4 2 -5 2 -5 
2 -5 2 -5 2 -5 3 -5 2 -6 2 -5 2 -5 2 -6 
3 -5 2 -6 2 -5 2 -6 2 -6 2 -5 3 -6 2 -6 
2 -6 2 -6 2 -6 2 -6 3 -6 2 -7 2 -6 2 -6 
2 -7 2 -6 3 -7 2 -7 2 -6 2 -7 2 -7 2 -7 
3 -7 2 -7 2 -8 2 -7 2 -7 2 -8 3 -8 2 -7 
2 -8 2 -8 2 -8 2 -8 3 -8 2 -8 2 -9 2 -8 
2 -8 2 -9 3 -8 2 -9 2 -9 2 -8 2 -9 2 -9 
3 -9 2 -9 2 -9 2 -9 2 -9 2 -10 3 -9 2 -9 
2 -9 2 -10 2 -9 2 -10 3 -9 2 -10 2 -10 2 -9 
2 -10 2 -10 3 -9 2 -10 2 -10 2 -10 2 -10 2 -10 
3 -10 2 -10 2 -10 2 -10 2 -10 2 -10 3 -10 2 -10 
2 -10 2 -10 2 -10 2 -10 3 -10 2 -10 2 -11 2 -10 
2 -10 3 -10 2 -10 2 -10 2 -10 2 -11 2 -10 3 -10 
2 -10 2 -10 2 -10 2 -10 2 -10 3 -10 2 -10 2 -10 
2 -10 2 -10 2 -10 3 -10 2 -9 2 -10 2 -10 2 -10 
2 -9 3 -10 2 -10 2 -9 2 -10 2 -9 2 -10 3 -9 
2 -9 2 -10 2 -9 2 -9 2 -9 3 -9 2 -9 2 -9 
2 -9 2 -9 2 -9 3 -8 2 -9 2 -9 2 -8 2 -9 
2 -8 3 -8 2 -9 2 -8 2 -8 2 -8 2 -8 3 -7 
2 -8 2 -8 2 -7 2 -8 2 -7 3 -7 2 -7 2 -7 
2 -7 2 -7 2 -6 3 -7 2 -6 2 -7 2 -6 2 -6 
2 -6 3 -5 2 -6 2 -5 2 -6 2 -5 2 -5 3 -5 
2 -5 2 -4 2 -5 2 -4 3 -4 2 -4 2 -4 2 -4 
2 -3 2 -3 3 -4 2 -3 2 -2 2 -3 2 -3 2 -2 
3 -2 2 -2 2 -2 2 -2 2 -1 2 -1 3 -2 2 0 
2 -1 2 -1 2 0 2 0 3 0 2 0 2 0 2 1 
2 0 2 1 3 1 2 2 2 1 2 2 2 2 2 2 
3 2 2 3 2 2 12013 5460 300 MP stroke
2 3 2 3 2 3 3 4 2 4 2 3 2 4 2 5 
2 4 3 5 2 5 2 5 2 5 2 5 2 6 3 6 
2 6 2 6 2 7 2 6 2 7 3 7 2 8 2 7 
2 8 2 8 2 8 3 8 2 8 2 8 2 9 2 8 
2 9 3 9 2 9 2 9 2 10 2 9 2 10 3 9 
2 10 2 10 2 10 2 10 2 10 3 10 2 11 2 10 
2 11 2 10 3 11 2 11 2 11 2 11 2 11 2 11 
3 11 2 11 2 11 2 12 2 11 2 11 3 12 2 11 
2 12 2 12 2 11 2 12 3 12 2 11 2 12 2 12 
2 12 2 12 3 12 2 12 2 12 2 11 2 12 2 12 
3 12 2 12 2 12 2 12 2 12 2 12 3 12 2 12 
2 12 2 12 2 12 2 12 3 12 2 12 2 12 2 12 
2 11 2 12 3 12 2 12 2 12 2 11 2 12 2 12 
3 12 2 11 2 12 2 11 2 12 2 12 3 11 2 12 
2 11 2 11 2 12 2 11 3 11 2 11 2 12 2 11 
2 11 2 11 3 11 2 11 2 11 2 11 2 11 2 10 
3 11 2 11 2 11 2 10 2 11 3 10 2 11 2 10 
2 10 2 11 2 10 3 10 2 10 2 10 2 10 2 10 
2 10 3 10 2 10 2 10 2 9 2 10 2 10 3 9 
2 9 2 10 2 9 2 9 2 9 3 9 2 9 2 9 
2 9 2 9 2 8 3 9 2 9 2 8 2 9 2 8 
2 8 3 8 2 9 2 8 2 8 2 8 2 8 3 7 
2 8 2 8 2 8 2 7 2 8 3 7 2 8 2 7 
2 8 2 7 2 7 3 7 2 7 2 7 2 7 2 7 
2 7 3 7 2 7 2 7 2 6 2 7 2 6 3 7 
2 6 2 7 2 6 2 7 2 6 3 6 2 6 2 6 
2 6 2 7 2 6 3 5 2 6 2 6 2 6 2 6 
2 6 3 5 2 6 2 5 2 6 2 6 3 5 2 5 
2 6 2 5 2 5 2 6 3 5 2 5 2 5 2 5 
2 6 2 5 3 5 2 5 2 4 2 5 2 5 2 5 
3 5 2 5 2 4 2 5 2 5 2 4 3 5 2 4 
2 5 2 4 2 5 2 4 3 5 2 4 2 4 2 5 
2 4 2 4 3 4 2 5 2 4 2 4 2 4 2 4 
3 4 2 4 2 4 2 4 2 4 2 4 3 4 2 4 
2 4 2 3 2 4 2 4 3 4 2 3 2 4 2 4 
2 4 2 3 3 4 2 3 2 4 2 3 2 4 2 4 
3 3 2 3 2 4 2 3 2 4 2 3 3 3 2 4 
2 3 2 3 2 4 11365 3114 300 MP stroke
2 3 3 3 2 4 2 3 2 3 2 3 3 3 2 4 
2 3 2 3 2 3 2 3 3 3 2 3 2 3 2 3 
2 3 2 3 3 3 2 3 2 3 2 3 2 3 2 3 
3 3 2 3 2 3 2 3 2 3 2 2 3 3 2 3 
2 3 2 3 2 3 2 2 3 3 2 3 2 3 2 3 
2 2 2 3 3 3 2 3 2 2 2 3 2 3 2 2 
3 3 2 3 2 2 2 3 2 3 2 2 3 3 2 3 
2 2 2 3 2 3 2 2 3 3 2 2 2 3 2 2 
2 3 2 3 3 2 2 3 2 2 2 3 2 2 2 3 
3 3 2 2 2 3 2 2 2 3 2 2 3 3 2 2 
2 3 2 2 2 3 2 2 3 3 2 2 2 3 2 2 
2 3 2 2 3 3 2 2 2 3 2 2 2 2 3 3 
2 2 2 3 2 2 2 3 2 2 3 3 2 2 2 3 
2 2 2 2 2 3 3 2 2 3 2 2 2 3 2 2 
2 3 3 2 2 2 2 3 2 2 2 3 2 2 3 3 
2 2 2 2 2 3 2 2 2 3 3 2 2 2 2 3 
2 2 2 3 2 2 3 3 2 2 2 2 2 3 2 2 
2 3 3 2 2 2 2 3 2 2 2 3 2 2 3 2 
2 3 2 2 2 3 2 2 2 2 3 3 2 2 2 3 
2 2 2 2 2 3 3 2 2 3 2 2 2 2 2 3 
2 2 3 2 2 3 2 2 2 3 2 2 2 2 3 3 
2 2 2 2 2 3 2 2 2 2 3 3 2 2 2 2 
2 2 2 3 3 2 2 2 2 3 2 2 2 2 2 2 
3 3 2 2 2 2 2 2 2 3 2 2 3 2 2 2 
2 3 2 2 2 2 2 2 3 2 2 2 2 3 2 2 
2 2 2 2 3 2 2 2 2 2 2 2 2 3 2 2 
3 2 2 2 2 2 2 2 2 2 2 2 3 2 2 2 
2 2 2 2 2 2 2 1 3 2 2 2 2 2 2 2 
2 2 2 2 3 1 2 2 2 2 2 2 2 2 2 1 
3 2 2 2 2 1 2 2 2 2 2 1 3 2 2 1 
2 2 2 2 2 1 2 2 3 1 2 1 2 2 2 1 
2 2 2 1 3 1 2 2 2 1 2 1 2 2 2 1 
3 1 2 1 2 1 2 1 2 1 2 1 3 1 2 1 
2 1 2 1 2 1 3 1 2 1 2 1 2 1 2 0 
2 1 3 1 2 0 2 1 2 1 2 0 2 1 3 0 
2 1 2 0 2 0 2 1 2 0 3 0 2 0 2 1 
2 0 2 0 2 0 3 0 2 0 2 0 2 0 2 0 
2 -1 3 0 2 0 10716 2484 300 MP stroke
2 0 2 -1 2 0 2 -1 3 0 2 -1 2 0 2 -1 
2 -1 2 0 3 -1 2 -1 2 -1 2 -1 2 0 2 -1 
3 -1 2 -1 2 -1 2 -2 2 -1 2 -1 3 -1 2 -2 
2 -1 2 -1 2 -2 2 -1 3 -2 2 -1 2 -2 2 -2 
2 -2 2 -2 3 -1 2 -2 2 -2 2 -2 2 -3 2 -2 
3 -2 2 -2 2 -3 2 -2 2 -3 2 -2 3 -3 2 -3 
2 -2 2 -3 2 -3 3 -3 2 -3 2 -3 2 -3 2 -4 
2 -3 3 -3 2 -4 2 -3 2 -4 2 -4 2 -4 3 -3 
2 -4 2 -4 2 -4 2 -5 2 -4 3 -4 2 -4 2 -5 
2 -5 2 -4 2 -5 3 -5 2 -5 2 -5 2 -5 2 -5 
2 -5 3 -5 2 -6 2 -5 2 -6 2 -5 2 -6 3 -6 
2 -6 2 -6 2 -6 2 -6 2 -6 3 -7 2 -6 2 -7 
2 -6 2 -7 2 -7 3 -7 2 -7 2 -7 2 -7 2 -8 
2 -7 3 -8 2 -7 2 -8 2 -8 2 -8 2 -8 3 -8 
2 -8 2 -8 2 -9 2 -8 2 -9 3 -8 2 -9 2 -9 
2 -9 2 -9 2 -9 3 -10 2 -9 2 -10 2 -9 2 -10 
2 -10 3 -10 2 -10 2 -10 2 -10 2 -11 2 -10 3 -11 
2 -10 2 -11 2 -11 2 -11 3 -11 2 -12 2 -11 2 -11 
2 -12 2 -12 3 -11 2 -12 2 -12 2 -12 2 -13 2 -12 
3 -12 2 -13 2 -13 2 -12 2 -13 2 -13 3 -14 2 -13 
2 -13 2 -14 2 -13 2 -14 3 -14 2 -14 2 -14 2 -14 
2 -14 2 -14 3 -15 2 -15 2 -14 2 -15 2 -15 2 -15 
3 -16 2 -15 2 -15 2 -16 2 -16 2 -15 3 -16 2 -17 
2 -16 2 -16 2 -17 2 -16 3 -17 2 -17 2 -17 2 -17 
2 -17 2 -17 3 -18 2 -17 2 -18 2 -18 2 -18 2 -18 
3 -18 2 -18 2 -18 2 -19 2 -19 2 -18 3 -19 2 -19 
2 -19 2 -19 2 -20 2 -19 3 -20 2 -19 2 -20 2 -20 
2 -20 2 -20 3 -20 2 -20 2 -20 2 -21 2 -20 3 -21 
2 -21 2 -20 2 -21 2 -21 2 -21 3 -21 2 -22 2 -21 
2 -22 2 -21 2 -22 3 -22 2 -22 2 -23 2 -22 2 -22 
2 -23 3 -22 2 -23 2 -23 2 -22 2 -23 2 -23 3 -23 
2 -22 2 -23 2 -23 2 -23 2 -23 3 -22 2 -23 2 -23 
2 -22 2 -23 2 -22 3 -22 2 -23 2 -22 2 -22 2 -22 
2 -22 3 -21 2 -22 2 -21 2 -21 2 -21 2 -21 3 -21 
2 -21 2 -20 2 -20 2 -20 2 -19 3 -20 2 -19 2 -19 
2 -18 2 -19 2 -18 3 -18 2 -17 2 -18 2 -17 2 -16 
2 -16 3 -16 2 -16 2 -15 2 -15 2 -15 2 -14 3 -14 
2 -13 2 -14 2 -13 10068 6010 300 MP stroke
2 -13 2 -12 3 -12 2 -12 2 -12 2 -11 2 -11 2 -10 
3 -10 2 -9 2 -9 2 -9 2 -8 3 -8 2 -7 2 -6 
2 -6 2 -6 2 -5 3 -4 2 -4 2 -4 2 -3 2 -2 
2 -2 3 -1 2 0 2 0 2 1 2 1 2 2 3 2 
2 4 2 3 2 5 2 5 2 5 3 6 2 7 2 7 
2 9 2 8 2 9 3 10 2 11 2 11 2 11 2 12 
2 13 3 13 2 14 2 14 2 15 2 16 2 16 3 16 
2 17 2 18 2 18 2 18 2 19 3 19 2 20 2 20 
2 21 2 21 2 21 3 22 2 22 2 22 2 23 2 23 
2 23 3 23 2 24 2 24 2 24 2 24 2 25 3 24 
2 25 2 24 2 25 2 25 2 24 3 25 2 25 2 24 
2 25 2 24 2 24 3 24 2 24 2 23 2 23 2 23 
2 23 3 23 2 23 2 23 2 23 2 22 3 23 2 23 
2 22 2 23 2 22 2 22 3 22 2 23 2 22 2 22 
2 21 2 22 3 22 2 21 2 22 2 21 2 22 2 21 
3 21 2 21 2 20 2 21 2 21 2 20 3 20 2 20 
2 21 2 19 2 20 2 20 3 19 2 20 2 19 2 19 
2 19 2 19 3 19 2 18 2 19 2 18 2 18 2 18 
3 18 2 18 2 17 2 18 2 17 2 17 3 17 2 17 
2 17 2 17 2 16 2 16 3 16 2 16 2 16 2 16 
2 16 2 15 3 15 2 15 2 15 2 15 2 15 2 15 
3 14 2 14 2 14 2 14 2 14 2 14 3 13 2 14 
2 13 2 13 2 13 2 13 3 13 2 12 2 13 2 12 
2 12 3 12 2 12 2 12 2 11 2 12 2 11 3 11 
2 11 2 11 2 11 2 10 2 11 3 10 2 10 2 10 
2 10 2 10 2 10 3 9 2 9 2 10 2 9 2 9 
2 8 3 9 2 9 2 8 2 8 2 9 2 8 3 7 
2 8 2 8 2 7 2 8 2 7 3 7 2 7 2 7 
2 7 2 6 2 7 3 6 2 6 2 6 2 6 2 6 
2 6 3 5 2 6 2 5 2 6 2 5 2 5 3 5 
2 4 2 5 2 5 2 4 2 4 3 5 2 4 2 4 
2 4 2 3 2 4 3 3 2 4 2 3 2 3 2 4 
2 3 3 2 2 3 2 3 2 3 2 2 2 2 3 3 
2 2 2 2 2 2 2 2 2 1 3 2 2 2 2 1 
2 1 2 2 3 1 2 1 2 1 2 1 2 0 2 1 
3 1 2 0 2 0 2 1 2 0 2 0 3 0 2 0 
2 0 2 -1 2 0 2 -1 3 0 2 -1 2 -1 2 0 
2 -1 2 -1 3 -1 9419 2881 300 MP stroke
2 -2 2 -1 2 -1 2 -2 2 -1 3 -2 2 -1 2 -2 
2 -2 2 -2 2 -2 3 -2 2 -2 2 -2 2 -3 2 -2 
2 -3 3 -2 2 -3 2 -2 2 -3 2 -3 2 -3 3 -3 
2 -3 2 -3 2 -3 2 -4 2 -3 3 -3 2 -4 2 -3 
2 -4 2 -3 2 -4 3 -4 2 -4 2 -4 2 -4 2 -4 
2 -4 3 -4 2 -4 2 -4 2 -5 2 -4 2 -5 3 -4 
2 -5 2 -4 2 -5 2 -5 2 -4 3 -5 2 -5 2 -5 
2 -5 2 -5 3 -4 2 -5 2 -5 2 -5 2 -4 2 -5 
3 -5 2 -5 2 -5 2 -4 2 -5 2 -5 3 -4 2 -5 
2 -5 2 -5 2 -4 2 -5 3 -5 2 -5 2 -4 2 -5 
2 -5 2 -4 3 -5 2 -5 2 -5 2 -4 2 -5 2 -5 
3 -5 2 -4 2 -5 2 -5 2 -5 2 -4 3 -5 2 -5 
2 -5 2 -5 2 -4 2 -5 3 -5 2 -5 2 -5 2 -4 
2 -5 2 -5 3 -5 2 -5 2 -5 2 -5 2 -5 2 -4 
3 -5 2 -5 2 -5 2 -5 2 -5 2 -5 3 -5 2 -5 
2 -5 2 -5 2 -5 2 -5 3 -5 2 -5 2 -5 2 -5 
2 -5 2 -5 3 -5 2 -5 2 -5 2 -5 2 -5 2 -6 
3 -5 2 -5 2 -5 2 -5 2 -5 2 -5 3 -5 2 -5 
2 -6 2 -5 2 -5 3 -5 2 -5 2 -5 2 -5 2 -6 
2 -5 3 -5 2 -5 2 -5 2 -5 2 -5 2 -6 3 -5 
2 -5 2 -5 2 -5 2 -5 2 -5 3 -5 2 -5 2 -6 
2 -5 2 -5 2 -5 3 -5 2 -5 2 -5 2 -5 2 -5 
2 -5 3 -5 2 -5 2 -5 2 -5 2 -5 2 -5 3 -4 
2 -5 2 -5 2 -5 2 -5 2 -5 3 -4 2 -5 2 -5 
2 -4 2 -5 2 -5 3 -4 2 -5 2 -4 2 -5 2 -4 
2 -5 3 -4 2 -4 2 -5 2 -4 2 -4 2 -5 3 -4 
2 -4 2 -4 2 -4 2 -4 2 -4 3 -4 2 -4 2 -3 
2 -4 2 -4 2 -4 3 -3 2 -4 2 -3 2 -4 2 -3 
2 -3 3 -3 2 -4 2 -3 2 -3 2 -3 3 -3 2 -2 
2 -3 2 -3 2 -2 2 -3 3 -2 2 -3 2 -2 2 -2 
2 -3 2 -2 3 -2 2 -1 2 -2 2 -2 2 -2 2 -1 
3 -1 2 -2 2 -1 2 -1 2 -1 2 -1 3 -1 2 -1 
2 0 2 -1 2 0 2 0 3 -1 2 0 2 0 2 1 
2 0 2 0 3 1 2 1 2 0 2 1 2 1 2 2 
3 1 2 1 2 2 2 2 2 2 2 2 3 2 2 2 
2 2 2 2 2 2 2 3 3 2 2 3 2 2 2 3 
2 3 2 3 3 2 2 3 2 4 2 3 2 3 2 3 
3 3 2 4 2 3 8771 3858 300 MP stroke
2 4 2 3 2 4 3 4 2 4 2 4 2 3 2 4 
2 5 3 4 2 4 2 4 2 4 2 5 2 4 3 5 
2 4 2 5 2 5 2 4 3 5 2 5 2 5 2 5 
2 5 2 5 3 5 2 5 2 6 2 5 2 5 2 6 
3 5 2 6 2 5 2 6 2 5 2 6 3 6 2 6 
2 5 2 6 2 6 2 6 3 6 2 6 2 6 2 6 
2 7 2 6 3 6 2 6 2 7 2 6 2 6 2 7 
3 6 2 7 2 6 2 7 2 6 2 7 3 6 2 7 
2 7 2 6 2 7 2 7 3 7 2 6 2 7 2 7 
2 7 2 7 3 7 2 7 2 7 2 7 2 6 2 7 
3 7 2 7 2 7 2 7 2 7 2 7 3 8 2 7 
2 7 2 7 2 7 2 7 3 7 2 7 2 7 2 7 
2 7 2 7 3 7 2 7 2 7 2 7 2 7 3 7 
2 7 2 7 2 7 2 7 2 7 3 7 2 7 2 7 
2 7 2 7 2 6 3 7 2 7 2 7 2 7 2 6 
2 7 3 7 2 6 2 7 2 6 2 7 2 6 3 7 
2 6 2 7 2 6 2 6 2 7 3 6 2 6 2 6 
2 6 2 6 2 6 3 6 2 6 2 6 2 6 2 6 
2 5 3 6 2 5 2 6 2 5 2 6 2 5 3 5 
2 6 2 5 2 5 2 5 2 5 3 5 2 5 2 5 
2 4 2 5 2 5 3 5 2 4 2 5 2 5 2 4 
2 5 3 4 2 5 2 4 2 4 2 4 2 5 3 4 
2 4 2 4 2 4 2 4 2 4 3 3 2 4 2 4 
2 3 2 4 2 3 3 3 2 4 2 3 2 3 2 3 
3 3 2 3 2 3 2 3 2 2 2 3 3 2 2 3 
2 2 2 2 2 2 2 3 3 2 2 1 2 2 2 2 
2 2 2 1 3 2 2 1 2 1 2 1 2 1 2 1 
3 1 2 1 2 0 2 1 2 0 2 1 3 0 2 0 
2 0 2 0 2 0 2 0 3 -1 2 0 2 -1 2 -1 
2 0 2 -1 3 -1 2 -2 2 -1 2 -1 2 -2 2 -1 
3 -2 2 -2 2 -2 2 -2 2 -2 2 -3 3 -2 2 -3 
2 -3 2 -2 2 -3 2 -3 3 -4 2 -3 2 -3 2 -4 
2 -4 2 -3 3 -4 2 -4 2 -5 2 -4 2 -4 2 -5 
3 -5 2 -5 2 -5 2 -5 2 -5 2 -5 3 -6 2 -5 
2 -6 2 -6 2 -6 3 -6 2 -7 2 -6 2 -7 2 -6 
2 -7 3 -7 2 -7 2 -7 2 -8 2 -7 2 -8 3 -8 
2 -8 2 -8 2 -8 2 -8 2 -9 3 -8 2 -9 2 -9 
2 -9 2 -9 2 -9 8123 3046 300 MP stroke
3 -10 2 -9 2 -10 2 -10 2 -10 2 -10 3 -10 2 -10 
2 -11 2 -11 2 -10 2 -11 3 -11 2 -12 2 -11 2 -12 
2 -11 2 -12 3 -12 2 -12 2 -12 2 -12 2 -13 2 -12 
3 -13 2 -13 2 -13 2 -13 2 -13 2 -14 3 -13 2 -14 
2 -14 2 -14 2 -14 2 -15 3 -14 2 -15 2 -15 2 -14 
2 -16 2 -15 3 -15 2 -16 2 -16 2 -15 2 -16 2 -17 
3 -16 2 -17 2 -16 2 -17 2 -17 2 -17 3 -18 2 -17 
2 -18 2 -18 2 -18 2 -18 3 -18 2 -18 2 -19 2 -19 
2 -19 3 -19 2 -19 2 -20 2 -19 2 -20 2 -20 3 -20 
2 -20 2 -20 2 -21 2 -20 2 -21 3 -21 2 -21 2 -21 
2 -22 2 -21 2 -22 3 -22 2 -22 2 -22 2 -22 2 -22 
2 -23 3 -23 2 -22 2 -23 2 -23 2 -24 2 -23 3 -24 
2 -23 2 -24 2 -24 2 -25 2 -24 3 -25 2 -25 2 -25 
2 -25 2 -25 2 -25 3 -26 2 -25 2 -26 2 -26 2 -25 
2 -26 3 -26 2 -26 2 -26 2 -26 2 -26 2 -27 3 -26 
2 -26 2 -26 2 -26 2 -26 2 -26 3 -26 2 -26 2 -26 
2 -26 2 -26 2 -25 3 -26 2 -25 2 -26 2 -25 2 -25 
2 -24 3 -25 2 -25 2 -24 2 -24 2 -24 2 -23 3 -24 
2 -23 2 -22 2 -23 2 -22 3 -22 2 -22 2 -21 2 -21 
2 -20 2 -20 3 -20 2 -20 2 -20 2 -20 2 -19 2 -19 
3 -19 2 -18 2 -18 2 -18 2 -17 2 -17 3 -16 2 -16 
2 -16 2 -14 2 -15 2 -13 3 -14 2 -12 2 -12 2 -11 
2 -11 2 -9 3 -9 2 -9 2 -7 2 -7 2 -6 2 -6 
3 -4 2 -4 2 -3 2 -2 2 -1 2 -1 3 1 2 1 
2 2 2 3 2 4 2 4 3 6 2 6 2 7 2 8 
2 9 2 9 3 11 2 11 2 12 2 12 2 14 2 14 
3 15 2 16 2 17 2 17 2 18 2 19 3 19 2 20 
2 20 2 22 2 21 2 23 3 22 2 24 2 23 2 24 
2 25 2 24 3 26 2 25 2 26 2 26 2 26 2 27 
3 26 2 27 2 28 2 27 2 28 3 27 2 28 2 28 
2 29 2 28 2 28 3 29 2 28 2 29 2 28 2 29 
2 29 3 28 2 29 2 29 2 28 2 29 2 28 3 29 
2 28 2 29 2 28 2 29 2 28 3 28 2 28 2 28 
2 28 2 28 2 27 3 28 2 27 2 27 2 28 2 27 
2 27 3 26 2 27 2 27 2 26 2 26 2 27 3 26 
2 25 2 26 2 26 2 25 2 26 3 25 2 25 2 25 
2 25 2 24 2 25 3 24 2 24 2 24 2 24 2 24 
2 23 3 24 2 23 7474 4030 300 MP stroke
2 23 2 23 2 23 2 22 3 22 2 23 2 22 2 22 
2 22 2 21 3 22 2 21 2 21 2 21 2 21 2 20 
3 21 2 20 2 20 2 20 2 20 3 20 2 19 2 20 
2 19 2 19 2 19 3 19 2 18 2 19 2 18 2 18 
2 18 3 18 2 17 2 18 2 17 2 17 2 17 3 17 
2 17 2 17 2 16 2 16 2 17 3 16 2 15 2 16 
2 16 2 15 2 15 3 16 2 15 2 14 2 15 2 15 
2 14 3 14 2 14 2 15 2 13 2 14 2 14 3 13 
2 13 2 14 2 13 2 13 2 12 3 13 2 13 2 12 
2 12 2 12 2 12 3 12 2 12 2 12 2 11 2 11 
2 12 3 11 2 11 2 11 2 10 2 11 2 11 3 10 
2 10 2 10 2 10 2 10 2 10 3 10 2 9 2 10 
2 9 2 9 2 9 3 9 2 9 2 9 2 9 2 8 
2 9 3 8 2 8 2 8 2 8 2 8 3 8 2 8 
2 7 2 8 2 7 2 7 3 7 2 7 2 7 2 7 
2 7 2 6 3 7 2 6 2 7 2 6 2 6 2 6 
3 6 2 6 2 6 2 5 2 6 2 5 3 6 2 5 
2 5 2 5 2 5 2 5 3 5 2 5 2 4 2 5 
2 4 2 5 3 4 2 4 2 4 2 4 2 4 2 4 
3 4 2 4 2 3 2 4 2 3 2 4 3 3 2 3 
2 3 2 3 2 3 2 3 3 3 2 3 2 3 2 2 
2 3 2 2 3 2 2 3 2 2 2 2 2 2 2 2 
3 2 2 2 2 2 2 1 2 2 2 2 3 1 2 2 
2 1 2 1 2 1 2 2 3 1 2 1 2 1 2 1 
2 0 2 1 3 1 2 1 2 0 2 1 2 0 3 0 
2 1 2 0 2 0 2 0 2 1 3 0 2 0 2 -1 
2 0 2 0 2 0 3 -1 2 0 2 0 2 -1 2 0 
2 -1 3 -1 2 0 2 -1 2 -1 2 -1 2 -1 3 -1 
2 -1 2 -1 2 -1 2 -1 2 -1 3 -1 2 -2 2 -1 
2 -2 2 -1 2 -2 3 -1 2 -2 2 -1 2 -2 2 -2 
2 -2 3 -1 2 -2 2 -2 2 -2 2 -2 2 -2 3 -2 
2 -3 2 -2 2 -2 2 -2 2 -3 3 -2 2 -2 2 -3 
2 -2 2 -3 2 -2 3 -3 2 -3 2 -2 2 -3 2 -3 
2 -2 3 -3 2 -3 2 -3 2 -3 2 -3 2 -3 3 -3 
2 -3 2 -3 2 -3 2 -3 2 -4 3 -3 2 -3 2 -3 
2 -4 2 -3 3 -3 2 -4 2 -3 2 -4 2 -3 2 -4 
3 -3 2 -4 2 -4 2 -3 2 -4 2 -4 3 -3 2 -4 
2 -4 2 -4 2 -4 6826 2253 300 MP stroke
2 -3 3 -4 2 -4 2 -4 2 -4 2 -4 2 -4 3 -4 
2 -4 2 -4 2 -4 2 -4 2 -5 3 -4 2 -4 2 -4 
2 -4 2 -5 2 -4 3 -4 2 -4 2 -5 2 -4 2 -4 
2 -5 3 -4 2 -5 2 -4 2 -5 2 -4 2 -5 3 -4 
2 -5 2 -4 2 -5 2 -4 2 -5 3 -5 2 -4 2 -5 
2 -4 2 -5 2 -5 3 -5 2 -4 2 -5 2 -5 2 -5 
2 -4 3 -5 2 -5 2 -5 2 -5 2 -4 2 -5 3 -5 
2 -5 2 -5 2 -5 2 -5 2 -5 3 -5 2 -5 2 -5 
2 -4 2 -5 2 -5 3 -5 2 -6 2 -5 2 -5 2 -5 
3 -5 2 -5 2 -5 2 -5 2 -5 2 -5 3 -5 2 -5 
2 -6 2 -5 2 -5 2 -5 3 -5 2 -5 2 -5 2 -6 
2 -5 2 -5 3 -5 2 -6 2 -5 2 -5 2 -5 2 -6 
3 -5 2 -5 2 -5 2 -6 2 -5 2 -5 3 -5 2 -6 
2 -5 2 -5 2 -6 2 -5 3 -5 2 -6 2 -5 2 -5 
2 -6 2 -5 3 -6 2 -5 2 -5 2 -6 2 -5 2 -6 
3 -5 2 -5 2 -6 2 -5 2 -6 2 -5 3 -6 2 -5 
2 -5 2 -6 2 -5 2 -6 3 -5 2 -6 2 -5 2 -6 
2 -5 2 -6 3 -5 2 -6 2 -5 2 -6 2 -5 2 -6 
3 -5 2 -6 2 -5 2 -6 2 -5 2 -6 3 -6 2 -5 
2 -6 2 -5 2 -6 3 -5 2 -6 2 -6 2 -5 2 -6 
2 -5 3 -6 2 -6 2 -5 2 -6 2 -6 2 -5 3 -6 
2 -5 2 -6 2 -6 2 -5 2 -6 3 -6 2 -5 2 -6 
2 -6 2 -6 2 -5 3 -6 2 -6 2 -5 2 -6 2 -6 
2 -6 3 -5 2 -6 2 -6 2 -6 2 -6 2 -5 3 -6 
2 -6 2 -6 2 -6 2 -5 2 -6 3 -6 2 -6 2 -6 
2 -6 2 -5 2 -6 3 -6 2 -6 2 -6 2 -6 2 -6 
2 -6 3 -6 2 -5 2 -6 2 -6 2 -6 2 -6 3 -6 
2 -6 2 -6 2 -6 2 -6 2 -6 3 -6 2 -6 2 -6 
2 -7 2 -6 2 -6 3 -6 2 -6 2 -6 2 -6 2 -6 
2 -7 3 -6 2 -6 2 -6 2 -6 2 -7 2 -6 3 -6 
2 -7 2 -6 2 -6 2 -7 3 -6 2 -6 2 -7 2 -6 
2 -6 2 -7 3 -6 2 -7 2 -6 2 -7 2 -6 2 -7 
3 -6 2 -7 2 -6 2 -7 2 -6 2 -7 3 -7 2 -6 
2 -7 2 -7 2 -6 2 -7 3 -7 2 -6 2 -7 2 -7 
2 -7 2 -7 3 -6 2 -7 2 -7 2 -7 2 -7 2 -7 
3 -7 2 -7 2 -6 2 -7 2 -7 2 -7 3 -7 2 -7 
2 -7 2 -7 2 -7 2 -8 3 -7 2 -7 2 -7 2 -7 
2 -7 2 -7 3 -7 6177 3919 300 MP stroke
2 -8 2 -7 2 -7 2 -7 2 -8 3 -7 2 -7 2 -7 
2 -8 2 -7 2 -7 3 -8 2 -7 2 -7 2 -8 2 -7 
2 -7 3 -8 2 -7 2 -8 2 -7 2 -7 2 -8 3 -7 
2 -8 2 -7 2 -8 2 -7 3 -8 2 -7 2 -8 2 -7 
2 -8 2 -8 3 -7 2 -8 2 -7 2 -8 2 -7 2 -8 
3 -8 2 -7 2 -8 2 -7 2 -8 2 -8 3 -7 2 -8 
2 -7 2 -8 2 -8 2 -7 3 -8 2 -8 2 -8 2 -7 
2 -8 2 -8 3 -7 2 -8 2 -8 2 -8 2 -7 2 -8 
3 -8 2 -7 2 -8 2 -8 2 -7 2 -8 3 -8 2 -7 
2 -8 2 -8 2 -7 2 -8 3 -8 2 -7 2 -8 2 -7 
2 -8 2 -7 3 -8 2 -7 2 -8 2 -7 2 -8 2 -7 
3 -7 2 -8 2 -7 2 -7 2 -8 2 -7 3 -7 2 -7 
2 -7 2 -7 2 -7 2 -7 3 -8 2 -6 2 -7 2 -7 
2 -7 2 -7 3 -7 2 -7 2 -6 2 -7 2 -6 2 -7 
3 -7 2 -6 2 -7 2 -6 2 -6 3 -7 2 -6 2 -6 
2 -6 2 -6 2 -6 3 -6 2 -6 2 -6 2 -6 2 -6 
2 -6 3 -5 2 -6 2 -6 2 -5 2 -5 2 -6 3 -5 
2 -6 2 -5 2 -5 2 -5 2 -5 3 -5 2 -5 2 -5 
2 -5 2 -4 2 -5 3 -5 2 -4 2 -5 2 -4 2 -4 
2 -5 3 -4 2 -4 2 -4 2 -4 2 -4 2 -4 3 -3 
2 -4 2 -4 2 -3 2 -4 2 -3 3 -3 2 -4 2 -3 
2 -4 2 -4 2 -4 3 -5 2 -5 2 -5 2 -6 2 -6 
2 -6 3 -6 2 -6 2 -7 2 -7 2 -7 2 -7 3 -7 
2 -8 2 -7 2 -8 2 -8 2 -8 3 -8 2 -8 2 -8 
2 -8 2 -9 2 -8 3 -8 2 -9 2 -8 2 -9 2 -8 
3 -8 2 -9 2 -8 2 -8 2 -8 2 -9 3 -8 2 -8 
2 -8 2 -8 2 -7 2 -8 3 -8 2 -7 2 -7 2 -8 
2 -7 2 -7 3 -6 2 -7 2 -6 2 -7 2 -6 2 -6 
3 -6 2 -5 2 -6 2 -5 2 -5 2 -5 3 -4 2 -5 
2 -4 2 -4 2 -4 2 -3 3 -4 2 -3 2 -3 2 -2 
2 -3 2 -2 3 -2 2 -2 2 -1 2 -1 2 -1 2 -1 
3 0 2 0 2 0 2 0 2 0 2 1 3 1 2 2 
2 1 2 2 2 2 2 2 3 3 2 3 2 3 2 3 
2 4 2 4 3 4 2 4 2 4 2 5 2 5 2 6 
3 5 2 6 2 6 2 6 2 6 2 7 3 7 2 7 
2 7 2 7 2 8 2 8 3 8 2 8 2 8 2 9 
2 9 3 9 2 9 2 9 2 9 2 10 2 9 3 10 
2 10 2 10 2 10 5529 5236 300 MP stroke
2 10 2 10 3 11 2 10 2 11 2 10 2 11 2 11 
3 11 2 10 2 11 2 11 2 11 2 11 3 11 2 11 
2 11 2 11 2 11 2 11 3 12 2 11 2 11 2 12 
2 11 2 11 3 12 2 11 2 12 2 12 2 11 2 12 
3 11 2 12 2 12 2 11 2 12 2 12 3 11 2 12 
2 12 2 11 2 12 2 12 3 11 2 12 2 12 2 11 
2 12 2 11 3 12 2 11 2 12 2 11 2 12 2 11 
3 12 2 11 2 11 2 11 2 12 2 11 3 11 2 11 
2 11 2 11 2 11 2 11 3 11 2 11 2 11 2 10 
2 11 3 11 2 10 2 11 2 10 2 10 2 11 3 10 
2 10 2 10 2 10 2 10 2 10 3 10 2 10 2 10 
2 10 2 9 2 10 3 9 2 10 2 9 2 9 2 10 
2 9 3 9 2 9 2 9 2 9 2 9 2 9 3 8 
2 9 2 9 2 8 2 8 2 9 3 8 2 8 2 9 
2 8 2 8 2 8 3 8 2 8 2 7 2 8 2 8 
2 7 3 8 2 7 2 8 2 7 2 7 2 8 3 7 
2 7 2 7 2 7 2 6 2 7 3 7 2 7 2 6 
2 7 2 6 2 6 3 7 2 6 2 6 2 6 2 6 
2 6 3 6 2 6 2 5 2 6 2 6 2 5 3 6 
2 5 2 5 2 6 2 5 2 5 3 5 2 5 2 5 
2 5 2 5 3 4 2 5 2 5 2 4 2 5 2 4 
3 4 2 5 2 4 2 4 2 4 2 4 3 4 2 4 
2 4 2 4 2 4 2 3 3 4 2 3 2 4 2 3 
2 4 2 3 3 3 2 4 2 3 2 3 2 3 2 3 
3 3 2 3 2 3 2 2 2 3 2 3 3 3 2 2 
2 3 2 2 2 3 2 2 3 2 2 3 2 2 2 2 
2 2 2 3 3 2 2 2 2 2 2 2 2 2 2 1 
3 2 2 2 2 2 2 2 2 1 2 2 3 1 2 2 
2 1 2 1 2 1 2 2 3 1 2 1 2 1 2 0 
2 1 2 1 3 1 2 0 2 1 2 1 2 0 2 0 
3 1 2 0 2 0 2 1 2 0 3 0 2 0 2 0 
2 0 2 0 2 0 3 0 2 -1 2 0 2 0 2 0 
2 -1 3 0 2 -1 2 0 2 -1 2 0 2 -1 3 -1 
2 0 2 -1 2 -1 2 0 2 -1 3 -1 2 -1 2 -1 
2 -1 2 -1 2 -1 3 -1 2 -1 2 -1 2 -1 2 -1 
2 -1 3 -1 2 -1 2 -2 2 -1 2 -1 2 -1 3 -2 
2 -1 2 -1 2 -2 2 -1 2 -1 3 -2 2 -1 2 -1 
2 -2 2 -1 2 -1 4881 3569 300 MP stroke
3 -2 2 -1 2 -2 2 -1 2 -2 2 -1 3 -1 2 -2 
2 -1 2 -2 2 -1 2 -2 3 -1 2 -2 2 -1 2 -2 
2 -1 2 -2 3 -1 2 -2 2 -1 2 -1 2 -2 2 -1 
3 -2 2 -1 2 -2 2 -1 2 -1 2 -2 3 -1 2 -1 
2 -2 2 -1 2 -1 3 -2 2 -1 2 -1 2 -2 2 -1 
2 -1 3 -1 2 -2 2 -1 2 -1 2 -1 2 -1 3 -1 
2 -1 2 -1 2 -2 2 -1 2 -1 3 -1 2 0 2 -1 
2 -1 2 -1 2 -1 3 -1 2 -1 2 0 2 -1 2 -1 
2 -1 3 0 2 -1 2 0 2 -1 2 -1 2 0 3 -1 
2 0 2 0 2 -1 2 0 2 0 3 -1 2 0 2 0 
2 0 2 0 2 0 3 0 2 0 2 0 2 0 2 0 
2 0 3 0 2 0 2 1 2 0 2 0 2 1 3 0 
2 1 2 0 2 1 2 1 2 0 3 1 2 1 2 1 
2 0 2 1 2 1 3 1 2 1 2 1 2 2 2 1 
2 1 3 1 2 2 2 1 2 2 2 1 3 2 2 1 
2 2 2 2 2 2 2 1 3 2 2 2 2 2 2 2 
2 2 2 3 3 2 2 2 2 2 2 3 2 2 2 3 
3 2 2 3 2 3 2 2 2 3 2 3 3 3 2 3 
2 3 2 3 2 3 2 3 3 4 2 3 2 3 2 4 
2 3 2 4 3 4 2 3 2 4 2 4 2 4 2 4 
3 4 2 4 2 4 2 5 2 4 2 4 3 5 2 4 
2 5 2 4 2 5 2 5 3 4 2 5 2 5 2 5 
2 5 2 4 3 5 2 5 2 5 2 5 2 5 2 5 
3 5 2 5 2 6 2 5 2 5 2 5 3 6 2 5 
2 5 2 5 2 6 2 5 3 6 2 5 2 6 2 5 
2 6 2 5 3 6 2 5 2 6 2 6 2 5 3 6 
2 6 2 5 2 6 2 6 2 6 3 5 2 6 2 6 
2 6 2 6 2 6 3 6 2 5 2 6 2 6 2 6 
2 6 3 6 2 6 2 6 2 6 2 6 2 6 3 6 
2 6 2 6 2 6 2 6 2 6 3 7 2 6 2 6 
2 6 2 6 2 6 3 6 2 6 2 6 2 6 2 7 
2 6 3 6 2 6 2 6 2 6 2 6 2 6 3 6 
2 6 2 6 2 7 2 6 2 6 3 6 2 6 2 6 
2 6 2 6 2 6 3 6 2 6 2 6 2 6 2 6 
2 6 3 6 2 6 2 5 2 6 2 6 2 6 3 6 
2 6 2 5 2 6 2 6 2 6 3 5 2 6 2 6 
2 5 2 6 2 5 3 6 2 6 2 5 2 5 2 6 
3 5 2 6 2 5 4232 2740 300 MP stroke
2 5 2 6 2 5 3 5 2 5 2 6 2 5 2 5 
2 5 3 5 2 5 2 5 2 5 2 4 2 5 3 5 
2 5 2 4 2 5 2 5 2 4 3 5 2 4 2 5 
2 4 2 4 2 5 3 4 2 4 2 4 2 4 2 4 
2 4 3 4 2 4 2 4 2 4 2 3 2 4 3 3 
2 4 2 3 2 4 2 3 2 3 3 3 2 4 2 3 
2 3 2 3 2 2 3 3 2 3 2 3 2 2 2 3 
2 2 3 3 2 2 2 2 2 3 2 2 2 2 3 2 
2 2 2 2 2 2 2 2 2 2 3 1 2 2 2 2 
2 1 2 2 2 1 3 1 2 2 2 1 2 1 2 1 
3 1 2 1 2 1 2 1 2 0 2 1 3 0 2 1 
2 0 2 1 2 0 2 0 3 0 2 0 2 0 2 0 
2 -1 2 0 3 -1 2 0 2 -1 2 0 2 -1 2 -1 
3 -1 2 -1 2 -2 2 -1 2 -1 2 -2 3 -1 2 -2 
2 -2 2 -2 2 -2 2 -2 3 -2 2 -2 2 -3 2 -2 
2 -3 2 -2 3 -3 2 -3 2 -3 2 -3 2 -4 2 -3 
3 -4 2 -3 2 -4 2 -4 2 -4 2 -4 3 -4 2 -4 
2 -4 2 -5 2 -4 2 -5 3 -5 2 -5 2 -5 2 -5 
2 -6 2 -5 3 -6 2 -5 2 -6 2 -6 2 -6 2 -6 
3 -7 2 -6 2 -7 2 -6 2 -7 2 -7 3 -7 2 -7 
2 -8 2 -7 2 -8 2 -8 3 -7 2 -8 2 -8 2 -9 
2 -8 3 -9 2 -8 2 -9 2 -9 2 -9 2 -9 3 -9 
2 -10 2 -9 2 -10 2 -10 2 -10 3 -10 2 -10 2 -11 
2 -10 2 -11 2 -11 3 -11 2 -11 2 -11 2 -12 2 -11 
2 -12 3 -12 2 -12 2 -12 2 -12 2 -12 2 -13 3 -13 
2 -12 2 -13 2 -13 2 -14 2 -13 3 -14 2 -13 2 -14 
2 -14 2 -14 2 -15 3 -14 2 -15 2 -14 2 -15 2 -15 
2 -15 3 -16 2 -15 2 -16 2 -15 2 -16 2 -16 3 -16 
2 -17 2 -16 2 -17 2 -17 2 -17 3 -17 2 -17 2 -18 
2 -17 2 -18 2 -18 3 -18 2 -19 2 -18 2 -19 2 -18 
2 -19 3 -20 2 -19 2 -19 2 -20 2 -20 2 -20 3 -20 
2 -20 2 -20 2 -21 2 -21 3 -21 2 -21 2 -21 2 -21 
2 -22 2 -22 3 -22 2 -22 2 -22 2 -22 2 -23 2 -22 
3 -23 2 -23 2 -23 2 -24 2 -23 2 -24 3 -24 2 -24 
2 -24 2 -24 2 -24 2 -25 3 -25 2 -25 2 -26 2 -26 
2 -27 2 -27 3 -27 2 -28 2 -27 2 -29 2 -28 2 -29 
3 -29 2 -29 2 -29 2 -29 2 -30 2 -30 3 -30 2 -30 
2 -30 2 -30 2 -30 3584 5148 300 MP stroke
2 -30 3 -31 2 -30 2 -30 2 -30 2 -31 2 -30 3 -30 
2 -30 2 -30 2 -30 2 -30 2 -29 3 -30 2 -29 2 -29 
2 -29 2 -29 2 -28 3 -28 2 -28 2 -28 2 -28 2 -27 
2 -27 3 -27 2 -26 2 -26 2 -26 2 -25 2 -25 3 -25 
2 -24 2 -24 2 -23 2 -24 2 -22 3 -23 2 -21 2 -22 
2 -21 2 -21 3 -21 2 -23 2 -23 2 -23 2 -24 2 -24 
3 -24 2 -24 2 -24 2 -23 2 -24 2 -23 3 -23 2 -22 
2 -21 2 -21 2 -20 2 -19 3 -18 2 -17 2 -16 2 -15 
2 -14 2 -12 3 -12 2 -10 2 -9 2 -7 2 -6 2 -5 
3 -3 2 -2 2 0 2 1 2 3 2 4 3 6 2 7 
2 8 2 10 2 12 2 13 3 14 2 16 2 17 2 18 
2 20 2 21 3 22 2 24 2 24 2 25 2 27 2 27 
3 28 2 30 2 29 2 31 2 31 2 31 3 32 2 32 
2 32 2 33 2 32 2 33 3 34 2 33 2 34 2 34 
2 34 2 34 3 35 2 35 2 35 2 35 2 35 2 35 
3 35 2 36 2 35 2 36 2 35 3 36 2 35 2 36 
2 35 2 35 2 36 3 35 2 35 2 35 2 35 2 35 
2 34 3 35 2 34 2 34 2 34 2 34 2 34 3 34 
2 33 2 33 2 33 2 33 2 32 3 33 2 32 2 32 
2 31 2 32 2 31 3 31 2 31 2 30 2 31 2 30 
2 30 3 29 2 30 2 29 2 29 2 29 2 28 3 28 
2 28 2 28 2 28 2 27 2 28 3 27 2 27 2 26 
2 27 2 26 2 27 3 26 2 25 2 26 2 25 2 25 
2 25 3 25 2 24 2 25 2 24 2 24 2 23 3 24 
2 23 2 23 2 23 2 23 2 22 3 22 2 22 2 22 
2 22 2 21 2 22 3 21 2 21 2 20 2 21 2 20 
2 20 3 20 2 20 2 19 2 20 2 19 3 19 2 18 
2 19 2 18 2 19 2 18 3 18 2 17 2 18 2 17 
2 17 2 17 3 17 2 17 2 16 2 16 2 16 2 16 
3 16 2 16 2 15 2 15 2 15 2 15 3 15 2 15 
2 14 2 14 2 14 2 14 3 14 2 14 2 13 2 13 
2 14 2 13 3 12 2 13 2 13 2 12 2 12 2 12 
3 12 2 12 2 12 2 11 2 12 2 11 3 11 2 11 
2 11 2 10 2 11 2 10 3 10 2 11 2 9 2 10 
2 10 2 9 3 10 2 9 2 9 2 9 2 9 2 9 
3 8 2 9 2 8 2 8 2 8 2 8 3 8 2 8 
2 7 2 8 2 7 2 7 3 7 2 7 2 7 2 6 
2 7 3 6 2 6 2935 2032 300 MP stroke
2 7 2 6 2 6 2 5 3 6 2 5 2 6 2 5 
2 5 2 5 3 5 2 5 2 5 2 5 2 4 2 4 
3 5 2 4 2 4 2 4 2 4 2 3 3 4 2 3 
2 4 2 3 2 3 2 3 3 3 2 3 2 3 2 2 
2 3 2 2 3 2 2 3 2 2 2 2 2 2 2 2 
3 1 2 2 2 1 2 2 2 1 2 1 3 1 2 1 
2 1 2 1 2 1 2 1 3 0 2 1 2 0 2 0 
2 0 2 0 3 0 2 0 2 0 2 0 2 0 2 -1 
3 0 2 -1 2 -1 2 0 2 -1 2 -1 3 -1 2 -1 
2 -2 2 -1 2 -1 2 -2 3 -1 2 -2 2 -1 2 -2 
2 -2 2 -2 3 -2 2 -2 2 -2 2 -2 2 -3 3 -2 
2 -2 2 -3 2 -2 2 -3 2 -3 3 -3 2 -2 2 -3 
2 -3 2 -3 2 -4 3 -3 2 -3 2 -3 2 -4 2 -3 
2 -4 3 -3 2 -4 2 -4 2 -3 2 -4 2 -4 3 -4 
2 -4 2 -4 2 -4 2 -4 2 -5 3 -4 2 -4 2 -5 
2 -4 2 -5 2 -5 3 -4 2 -5 2 -5 2 -5 2 -5 
2 -5 3 -5 2 -5 2 -6 2 -5 2 -5 2 -6 3 -5 
2 -6 2 -5 2 -6 2 -6 2 -6 3 -5 2 -6 2 -6 
2 -6 2 -6 2 -6 3 -6 2 -7 2 -6 2 -6 2 -6 
2 -7 3 -6 2 -7 2 -6 2 -7 2 -6 2 -7 3 -7 
2 -7 2 -6 2 -7 2 -7 2 -7 3 -7 2 -7 2 -7 
2 -7 2 -7 3 -7 2 -7 2 -7 2 -8 2 -7 2 -7 
3 -7 2 -8 2 -7 2 -7 2 -8 2 -7 3 -8 2 -7 
2 -8 2 -7 2 -8 2 -8 3 -7 2 -8 2 -8 2 -7 
2 -8 2 -8 3 -7 2 -8 2 -8 2 -8 2 -8 2 -7 
3 -8 2 -8 2 -8 2 -8 2 -8 2 -8 3 -8 2 -8 
2 -8 2 -8 2 -8 2 -8 3 -8 2 -8 2 -8 2 -8 
2 -8 2 -8 3 -8 2 -8 2 -8 2 -8 2 -8 2 -9 
3 -8 2 -8 2 -8 2 -8 2 -8 2 -8 3 -8 2 -8 
2 -9 2 -8 2 -8 2 -8 3 -8 2 -8 2 -8 2 -8 
2 -8 2 -8 3 -9 2 -8 2 -8 2 -8 2 -8 2 -8 
3 -8 2 -8 2 -8 2 -8 2 -8 2 -8 3 -8 2 -8 
2 -8 2 -8 2 -8 3 -8 2 -8 2 -8 2 -8 2 -8 
2 -8 3 -8 2 -8 2 -7 2 -8 2 -8 2 -8 3 -8 
2 -7 2 -8 2 -8 2 -8 2 -7 3 -8 2 -8 2 -7 
2 -8 2 -8 2 -7 3 -8 2 -7 2 -8 2 -8 2 -7 
2 -8 3 -7 2 -7 2 -8 2 -7 2 -8 2 -7 3 -7 
2 -8 2 -7 2 -7 2287 3310 300 MP stroke
2 -7 2 -8 3 -7 2 -7 2 -7 2 -7 2 -7 2 -7 
3 -7 2 -7 2 -7 2 -7 2 -7 2 -7 3 -7 2 -7 
2 -7 2 -7 2 -6 2 -7 3 -7 2 -6 2 -7 2 -7 
2 -6 2 -7 3 -6 2 -7 2 -6 2 -7 2 -6 2 -7 
3 -6 2 -6 2 -7 2 -6 2 -6 2 -6 3 -6 2 -6 
2 -7 2 -6 2 -6 3 -6 2 -6 2 -6 2 -5 2 -6 
2 -6 3 -6 2 -6 2 -5 2 -6 2 -6 2 -5 3 -6 
2 -6 2 -5 2 -6 2 -5 2 -6 3 -5 2 -5 2 -6 
2 -5 2 -5 2 -5 3 -5 2 -5 2 -5 2 -5 2 -5 
2 -5 3 -5 2 -5 2 -5 2 -4 2 -5 2 -5 3 -4 
2 -5 2 -4 2 -5 2 -4 2 -4 3 -5 2 -4 2 -4 
2 -4 2 -4 2 -4 3 -4 2 -4 2 -4 2 -4 2 -4 
2 -3 3 -4 2 -4 2 -3 2 -4 2 -3 2 -4 3 -3 
2 -4 2 -3 2 -3 2 -3 2 -4 3 -3 2 -3 2 -3 
2 -3 2 -3 2 -3 3 -2 2 -3 2 -3 2 -3 2 -2 
2 -3 3 -2 2 -3 2 -2 2 -3 2 -2 2 -2 3 -3 
2 -2 2 -2 2 -2 2 -2 3 -2 2 -2 2 -2 2 -2 
2 -2 2 -2 3 -2 2 -1 2 -2 2 -2 2 -1 2 -2 
3 -1 2 -2 2 -1 2 -2 2 -1 2 -1 3 -2 2 -1 
2 -1 2 -1 2 -2 2 -1 3 -1 2 -1 2 -1 2 -1 
2 -1 2 -1 3 0 2 -1 2 -1 2 -1 2 -1 2 0 
3 -1 2 -1 2 0 2 -1 2 -1 2 0 3 -1 2 0 
2 -1 2 0 2 -1 2 0 3 0 2 -1 2 0 2 0 
2 -1 2 0 3 0 2 -1 2 0 2 0 2 0 2 -1 
3 0 2 0 2 0 2 0 2 0 2 0 3 0 2 -1 
2 0 2 0 2 0 2 0 3 0 2 0 2 0 2 0 
2 0 2 0 3 0 2 0 2 0 2 0 2 0 2 0 
1819 4025 217 MP stroke
/c9 { 0.000000 0.500000 0.000000 sr} bdef
c9
3 -8 2 -9 2 -9 2 -9 2 -9 3 -9 2 -9 2 -9 
2 -9 2 -9 2 -9 3 -9 2 -9 2 -9 2 -10 2 -9 
2 -9 3 -10 2 -9 2 -9 2 -10 2 -9 2 -10 3 -9 
2 -10 2 -10 2 -9 2 -10 2 -10 3 -9 2 -10 2 -10 
2 -10 2 -10 2 -10 3 -10 2 -10 2 -10 2 -10 2 -10 
2 -10 3 -10 2 -10 2 -10 2 -10 2 -10 2 -11 3 -10 
2 -10 2 -10 2 -11 2 -10 2 -10 3 -11 2 -10 2 -10 
2 -11 2 -10 2 -11 3 -10 2 -11 2 -10 2 -10 2 -11 
2 -10 3 -11 2 -11 2 -10 2 -11 2 -10 2 -11 3 -10 
2 -11 2 -10 2 -11 2 -10 2 -11 3 -10 2 -11 2 -10 
2 -11 2 -10 2 -11 3 -10 2 -11 2 -10 2 -11 2 -10 
3 -11 2 -10 2 -10 2 -11 2 -10 2 -10 3 -10 2 -11 
2 -10 2 -10 2 -10 2 -10 3 -10 2 -10 2 -10 2 -10 
2 -10 2 -10 3 -10 2 -9 2 -10 2 -10 2 -9 2 -10 
3 -9 2 -10 2 -9 2 -9 2 -9 2 -9 3 -10 2 -9 
2 -8 2 -9 2 -9 2 -9 3 -8 2 -9 2 -8 2 -8 
2 -9 2 -8 3 -8 2 -8 2 -8 2 -7 2 -8 2 -7 
3 -8 2 -7 2 -7 2 -7 2 -7 2 -7 3 -7 2 -7 
2 -6 2 -6 2 -7 2 -6 3 -6 2 -6 2 -5 2 -6 
2 -5 2 -6 3 -5 2 -5 2 -5 2 -4 2 -5 2 -4 
3 -5 2 -4 2 -4 2 -4 2 -3 2 -4 3 -3 2 -4 
2 -3 2 -3 2 -2 2 -3 3 -2 2 -3 2 -2 2 -2 
2 -1 3 -2 2 -1 2 -2 2 -1 2 -1 2 -1 3 0 
2 -1 2 0 2 0 2 0 2 0 3 0 2 1 2 0 
2 1 2 1 2 1 3 2 2 1 2 2 2 2 2 2 
2 2 3 2 2 2 2 3 2 3 2 2 2 3 3 3 
2 4 2 3 2 4 2 3 2 4 3 4 2 4 2 5 
2 4 2 5 2 4 3 5 2 5 2 5 2 5 2 5 
2 6 3 5 2 6 2 5 2 6 2 6 2 6 3 6 
2 6 2 7 2 6 2 7 2 6 3 7 2 7 2 7 
2 6 2 7 2 8 3 7 2 7 2 7 2 8 2 7 
2 8 3 7 2 8 2 7 2 8 2 8 2 8 3 8 
2 8 2 8 2 8 2 8 3 8 2 8 2 8 2 8 
2 8 2 9 3 8 2 8 2 9 2 8 2 8 2 9 
3 8 2 9 2 8 2 8 2 9 2 8 3 9 2 8 
2 9 2 8 2 9 2 8 3 9 2 8 2 8 2 9 
2 8 2 9 3 8 2 8 2 9 2 8 2 8 2 9 
3 8 2 8 2 8 12013 4648 300 MP stroke
2 9 2 8 2 8 3 8 2 8 2 8 2 8 2 8 
2 8 3 8 2 8 2 8 2 8 2 7 2 8 3 8 
2 8 2 7 2 8 2 7 2 8 3 7 2 7 2 8 
2 7 2 7 2 8 3 7 2 7 2 7 2 7 2 7 
2 7 3 6 2 7 2 7 2 7 2 6 2 7 3 6 
2 7 2 6 2 6 2 7 2 6 3 6 2 6 2 6 
2 6 2 6 3 6 2 6 2 6 2 5 2 6 2 5 
3 6 2 5 2 6 2 5 2 5 2 5 3 6 2 5 
2 5 2 5 2 5 2 4 3 5 2 5 2 4 2 5 
2 5 2 4 3 4 2 5 2 4 2 4 2 4 2 4 
3 4 2 4 2 4 2 4 2 4 2 4 3 3 2 4 
2 3 2 4 2 3 2 4 3 3 2 3 2 3 2 4 
2 3 2 3 3 3 2 2 2 3 2 3 2 3 2 2 
3 3 2 3 2 2 2 2 2 3 2 2 3 2 2 3 
2 2 2 2 2 2 2 2 3 2 2 2 2 2 2 1 
2 2 2 2 3 1 2 2 2 2 2 1 2 2 2 1 
3 1 2 2 2 1 2 1 2 1 3 1 2 1 2 1 
2 1 2 1 2 1 3 1 2 1 2 1 2 0 2 1 
2 1 3 0 2 1 2 1 2 0 2 0 2 1 3 0 
2 1 2 0 2 0 2 1 2 0 3 0 2 0 2 0 
2 0 2 0 2 0 3 0 2 0 2 0 2 0 2 0 
2 0 3 0 2 0 2 0 2 -1 2 0 2 0 3 0 
2 -1 2 0 2 0 2 -1 2 0 3 0 2 -1 2 0 
2 -1 2 0 2 -1 3 0 2 0 2 -1 2 0 2 -1 
2 -1 3 0 2 -1 2 0 2 -1 2 0 2 -1 3 0 
2 -1 2 -1 2 0 2 -1 2 0 3 -1 2 0 2 -1 
2 -1 2 0 2 -1 3 0 2 -1 2 0 2 -1 2 0 
2 -1 3 0 2 -1 2 0 2 -1 2 0 3 -1 2 0 
2 -1 2 0 2 -1 2 0 3 0 2 -1 2 0 2 0 
2 -1 2 0 3 0 2 0 2 -1 2 0 2 0 2 0 
3 0 2 0 2 -1 2 0 2 0 2 0 3 0 2 1 
2 0 2 0 2 0 2 0 3 0 2 1 2 0 2 0 
2 0 2 1 3 0 2 1 2 0 2 1 2 0 2 1 
3 1 2 0 2 1 2 1 2 0 2 1 3 1 2 1 
2 1 2 1 2 1 2 1 3 1 2 2 2 1 2 1 
2 1 2 2 3 1 2 2 2 1 2 2 2 1 2 2 
3 2 2 1 2 2 2 2 2 2 2 2 3 2 2 2 
2 2 2 2 2 2 11365 3966 300 MP stroke
2 3 3 2 2 2 2 3 2 2 2 3 3 2 2 3 
2 2 2 3 2 3 2 3 3 3 2 3 2 3 2 3 
2 3 2 3 3 3 2 3 2 4 2 3 2 3 2 4 
3 3 2 4 2 4 2 3 2 4 2 4 3 4 2 4 
2 4 2 4 2 4 2 4 3 4 2 4 2 5 2 4 
2 4 2 5 3 4 2 5 2 4 2 5 2 5 2 5 
3 4 2 5 2 5 2 5 2 5 2 5 3 5 2 6 
2 5 2 5 2 5 2 6 3 5 2 6 2 5 2 6 
2 5 2 6 3 6 2 6 2 5 2 6 2 6 2 6 
3 6 2 6 2 6 2 6 2 7 2 6 3 6 2 6 
2 7 2 6 2 7 2 6 3 7 2 6 2 7 2 6 
2 7 2 7 3 7 2 6 2 7 2 7 2 7 3 7 
2 7 2 7 2 7 2 7 2 7 3 7 2 8 2 7 
2 7 2 7 2 8 3 7 2 7 2 8 2 7 2 8 
2 7 3 8 2 7 2 8 2 7 2 8 2 8 3 7 
2 8 2 8 2 8 2 7 2 8 3 8 2 8 2 8 
2 8 2 7 2 8 3 8 2 8 2 8 2 8 2 8 
2 8 3 8 2 8 2 8 2 9 2 8 2 8 3 8 
2 8 2 8 2 8 2 8 2 9 3 8 2 8 2 8 
2 9 2 8 2 8 3 8 2 8 2 9 2 8 2 8 
2 9 3 8 2 8 2 8 2 9 2 8 2 8 3 9 
2 8 2 8 2 8 2 9 2 8 3 8 2 9 2 8 
2 8 2 8 3 9 2 8 2 8 2 8 2 9 2 8 
3 8 2 8 2 9 2 8 2 8 2 8 3 8 2 9 
2 8 2 8 2 8 2 8 3 8 2 8 2 8 2 8 
2 8 2 8 3 9 2 7 2 8 2 8 2 8 2 8 
3 8 2 8 2 8 2 8 2 8 2 7 3 8 2 8 
2 8 2 7 2 8 2 8 3 7 2 8 2 8 2 7 
2 8 2 7 3 8 2 7 2 8 2 7 2 7 2 8 
3 7 2 7 2 8 2 7 2 7 2 7 3 7 2 7 
2 7 2 7 2 7 2 7 3 7 2 7 2 7 2 7 
2 7 2 6 3 7 2 7 2 6 2 7 2 6 2 7 
3 6 2 7 2 6 2 7 2 6 2 6 3 6 2 6 
2 7 2 6 2 6 3 6 2 6 2 5 2 6 2 6 
2 6 3 6 2 5 2 6 2 5 2 6 2 5 3 6 
2 5 2 5 2 6 2 5 2 5 3 5 2 5 2 5 
2 5 2 5 2 5 3 4 2 5 2 5 2 4 2 5 
2 4 3 5 2 4 10716 2036 300 MP stroke
2 4 2 5 2 4 2 4 3 4 2 4 2 4 2 4 
2 4 2 3 3 4 2 4 2 3 2 4 2 3 2 3 
3 4 2 3 2 3 2 3 2 3 2 3 3 3 2 3 
2 2 2 3 2 3 2 2 3 3 2 2 2 2 2 3 
2 2 2 2 3 2 2 2 2 1 2 2 2 2 2 2 
3 1 2 2 2 1 2 1 2 1 2 2 3 1 2 1 
2 1 2 0 2 1 3 1 2 0 2 1 2 0 2 1 
2 0 3 0 2 0 2 0 2 0 2 0 2 -1 3 0 
2 0 2 -1 2 -1 2 0 2 -1 3 -1 2 -1 2 -1 
2 -2 2 -1 2 -1 3 -2 2 -1 2 -2 2 -2 2 -2 
2 -2 3 -2 2 -2 2 -2 2 -2 2 -3 2 -2 3 -3 
2 -3 2 -3 2 -3 2 -3 2 -3 3 -3 2 -4 2 -3 
2 -4 2 -4 2 -3 3 -4 2 -4 2 -4 2 -5 2 -4 
2 -5 3 -4 2 -5 2 -5 2 -5 2 -5 2 -5 3 -5 
2 -5 2 -6 2 -6 2 -5 2 -6 3 -6 2 -6 2 -6 
2 -7 2 -6 2 -7 3 -7 2 -6 2 -7 2 -7 2 -8 
2 -7 3 -7 2 -8 2 -8 2 -7 2 -8 2 -9 3 -8 
2 -8 2 -9 2 -8 2 -9 3 -9 2 -9 2 -9 2 -9 
2 -10 2 -9 3 -10 2 -10 2 -10 2 -10 2 -10 2 -11 
3 -10 2 -11 2 -11 2 -11 2 -11 2 -11 3 -11 2 -12 
2 -12 2 -12 2 -12 2 -12 3 -12 2 -12 2 -13 2 -13 
2 -13 2 -13 3 -13 2 -13 2 -14 2 -14 2 -14 2 -14 
3 -14 2 -14 2 -15 2 -14 2 -15 2 -15 3 -15 2 -16 
2 -15 2 -16 2 -16 2 -16 3 -16 2 -16 2 -17 2 -16 
2 -17 2 -17 3 -17 2 -18 2 -17 2 -18 2 -18 2 -18 
3 -19 2 -18 2 -19 2 -19 2 -19 2 -19 3 -19 2 -20 
2 -20 2 -20 2 -20 2 -20 3 -21 2 -20 2 -21 2 -21 
2 -22 2 -21 3 -22 2 -22 2 -22 2 -22 2 -23 3 -22 
2 -23 2 -23 2 -24 2 -23 2 -24 3 -24 2 -24 2 -24 
2 -25 2 -24 2 -25 3 -25 2 -26 2 -25 2 -26 2 -26 
2 -26 3 -27 2 -26 2 -27 2 -27 2 -27 2 -28 3 -27 
2 -28 2 -28 2 -29 2 -28 2 -29 3 -29 2 -29 2 -29 
2 -30 2 -30 2 -29 3 -31 2 -30 2 -30 2 -31 2 -31 
2 -31 3 -32 2 -31 2 -32 2 -32 2 -32 2 -32 3 -32 
2 -33 2 -33 2 -33 2 -33 2 -33 3 -33 2 -34 2 -33 
2 -34 2 -34 2 -34 3 -34 2 -35 2 -34 2 -34 2 -35 
2 -34 3 -35 2 -35 2 -35 2 -34 2 -35 2 -35 3 -34 
2 -35 2 -35 2 -34 10068 5769 300 MP stroke
2 -35 2 -34 3 -34 2 -34 2 -34 2 -34 2 -34 2 -33 
3 -33 2 -33 2 -32 2 -32 2 -32 3 -31 2 -31 2 -31 
2 -30 2 -29 2 -29 3 -28 2 -27 2 -27 2 -27 2 -25 
2 -25 3 -23 2 -23 2 -22 2 -21 2 -20 2 -20 3 -18 
2 -16 2 -16 2 -15 2 -13 2 -13 3 -11 2 -9 2 -9 
2 -7 2 -6 2 -4 3 -4 2 -1 2 -1 2 1 2 2 
2 4 3 5 2 6 2 8 2 9 2 10 2 11 3 13 
2 14 2 15 2 16 2 17 2 18 3 20 2 20 2 22 
2 22 2 23 2 24 3 25 2 25 2 27 2 27 2 28 
2 28 3 29 2 30 2 30 2 30 2 31 2 32 3 31 
2 32 2 33 2 33 2 33 2 33 3 34 2 33 2 34 
2 34 2 35 2 34 3 34 2 35 2 34 2 35 2 35 
2 34 3 35 2 35 2 34 2 35 2 34 3 35 2 34 
2 35 2 34 2 34 2 34 3 34 2 34 2 33 2 34 
2 33 2 33 3 33 2 33 2 33 2 33 2 32 2 32 
3 32 2 32 2 32 2 31 2 32 2 31 3 31 2 30 
2 31 2 30 2 30 2 30 3 30 2 29 2 30 2 29 
2 29 2 28 3 29 2 28 2 28 2 28 2 27 2 28 
3 27 2 27 2 26 2 27 2 26 2 26 3 26 2 26 
2 25 2 26 2 25 2 25 3 24 2 25 2 24 2 24 
2 23 2 24 3 23 2 24 2 23 2 22 2 23 2 22 
3 22 2 22 2 22 2 22 2 21 2 21 3 21 2 21 
2 20 2 21 2 20 2 20 3 19 2 20 2 19 2 20 
2 19 3 18 2 19 2 18 2 19 2 18 2 17 3 18 
2 18 2 17 2 17 2 17 2 17 3 16 2 17 2 16 
2 16 2 16 2 15 3 16 2 15 2 15 2 15 2 15 
2 15 3 14 2 14 2 15 2 13 2 14 2 14 3 13 
2 14 2 13 2 13 2 12 2 13 3 13 2 12 2 12 
2 12 2 12 2 12 3 11 2 11 2 12 2 11 2 11 
2 10 3 11 2 11 2 10 2 10 2 10 2 10 3 10 
2 9 2 10 2 9 2 9 2 9 3 9 2 9 2 8 
2 9 2 8 2 8 3 8 2 8 2 8 2 7 2 8 
2 7 3 7 2 7 2 7 2 7 2 7 2 6 3 7 
2 6 2 6 2 6 2 6 2 6 3 5 2 6 2 5 
2 5 2 5 3 5 2 5 2 5 2 5 2 4 2 5 
3 4 2 4 2 4 2 4 2 4 2 3 3 4 2 3 
2 4 2 3 2 3 2 3 3 3 2 2 2 3 2 3 
2 2 2 2 3 2 9419 2044 300 MP stroke
2 3 2 1 2 2 2 2 2 2 3 1 2 2 2 1 
2 1 2 1 2 1 3 1 2 1 2 1 2 0 2 1 
2 0 3 0 2 1 2 0 2 0 2 0 2 -1 3 0 
2 0 2 -1 2 0 2 -1 2 -1 3 -1 2 -1 2 -1 
2 -1 2 -1 2 -2 3 -1 2 -2 2 -1 2 -2 2 -2 
2 -2 3 -2 2 -2 2 -2 2 -2 2 -2 2 -3 3 -2 
2 -3 2 -3 2 -2 2 -3 2 -3 3 -3 2 -3 2 -3 
2 -4 2 -3 3 -3 2 -4 2 -3 2 -4 2 -4 2 -4 
3 -4 2 -3 2 -5 2 -4 2 -4 2 -4 3 -4 2 -5 
2 -4 2 -5 2 -4 2 -5 3 -5 2 -5 2 -5 2 -5 
2 -5 2 -5 3 -5 2 -5 2 -6 2 -5 2 -6 2 -5 
3 -6 2 -5 2 -6 2 -6 2 -6 2 -6 3 -6 2 -6 
2 -6 2 -6 2 -6 2 -6 3 -7 2 -6 2 -6 2 -7 
2 -7 2 -6 3 -7 2 -7 2 -6 2 -7 2 -7 2 -7 
3 -7 2 -7 2 -7 2 -7 2 -8 2 -7 3 -7 2 -8 
2 -7 2 -8 2 -7 2 -8 3 -7 2 -8 2 -8 2 -7 
2 -8 2 -8 3 -8 2 -8 2 -8 2 -8 2 -8 2 -8 
3 -8 2 -8 2 -8 2 -8 2 -9 2 -8 3 -8 2 -9 
2 -8 2 -9 2 -8 3 -9 2 -8 2 -9 2 -8 2 -9 
2 -9 3 -8 2 -9 2 -9 2 -9 2 -9 2 -8 3 -9 
2 -9 2 -9 2 -9 2 -9 2 -9 3 -9 2 -9 2 -9 
2 -9 2 -9 2 -10 3 -9 2 -9 2 -9 2 -9 2 -9 
2 -10 3 -9 2 -9 2 -9 2 -10 2 -9 2 -9 3 -9 
2 -10 2 -9 2 -9 2 -10 2 -9 3 -9 2 -10 2 -9 
2 -10 2 -9 2 -9 3 -10 2 -9 2 -9 2 -10 2 -9 
2 -9 3 -10 2 -9 2 -9 2 -10 2 -9 2 -9 3 -10 
2 -9 2 -9 2 -10 2 -9 2 -9 3 -10 2 -9 2 -9 
2 -9 2 -9 2 -10 3 -9 2 -9 2 -9 2 -9 2 -9 
2 -9 3 -9 2 -9 2 -9 2 -9 2 -9 3 -9 2 -9 
2 -9 2 -9 2 -8 2 -9 3 -9 2 -9 2 -8 2 -9 
2 -8 2 -9 3 -8 2 -9 2 -8 2 -9 2 -8 2 -8 
3 -9 2 -8 2 -8 2 -8 2 -8 2 -8 3 -8 2 -8 
2 -8 2 -8 2 -8 2 -8 3 -7 2 -8 2 -8 2 -7 
2 -8 2 -7 3 -7 2 -8 2 -7 2 -7 2 -7 2 -7 
3 -7 2 -7 2 -7 2 -7 2 -7 2 -6 3 -7 2 -7 
2 -6 2 -6 2 -7 2 -6 3 -6 2 -6 2 -6 2 -6 
2 -6 2 -6 3 -6 2 -5 2 -6 2 -6 2 -5 2 -5 
3 -6 2 -5 2 -5 8771 3910 300 MP stroke
2 -5 2 -5 2 -5 3 -5 2 -4 2 -5 2 -5 2 -4 
2 -4 3 -5 2 -4 2 -4 2 -4 2 -4 2 -4 3 -4 
2 -3 2 -4 2 -3 2 -4 3 -3 2 -3 2 -4 2 -3 
2 -3 2 -3 3 -2 2 -3 2 -3 2 -2 2 -3 2 -2 
3 -2 2 -2 2 -2 2 -2 2 -2 2 -2 3 -2 2 -1 
2 -2 2 -1 2 -2 2 -1 3 -1 2 -1 2 -1 2 -1 
2 -1 2 0 3 -1 2 -1 2 0 2 0 2 -1 2 0 
3 0 2 0 2 0 2 0 2 1 2 0 3 0 2 1 
2 0 2 1 2 1 2 1 3 1 2 1 2 1 2 1 
2 1 2 2 3 1 2 1 2 2 2 2 2 1 2 2 
3 2 2 2 2 2 2 2 2 2 2 2 3 3 2 2 
2 3 2 2 2 3 2 2 3 3 2 3 2 2 2 3 
2 3 2 3 3 3 2 3 2 4 2 3 2 3 3 3 
2 4 2 3 2 4 2 3 2 4 3 4 2 3 2 4 
2 4 2 4 2 4 3 3 2 4 2 4 2 4 2 5 
2 4 3 4 2 4 2 4 2 4 2 5 2 4 3 4 
2 5 2 4 2 5 2 4 2 5 3 4 2 5 2 4 
2 5 2 4 2 5 3 5 2 4 2 5 2 5 2 4 
2 5 3 5 2 4 2 5 2 5 2 5 2 4 3 5 
2 5 2 4 2 5 2 5 2 5 3 5 2 4 2 5 
2 5 2 4 2 5 3 5 2 5 2 4 2 5 2 5 
2 4 3 5 2 5 2 4 2 5 2 4 2 5 3 5 
2 4 2 5 2 4 2 4 2 5 3 4 2 5 2 4 
2 4 2 5 2 4 3 4 2 4 2 5 2 4 2 4 
3 4 2 4 2 4 2 4 2 4 2 4 3 3 2 4 
2 4 2 4 2 3 2 4 3 4 2 3 2 4 2 3 
2 3 2 4 3 3 2 3 2 3 2 4 2 3 2 3 
3 3 2 2 2 3 2 3 2 3 2 3 3 2 2 3 
2 2 2 3 2 2 2 2 3 3 2 2 2 2 2 2 
2 2 2 2 3 2 2 1 2 2 2 2 2 1 2 2 
3 1 2 1 2 2 2 1 2 1 2 1 3 1 2 1 
2 1 2 1 2 0 2 1 3 0 2 1 2 0 2 0 
2 0 2 1 3 0 2 0 2 -1 2 0 2 0 2 -1 
3 0 2 -1 2 0 2 -1 2 -1 2 -1 3 -1 2 -1 
2 -1 2 -2 2 -1 3 -1 2 -2 2 -2 2 -2 2 -1 
2 -2 3 -2 2 -3 2 -2 2 -2 2 -3 2 -2 3 -3 
2 -2 2 -3 2 -3 2 -3 2 -3 3 -4 2 -3 2 -3 
2 -4 2 -4 2 -3 8123 3507 300 MP stroke
3 -4 2 -4 2 -4 2 -4 2 -5 2 -4 3 -4 2 -5 
2 -5 2 -4 2 -5 2 -5 3 -5 2 -6 2 -5 2 -5 
2 -6 2 -6 3 -5 2 -6 2 -6 2 -6 2 -7 2 -6 
3 -6 2 -7 2 -6 2 -7 2 -7 2 -7 3 -7 2 -7 
2 -8 2 -7 2 -8 2 -7 3 -8 2 -8 2 -8 2 -8 
2 -8 2 -9 3 -8 2 -9 2 -8 2 -9 2 -9 2 -9 
3 -9 2 -9 2 -10 2 -9 2 -10 2 -10 3 -9 2 -10 
2 -10 2 -10 2 -11 2 -10 3 -11 2 -10 2 -11 2 -11 
2 -11 3 -11 2 -11 2 -11 2 -12 2 -11 2 -12 3 -11 
2 -12 2 -12 2 -12 2 -12 2 -13 3 -12 2 -13 2 -12 
2 -13 2 -13 2 -13 3 -13 2 -13 2 -13 2 -13 2 -14 
2 -13 3 -14 2 -13 2 -14 2 -14 2 -14 2 -14 3 -14 
2 -14 2 -15 2 -14 2 -15 2 -14 3 -15 2 -15 2 -15 
2 -15 2 -15 2 -15 3 -15 2 -15 2 -16 2 -15 2 -15 
2 -16 3 -15 2 -16 2 -16 2 -16 2 -15 2 -16 3 -16 
2 -16 2 -16 2 -16 2 -16 2 -16 3 -16 2 -17 2 -16 
2 -16 2 -16 2 -16 3 -17 2 -16 2 -16 2 -17 2 -16 
2 -16 3 -16 2 -17 2 -16 2 -16 2 -16 2 -17 3 -16 
2 -16 2 -16 2 -16 2 -16 3 -16 2 -15 2 -16 2 -16 
2 -15 2 -16 3 -15 2 -16 2 -15 2 -15 2 -15 2 -15 
3 -15 2 -14 2 -15 2 -14 2 -14 2 -14 3 -14 2 -14 
2 -13 2 -14 2 -13 2 -13 3 -13 2 -12 2 -12 2 -12 
2 -12 2 -12 3 -11 2 -11 2 -11 2 -11 2 -10 2 -10 
3 -10 2 -10 2 -9 2 -9 2 -8 2 -9 3 -8 2 -7 
2 -8 2 -7 2 -6 2 -7 3 -5 2 -6 2 -5 2 -5 
2 -5 2 -4 3 -4 2 -3 2 -3 2 -3 2 -2 2 -2 
3 -2 2 -1 2 -1 2 0 2 0 2 1 3 0 2 1 
2 2 2 2 2 2 2 3 3 3 2 4 2 4 2 4 
2 4 2 5 3 6 2 5 2 6 2 7 2 7 2 7 
3 7 2 8 2 8 2 9 2 8 3 9 2 10 2 10 
2 10 2 10 2 11 3 10 2 12 2 11 2 12 2 12 
2 12 3 12 2 13 2 13 2 13 2 13 2 14 3 14 
2 14 2 14 2 14 2 15 2 15 3 14 2 16 2 15 
2 15 2 16 2 15 3 16 2 16 2 16 2 16 2 16 
2 17 3 16 2 17 2 16 2 17 2 17 2 17 3 17 
2 17 2 17 2 17 2 17 2 18 3 17 2 17 2 17 
2 18 2 17 2 18 3 17 2 18 2 17 2 18 2 17 
2 17 3 18 2 17 7474 4792 300 MP stroke
2 18 2 17 2 18 2 17 3 18 2 17 2 17 2 18 
2 17 2 17 3 18 2 17 2 17 2 17 2 17 2 17 
3 17 2 17 2 17 2 17 2 17 3 17 2 16 2 17 
2 17 2 16 2 16 3 17 2 16 2 16 2 17 2 16 
2 16 3 16 2 16 2 16 2 15 2 16 2 16 3 15 
2 16 2 15 2 15 2 16 2 15 3 15 2 15 2 15 
2 15 2 15 2 14 3 15 2 15 2 14 2 14 2 15 
2 14 3 14 2 14 2 14 2 14 2 14 2 14 3 13 
2 14 2 13 2 14 2 13 2 13 3 13 2 13 2 13 
2 13 2 13 2 13 3 12 2 13 2 12 2 12 2 13 
2 12 3 12 2 12 2 12 2 12 2 11 2 12 3 11 
2 12 2 11 2 12 2 11 2 11 3 11 2 11 2 11 
2 11 2 10 2 11 3 10 2 11 2 10 2 10 2 11 
2 10 3 10 2 10 2 9 2 10 2 10 3 10 2 9 
2 10 2 9 2 9 2 9 3 10 2 9 2 9 2 9 
2 8 2 9 3 9 2 9 2 8 2 9 2 8 2 8 
3 9 2 8 2 8 2 8 2 8 2 8 3 8 2 8 
2 8 2 7 2 8 2 7 3 8 2 7 2 8 2 7 
2 7 2 7 3 7 2 7 2 7 2 7 2 7 2 7 
3 6 2 7 2 6 2 7 2 6 2 7 3 6 2 6 
2 6 2 7 2 6 2 6 3 6 2 5 2 6 2 6 
2 6 2 5 3 6 2 5 2 6 2 5 2 6 2 5 
3 5 2 6 2 5 2 5 2 5 2 5 3 5 2 5 
2 4 2 5 2 5 2 5 3 4 2 5 2 4 2 5 
2 4 2 5 3 4 2 4 2 5 2 4 2 4 3 4 
2 4 2 4 2 4 2 4 2 4 3 4 2 3 2 4 
2 4 2 4 2 3 3 4 2 3 2 4 2 3 2 4 
2 3 3 3 2 4 2 3 2 3 2 3 2 3 3 4 
2 3 2 3 2 3 2 3 2 2 3 3 2 3 2 3 
2 3 2 2 2 3 3 3 2 2 2 3 2 3 2 2 
2 3 3 2 2 3 2 2 2 2 2 3 2 2 3 2 
2 3 2 2 2 2 2 2 2 2 3 2 2 2 2 2 
2 3 2 2 2 1 3 2 2 2 2 2 2 2 2 2 
2 2 3 2 2 1 2 2 2 2 2 2 2 1 3 2 
2 1 2 2 2 2 2 1 2 2 3 1 2 2 2 1 
2 2 2 1 3 2 2 1 2 1 2 2 2 1 2 1 
3 2 2 1 2 1 2 1 2 1 2 2 3 1 2 1 
2 1 2 1 2 1 6826 2410 300 MP stroke
2 1 3 1 2 1 2 2 2 1 2 1 2 0 3 1 
2 1 2 1 2 1 2 1 2 1 3 1 2 1 2 0 
2 1 2 1 2 1 3 1 2 0 2 1 2 1 2 0 
2 1 3 1 2 0 2 1 2 1 2 0 2 1 3 0 
2 1 2 1 2 0 2 1 2 0 3 1 2 0 2 1 
2 0 2 0 2 1 3 0 2 1 2 0 2 0 2 1 
2 0 3 0 2 1 2 0 2 0 2 1 2 0 3 0 
2 0 2 0 2 1 2 0 2 0 3 0 2 0 2 1 
2 0 2 0 2 0 3 0 2 0 2 0 2 0 2 0 
3 0 2 0 2 0 2 0 2 0 2 0 3 0 2 0 
2 0 2 0 2 -1 2 0 3 0 2 0 2 0 2 0 
2 -1 2 0 3 0 2 0 2 -1 2 0 2 0 2 -1 
3 0 2 0 2 -1 2 0 2 0 2 -1 3 0 2 -1 
2 0 2 -1 2 0 2 -1 3 0 2 -1 2 0 2 -1 
2 -1 2 0 3 -1 2 -1 2 0 2 -1 2 -1 2 0 
3 -1 2 -1 2 -1 2 -1 2 0 2 -1 3 -1 2 -1 
2 -1 2 -1 2 -1 2 -1 3 -1 2 -1 2 -1 2 -1 
2 -1 2 -1 3 -1 2 -1 2 -2 2 -1 2 -1 2 -1 
3 -2 2 -1 2 -1 2 -2 2 -1 2 -1 3 -2 2 -1 
2 -2 2 -1 2 -2 3 -1 2 -2 2 -2 2 -1 2 -2 
2 -2 3 -1 2 -2 2 -2 2 -2 2 -2 2 -2 3 -1 
2 -2 2 -2 2 -2 2 -2 2 -2 3 -3 2 -2 2 -2 
2 -2 2 -2 2 -3 3 -2 2 -2 2 -3 2 -2 2 -2 
2 -3 3 -2 2 -3 2 -3 2 -2 2 -3 2 -3 3 -2 
2 -3 2 -3 2 -3 2 -3 2 -3 3 -3 2 -3 2 -3 
2 -3 2 -3 2 -3 3 -3 2 -3 2 -4 2 -3 2 -4 
2 -3 3 -3 2 -4 2 -4 2 -3 2 -4 2 -4 3 -3 
2 -4 2 -4 2 -4 2 -4 2 -4 3 -4 2 -4 2 -4 
2 -4 2 -4 2 -5 3 -4 2 -4 2 -5 2 -4 2 -5 
2 -5 3 -4 2 -5 2 -5 2 -5 2 -4 2 -5 3 -5 
2 -5 2 -5 2 -6 2 -5 3 -5 2 -5 2 -6 2 -5 
2 -6 2 -5 3 -6 2 -6 2 -5 2 -6 2 -6 2 -6 
3 -6 2 -6 2 -6 2 -6 2 -7 2 -6 3 -6 2 -7 
2 -6 2 -7 2 -6 2 -7 3 -7 2 -7 2 -7 2 -7 
2 -7 2 -7 3 -7 2 -7 2 -8 2 -7 2 -8 2 -7 
3 -8 2 -7 2 -8 2 -8 2 -8 2 -8 3 -8 2 -8 
2 -8 2 -9 2 -8 2 -8 3 -9 2 -9 2 -8 2 -9 
2 -9 2 -9 3 -9 6177 3097 300 MP stroke
2 -9 2 -9 2 -9 2 -9 2 -10 3 -9 2 -10 2 -10 
2 -9 2 -10 2 -10 3 -10 2 -10 2 -10 2 -10 2 -11 
2 -10 3 -10 2 -11 2 -11 2 -10 2 -11 2 -11 3 -11 
2 -11 2 -11 2 -12 2 -11 3 -11 2 -12 2 -11 2 -12 
2 -12 2 -12 3 -12 2 -12 2 -12 2 -12 2 -12 2 -13 
3 -12 2 -13 2 -13 2 -12 2 -13 2 -13 3 -13 2 -13 
2 -14 2 -13 2 -13 2 -14 3 -13 2 -14 2 -14 2 -14 
2 -14 2 -14 3 -14 2 -14 2 -14 2 -15 2 -14 2 -15 
3 -15 2 -14 2 -15 2 -15 2 -15 2 -15 3 -16 2 -15 
2 -15 2 -16 2 -15 2 -16 3 -16 2 -15 2 -16 2 -16 
2 -16 2 -16 3 -17 2 -16 2 -16 2 -17 2 -16 2 -17 
3 -16 2 -17 2 -17 2 -17 2 -17 2 -17 3 -17 2 -17 
2 -17 2 -18 2 -17 2 -18 3 -17 2 -18 2 -17 2 -18 
2 -18 2 -17 3 -18 2 -18 2 -18 2 -18 2 -18 2 -18 
3 -18 2 -18 2 -18 2 -18 2 -19 3 -18 2 -18 2 -18 
2 -19 2 -18 2 -18 3 -18 2 -19 2 -18 2 -18 2 -19 
2 -18 3 -18 2 -18 2 -18 2 -19 2 -18 2 -18 3 -18 
2 -18 2 -18 2 -18 2 -18 2 -17 3 -18 2 -18 2 -17 
2 -18 2 -17 2 -17 3 -17 2 -18 2 -16 2 -17 2 -17 
2 -16 3 -17 2 -16 2 -16 2 -16 2 -16 2 -16 3 -15 
2 -15 2 -15 2 -15 2 -15 2 -14 3 -14 2 -14 2 -14 
2 -13 2 -14 2 -13 3 -12 2 -13 2 -12 2 -12 2 -11 
2 -12 3 -11 2 -10 2 -11 2 -10 2 -9 2 -10 3 -9 
2 -8 2 -8 2 -8 2 -8 2 -7 3 -7 2 -6 2 -6 
2 -6 2 -5 2 -5 3 -4 2 -4 2 -4 2 -3 2 -3 
3 -2 2 -2 2 -2 2 -1 2 -1 2 0 3 0 2 1 
2 0 2 2 2 2 2 2 3 2 2 3 2 4 2 4 
2 4 2 5 3 5 2 5 2 6 2 6 2 7 2 7 
3 7 2 8 2 8 2 8 2 9 2 9 3 9 2 10 
2 10 2 10 2 11 2 11 3 11 2 11 2 12 2 12 
2 12 2 13 3 13 2 13 2 13 2 13 2 14 2 14 
3 14 2 14 2 15 2 14 2 15 2 15 3 16 2 15 
2 15 2 16 2 16 2 16 3 16 2 16 2 16 2 16 
2 17 2 16 3 17 2 17 2 16 2 17 2 17 2 17 
3 17 2 17 2 17 2 17 2 17 2 17 3 17 2 17 
2 17 2 18 2 17 2 17 3 17 2 17 2 17 2 17 
2 18 3 17 2 17 2 17 2 17 2 17 2 17 3 16 
2 17 2 17 2 17 5529 4721 300 MP stroke
2 16 2 17 3 17 2 16 2 16 2 17 2 16 2 16 
3 16 2 16 2 16 2 16 2 16 2 16 3 15 2 16 
2 16 2 15 2 15 2 15 3 16 2 15 2 14 2 15 
2 15 2 15 3 14 2 15 2 14 2 14 2 14 2 14 
3 14 2 14 2 14 2 13 2 14 2 13 3 14 2 13 
2 13 2 13 2 12 2 13 3 13 2 12 2 13 2 12 
2 12 2 12 3 12 2 12 2 11 2 12 2 11 2 12 
3 11 2 11 2 11 2 11 2 10 2 11 3 10 2 11 
2 10 2 10 2 10 2 10 3 10 2 9 2 10 2 9 
2 10 3 9 2 9 2 9 2 9 2 8 2 9 3 8 
2 9 2 8 2 8 2 8 2 8 3 8 2 8 2 7 
2 7 2 8 2 7 3 7 2 7 2 7 2 7 2 6 
2 7 3 6 2 6 2 6 2 6 2 6 2 6 3 6 
2 6 2 5 2 5 2 6 2 5 3 5 2 5 2 5 
2 4 2 5 2 4 3 5 2 4 2 4 2 4 2 4 
2 4 3 4 2 3 2 4 2 3 2 4 2 3 3 3 
2 3 2 3 2 3 2 2 2 3 3 2 2 3 2 2 
2 2 2 2 2 2 3 2 2 2 2 2 2 1 2 2 
2 1 3 2 2 1 2 1 2 1 2 1 2 1 3 1 
2 0 2 1 2 0 2 1 2 0 3 0 2 0 2 1 
2 0 2 -1 3 0 2 0 2 0 2 -1 2 -1 2 0 
3 -1 2 -1 2 -1 2 0 2 -1 2 -2 3 -1 2 -1 
2 -1 2 -2 2 -1 2 -2 3 -2 2 -1 2 -2 2 -2 
2 -2 2 -2 3 -2 2 -2 2 -2 2 -3 2 -2 2 -2 
3 -3 2 -2 2 -3 2 -3 2 -2 2 -3 3 -3 2 -3 
2 -3 2 -3 2 -3 2 -3 3 -4 2 -3 2 -3 2 -4 
2 -3 2 -4 3 -3 2 -4 2 -3 2 -4 2 -4 2 -4 
3 -4 2 -4 2 -3 2 -4 2 -5 2 -4 3 -4 2 -4 
2 -4 2 -4 2 -5 2 -4 3 -4 2 -5 2 -4 2 -5 
2 -4 2 -5 3 -4 2 -5 2 -5 2 -4 2 -5 2 -5 
3 -5 2 -4 2 -5 2 -5 2 -5 3 -5 2 -5 2 -5 
2 -5 2 -5 2 -5 3 -5 2 -5 2 -5 2 -5 2 -5 
2 -5 3 -5 2 -5 2 -5 2 -5 2 -5 2 -5 3 -5 
2 -6 2 -5 2 -5 2 -5 2 -5 3 -5 2 -5 2 -5 
2 -6 2 -5 2 -5 3 -5 2 -5 2 -5 2 -5 2 -5 
2 -5 3 -5 2 -5 2 -5 2 -5 2 -5 2 -5 3 -5 
2 -5 2 -5 2 -5 2 -4 2 -5 3 -5 2 -5 2 -4 
2 -5 2 -5 2 -4 4881 3882 300 MP stroke
3 -5 2 -4 2 -5 2 -4 2 -5 2 -4 3 -4 2 -5 
2 -4 2 -4 2 -4 2 -5 3 -4 2 -4 2 -4 2 -4 
2 -3 2 -4 3 -4 2 -4 2 -3 2 -4 2 -4 2 -3 
3 -3 2 -4 2 -3 2 -3 2 -4 2 -3 3 -3 2 -3 
2 -3 2 -3 2 -2 3 -3 2 -3 2 -2 2 -3 2 -2 
2 -3 3 -2 2 -2 2 -2 2 -2 2 -2 2 -2 3 -2 
2 -2 2 -1 2 -2 2 -1 2 -2 3 -1 2 -1 2 -2 
2 -1 2 -1 2 -1 3 0 2 -1 2 -1 2 0 2 -1 
2 0 3 -1 2 0 2 0 2 0 2 0 2 0 3 1 
2 0 2 0 2 1 2 0 2 1 3 1 2 1 2 1 
2 1 2 1 2 1 3 2 2 1 2 2 2 1 2 2 
2 2 3 2 2 2 2 2 2 2 2 2 2 3 3 2 
2 3 2 2 2 3 2 3 2 3 3 3 2 3 2 3 
2 3 2 4 2 3 3 4 2 4 2 3 2 4 2 4 
2 4 3 4 2 4 2 5 2 4 2 4 3 5 2 4 
2 5 2 5 2 5 2 5 3 5 2 5 2 5 2 5 
2 6 2 5 3 6 2 5 2 6 2 6 2 5 2 6 
3 6 2 6 2 6 2 7 2 6 2 6 3 7 2 6 
2 7 2 6 2 7 2 7 3 7 2 7 2 6 2 8 
2 7 2 7 3 7 2 7 2 8 2 7 2 8 2 7 
3 8 2 7 2 8 2 8 2 8 2 7 3 8 2 8 
2 8 2 8 2 9 2 8 3 8 2 8 2 8 2 9 
2 8 2 9 3 8 2 9 2 8 2 9 2 8 2 9 
3 9 2 8 2 9 2 9 2 9 2 9 3 8 2 9 
2 9 2 9 2 9 2 9 3 9 2 9 2 9 2 9 
2 9 2 10 3 9 2 9 2 9 2 9 2 10 3 9 
2 9 2 9 2 10 2 9 2 9 3 9 2 10 2 9 
2 9 2 10 2 9 3 10 2 9 2 9 2 10 2 9 
2 9 3 10 2 9 2 10 2 9 2 9 2 10 3 9 
2 9 2 10 2 9 2 9 2 10 3 9 2 9 2 10 
2 9 2 9 2 10 3 9 2 9 2 9 2 9 2 10 
2 9 3 9 2 9 2 9 2 9 2 10 2 9 3 9 
2 9 2 9 2 9 2 9 2 9 3 8 2 9 2 9 
2 9 2 9 2 9 3 8 2 9 2 9 2 8 2 9 
2 9 3 8 2 9 2 8 2 9 2 8 2 8 3 9 
2 8 2 8 2 8 2 9 2 8 3 8 2 8 2 8 
2 8 2 8 2 8 3 8 2 7 2 8 2 8 2 8 
3 7 2 8 2 7 4232 2478 300 MP stroke
2 8 2 7 2 8 3 7 2 7 2 7 2 8 2 7 
2 7 3 7 2 7 2 7 2 7 2 6 2 7 3 7 
2 6 2 7 2 7 2 6 2 6 3 7 2 6 2 6 
2 6 2 6 2 7 3 5 2 6 2 6 2 6 2 6 
2 5 3 6 2 5 2 6 2 5 2 6 2 5 3 5 
2 5 2 5 2 5 2 5 2 5 3 5 2 4 2 5 
2 4 2 5 2 4 3 5 2 4 2 4 2 4 2 4 
2 4 3 4 2 4 2 3 2 4 2 3 2 4 3 3 
2 3 2 4 2 3 2 3 2 3 3 3 2 2 2 3 
2 3 2 2 2 3 3 2 2 2 2 3 2 2 2 2 
3 2 2 1 2 2 2 2 2 1 2 2 3 1 2 1 
2 2 2 1 2 1 2 1 3 0 2 1 2 1 2 0 
2 1 2 0 3 0 2 0 2 0 2 0 2 0 2 0 
3 -1 2 0 2 -1 2 0 2 -1 2 -1 3 -1 2 -1 
2 -1 2 -2 2 -1 2 -2 3 -1 2 -2 2 -2 2 -2 
2 -2 2 -2 3 -2 2 -3 2 -2 2 -3 2 -3 2 -3 
3 -3 2 -3 2 -3 2 -3 2 -4 2 -3 3 -4 2 -4 
2 -4 2 -4 2 -4 2 -4 3 -5 2 -4 2 -5 2 -5 
2 -5 2 -5 3 -5 2 -5 2 -5 2 -6 2 -6 2 -5 
3 -6 2 -6 2 -7 2 -6 2 -6 2 -7 3 -7 2 -6 
2 -7 2 -7 2 -8 2 -7 3 -8 2 -7 2 -8 2 -8 
2 -8 3 -8 2 -9 2 -8 2 -9 2 -8 2 -9 3 -9 
2 -10 2 -9 2 -9 2 -10 2 -10 3 -10 2 -10 2 -10 
2 -11 2 -10 2 -11 3 -11 2 -11 2 -11 2 -11 2 -12 
2 -11 3 -12 2 -12 2 -12 2 -12 2 -13 2 -12 3 -13 
2 -13 2 -13 2 -13 2 -13 2 -14 3 -14 2 -14 2 -14 
2 -14 2 -14 2 -15 3 -14 2 -15 2 -15 2 -16 2 -15 
2 -16 3 -15 2 -16 2 -17 2 -16 2 -16 2 -17 3 -17 
2 -17 2 -17 2 -17 2 -18 2 -18 3 -18 2 -18 2 -18 
2 -19 2 -18 2 -19 3 -19 2 -20 2 -19 2 -20 2 -20 
2 -20 3 -20 2 -20 2 -21 2 -21 2 -21 2 -21 3 -21 
2 -22 2 -22 2 -22 2 -22 3 -22 2 -23 2 -23 2 -23 
2 -23 2 -24 3 -23 2 -24 2 -24 2 -25 2 -24 2 -25 
3 -25 2 -25 2 -25 2 -26 2 -25 2 -26 3 -27 2 -26 
2 -27 2 -26 2 -27 2 -28 3 -27 2 -28 2 -28 2 -28 
2 -28 2 -28 3 -29 2 -29 2 -29 2 -29 2 -30 2 -30 
3 -29 2 -31 2 -30 2 -30 2 -31 2 -31 3 -31 2 -31 
2 -32 2 -31 2 -32 3584 4824 300 MP stroke
2 -32 3 -32 2 -33 2 -32 2 -33 2 -33 2 -33 3 -33 
2 -33 2 -33 2 -34 2 -33 2 -34 3 -34 2 -34 2 -34 
2 -34 2 -34 2 -34 3 -34 2 -34 2 -35 2 -34 2 -34 
2 -34 3 -35 2 -34 2 -34 2 -34 2 -34 2 -34 3 -33 
2 -34 2 -33 2 -33 2 -33 2 -32 3 -33 2 -32 2 -31 
2 -32 2 -30 3 -31 2 -30 2 -29 2 -29 2 -29 2 -27 
3 -28 2 -26 2 -26 2 -25 2 -24 2 -24 3 -23 2 -21 
2 -21 2 -20 2 -19 2 -18 3 -16 2 -16 2 -15 2 -13 
2 -12 2 -11 3 -10 2 -8 2 -8 2 -6 2 -4 2 -4 
3 -2 2 0 2 0 2 2 2 4 2 4 3 6 2 7 
2 9 2 10 2 11 2 12 3 13 2 15 2 15 2 17 
2 18 2 19 3 20 2 21 2 21 2 23 2 23 2 25 
3 25 2 26 2 26 2 27 2 28 2 29 3 29 2 29 
2 30 2 31 2 31 2 31 3 32 2 32 2 32 2 33 
2 32 2 33 3 34 2 33 2 34 2 34 2 34 2 34 
3 34 2 34 2 35 2 34 2 34 3 35 2 34 2 34 
2 35 2 34 2 34 3 34 2 35 2 34 2 33 2 34 
2 34 3 34 2 33 2 33 2 34 2 33 2 33 3 32 
2 33 2 33 2 32 2 32 2 32 3 32 2 31 2 32 
2 31 2 31 2 31 3 31 2 30 2 31 2 30 2 30 
2 29 3 30 2 29 2 29 2 29 2 29 2 29 3 28 
2 28 2 28 2 27 2 28 2 27 3 27 2 27 2 27 
2 26 2 27 2 26 3 25 2 26 2 25 2 26 2 25 
2 24 3 25 2 24 2 25 2 24 2 23 2 24 3 23 
2 24 2 23 2 22 2 23 2 22 3 23 2 22 2 21 
2 22 2 21 2 22 3 21 2 20 2 21 2 21 2 20 
2 20 3 20 2 20 2 19 2 19 2 20 3 19 2 18 
2 19 2 18 2 19 2 18 3 18 2 17 2 18 2 17 
2 17 2 17 3 17 2 17 2 16 2 17 2 16 2 16 
3 16 2 15 2 16 2 15 2 15 2 15 3 15 2 14 
2 15 2 14 2 14 2 14 3 14 2 14 2 13 2 14 
2 13 2 13 3 13 2 13 2 12 2 13 2 12 2 12 
3 12 2 12 2 12 2 11 2 11 2 12 3 11 2 11 
2 11 2 10 2 11 2 10 3 11 2 10 2 10 2 10 
2 9 2 10 3 9 2 10 2 9 2 9 2 9 2 8 
3 9 2 9 2 8 2 8 2 8 2 8 3 8 2 8 
2 8 2 7 2 8 2 7 3 7 2 7 2 7 2 6 
2 7 3 7 2 6 2935 2094 300 MP stroke
2 6 2 6 2 6 2 6 3 6 2 6 2 5 2 6 
2 5 2 5 3 5 2 5 2 5 2 5 2 5 2 4 
3 5 2 4 2 4 2 4 2 4 2 4 3 4 2 4 
2 3 2 4 2 3 2 3 3 4 2 3 2 3 2 2 
2 3 2 3 3 2 2 3 2 2 2 3 2 2 2 2 
3 2 2 2 2 1 2 2 2 2 2 1 3 2 2 1 
2 1 2 1 2 1 2 1 3 1 2 1 2 0 2 1 
2 0 2 1 3 0 2 0 2 1 2 0 2 0 2 0 
3 -1 2 0 2 0 2 -1 2 0 2 -1 3 -1 2 0 
2 -1 2 -1 2 -1 2 -1 3 -1 2 -2 2 -1 2 -1 
2 -2 2 -1 3 -2 2 -2 2 -1 2 -2 2 -2 3 -2 
2 -2 2 -2 2 -3 2 -2 2 -2 3 -3 2 -2 2 -3 
2 -2 2 -3 2 -3 3 -3 2 -3 2 -3 2 -3 2 -3 
2 -3 3 -3 2 -4 2 -3 2 -3 2 -4 2 -3 3 -4 
2 -4 2 -3 2 -4 2 -4 2 -4 3 -4 2 -4 2 -4 
2 -4 2 -5 2 -4 3 -4 2 -5 2 -4 2 -5 2 -4 
2 -5 3 -4 2 -5 2 -5 2 -5 2 -5 2 -5 3 -5 
2 -5 2 -5 2 -5 2 -5 2 -5 3 -6 2 -5 2 -5 
2 -6 2 -5 2 -6 3 -5 2 -6 2 -6 2 -6 2 -5 
2 -6 3 -6 2 -6 2 -6 2 -6 2 -6 2 -6 3 -6 
2 -6 2 -6 2 -7 2 -6 2 -6 3 -7 2 -6 2 -6 
2 -7 2 -6 3 -7 2 -6 2 -7 2 -7 2 -6 2 -7 
3 -7 2 -7 2 -6 2 -7 2 -7 2 -7 3 -7 2 -7 
2 -7 2 -7 2 -7 2 -7 3 -7 2 -8 2 -7 2 -7 
2 -7 2 -7 3 -8 2 -7 2 -7 2 -8 2 -7 2 -8 
3 -7 2 -7 2 -8 2 -7 2 -8 2 -8 3 -7 2 -8 
2 -7 2 -8 2 -8 2 -7 3 -8 2 -8 2 -7 2 -8 
2 -8 2 -8 3 -8 2 -7 2 -8 2 -8 2 -8 2 -8 
3 -8 2 -7 2 -8 2 -8 2 -8 2 -8 3 -8 2 -8 
2 -8 2 -8 2 -8 2 -8 3 -8 2 -8 2 -8 2 -8 
2 -8 2 -8 3 -8 2 -8 2 -8 2 -8 2 -8 2 -8 
3 -8 2 -8 2 -8 2 -8 2 -9 2 -8 3 -8 2 -8 
2 -8 2 -8 2 -8 3 -8 2 -8 2 -8 2 -8 2 -8 
2 -8 3 -8 2 -8 2 -8 2 -8 2 -8 2 -8 3 -8 
2 -8 2 -8 2 -8 2 -8 2 -8 3 -8 2 -7 2 -8 
2 -8 2 -8 2 -8 3 -8 2 -7 2 -8 2 -8 2 -8 
2 -8 3 -7 2 -8 2 -8 2 -7 2 -8 2 -8 3 -7 
2 -8 2 -7 2 -8 2287 3295 300 MP stroke
2 -7 2 -8 3 -7 2 -8 2 -7 2 -8 2 -7 2 -8 
3 -7 2 -7 2 -7 2 -8 2 -7 2 -7 3 -7 2 -7 
2 -8 2 -7 2 -7 2 -7 3 -7 2 -7 2 -7 2 -7 
2 -6 2 -7 3 -7 2 -7 2 -7 2 -6 2 -7 2 -7 
3 -6 2 -7 2 -6 2 -7 2 -6 2 -7 3 -6 2 -6 
2 -7 2 -6 2 -6 3 -6 2 -6 2 -7 2 -6 2 -6 
2 -6 3 -6 2 -5 2 -6 2 -6 2 -6 2 -6 3 -5 
2 -6 2 -6 2 -5 2 -6 2 -5 3 -6 2 -5 2 -5 
2 -6 2 -5 2 -5 3 -5 2 -5 2 -5 2 -5 2 -5 
2 -5 3 -5 2 -5 2 -5 2 -4 2 -5 2 -5 3 -4 
2 -5 2 -4 2 -5 2 -4 2 -5 3 -4 2 -4 2 -4 
2 -4 2 -5 2 -4 3 -4 2 -4 2 -3 2 -4 2 -4 
2 -4 3 -4 2 -3 2 -4 2 -3 2 -4 2 -3 3 -4 
2 -3 2 -3 2 -4 2 -3 2 -3 3 -3 2 -3 2 -3 
2 -3 2 -3 2 -3 3 -3 2 -3 2 -2 2 -3 2 -3 
2 -2 3 -3 2 -2 2 -3 2 -2 2 -2 2 -3 3 -2 
2 -2 2 -2 2 -3 2 -2 3 -2 2 -2 2 -2 2 -2 
2 -1 2 -2 3 -2 2 -2 2 -2 2 -1 2 -2 2 -1 
3 -2 2 -1 2 -2 2 -1 2 -2 2 -1 3 -1 2 -2 
2 -1 2 -1 2 -1 2 -1 3 -1 2 -2 2 -1 2 -1 
2 -1 2 0 3 -1 2 -1 2 -1 2 -1 2 -1 2 0 
3 -1 2 -1 2 0 2 -1 2 -1 2 0 3 -1 2 0 
2 -1 2 0 2 -1 2 0 3 0 2 -1 2 0 2 0 
2 -1 2 0 3 0 2 -1 2 0 2 0 2 0 2 -1 
3 0 2 0 2 0 2 0 2 0 2 0 3 0 2 -1 
2 0 2 0 2 0 2 0 3 0 2 0 2 0 2 0 
2 0 2 0 3 0 2 0 2 0 2 0 2 0 2 0 
1819 4025 217 MP stroke
gr

c9
0 sg
1802 7468 mt 
( ) s
12646  667 mt 
( ) s
1 sg
0 334 2778 0 0 -334 9824 1019 4 MP
PP
-2778 0 0 334 2778 0 0 -334 9824 1019 5 MP stroke
4 w
DO
SO
6 w
0 sg
9824 1019 mt 12602 1019 L
9824  685 mt 12602  685 L
9824 1019 mt 9824  685 L
12602 1019 mt 12602  685 L
9824 1019 mt 12602 1019 L
9824 1019 mt 9824  685 L
9824 1019 mt 12602 1019 L
9824  685 mt 12602  685 L
9824 1019 mt 9824  685 L
12602 1019 mt 12602  685 L
10245  821 mt 
(R\(t\) OUR) s
gs 9824 685 2779 335 rc
c8
324 0 9888 778 2 MP stroke
gr

c8
0 sg
10245  968 mt 
(R\(t\) Releigh-Plesset with Berknes \(a1, a2\)) s
gs 9824 685 2779 335 rc
c9
324 0 9888 925 2 MP stroke
gr

c9

end %%Color Dict

eplot
%%EndObject

epage
end

showpage

%%Trailer
%%EOF
