%!PS-Adobe-3.0 EPSF-3.0
%%Creator: MATLAB, The MathWorks, Inc. Version 8.0.0.783 (R2012b). Operating System: Linux 3.5.0-17-generic #28-Ubuntu SMP Tue Oct 9 19:31:23 UTC 2012 x86_64.
%%Title: /home/usertesla3/azamat/Научная деятельность/Report [Cluster of bubbles and particles] [Gumerov] [Latex](случай двух сжимаемых пузырьков)/compare_BEM_and_other.eps
%%CreationDate: 04/04/2016  14:54:07
%%DocumentNeededFonts: Helvetica
%%DocumentProcessColors: Cyan Magenta Yellow Black
%%LanguageLevel: 2
%%Pages: 1
%%BoundingBox:  -284    89   881   752
%%EndComments

%%BeginProlog
% MathWorks dictionary
/MathWorks 160 dict begin
% definition operators
/bdef {bind def} bind def
/ldef {load def} bind def
/xdef {exch def} bdef
/xstore {exch store} bdef
% operator abbreviations
/c  /clip ldef
/cc /concat ldef
/cp /closepath ldef
/gr /grestore ldef
/gs /gsave ldef
/mt /moveto ldef
/np /newpath ldef
/cm /currentmatrix ldef
/sm /setmatrix ldef
/rm /rmoveto ldef
/rl /rlineto ldef
/s {show newpath} bdef
/sc {setcmykcolor} bdef
/sr /setrgbcolor ldef
/sg /setgray ldef
/w /setlinewidth ldef
/j /setlinejoin ldef
/cap /setlinecap ldef
/rc {rectclip} bdef
/rf {rectfill} bdef
% page state control
/pgsv () def
/bpage {/pgsv save def} bdef
/epage {pgsv restore} bdef
/bplot /gsave ldef
/eplot {stroke grestore} bdef
% orientation switch
/portraitMode 0 def /landscapeMode 1 def /rotateMode 2 def
% coordinate system mappings
/dpi2point 0 def
% font control
/FontSize 0 def
/FMS {/FontSize xstore findfont [FontSize 0 0 FontSize neg 0 0]
  makefont setfont} bdef
/reencode {exch dup where {pop load} {pop StandardEncoding} ifelse
  exch dup 3 1 roll findfont dup length dict begin
  { 1 index /FID ne {def}{pop pop} ifelse } forall
  /Encoding exch def currentdict end definefont pop} bdef
/isroman {findfont /CharStrings get /Agrave known} bdef
/FMSR {3 1 roll 1 index dup isroman {reencode} {pop pop} ifelse
  exch FMS} bdef
/csm {1 dpi2point div -1 dpi2point div scale neg translate
 dup landscapeMode eq {pop -90 rotate}
  {rotateMode eq {90 rotate} if} ifelse} bdef
% line types: solid, dotted, dashed, dotdash
/SO { [] 0 setdash } bdef
/DO { [.5 dpi2point mul 4 dpi2point mul] 0 setdash } bdef
/DA { [6 dpi2point mul] 0 setdash } bdef
/DD { [.5 dpi2point mul 4 dpi2point mul 6 dpi2point mul 4
  dpi2point mul] 0 setdash } bdef
% macros for lines and objects
/L {lineto stroke} bdef
/MP {3 1 roll moveto 1 sub {rlineto} repeat} bdef
/AP {{rlineto} repeat} bdef
/PDlw -1 def
/W {/PDlw currentlinewidth def setlinewidth} def
/PP {closepath eofill} bdef
/DP {closepath stroke} bdef
/MR {4 -2 roll moveto dup  0 exch rlineto exch 0 rlineto
  neg 0 exch rlineto closepath} bdef
/FR {MR stroke} bdef
/PR {MR fill} bdef
/L1i {{currentfile picstr readhexstring pop} image} bdef
/tMatrix matrix def
/MakeOval {newpath tMatrix currentmatrix pop translate scale
0 0 1 0 360 arc tMatrix setmatrix} bdef
/FO {MakeOval stroke} bdef
/PO {MakeOval fill} bdef
/PD {currentlinewidth 2 div 0 360 arc fill
   PDlw -1 eq not {PDlw w /PDlw -1 def} if} def
/FA {newpath tMatrix currentmatrix pop translate scale
  0 0 1 5 -2 roll arc tMatrix setmatrix stroke} bdef
/PA {newpath tMatrix currentmatrix pop	translate 0 0 moveto scale
  0 0 1 5 -2 roll arc closepath tMatrix setmatrix fill} bdef
/FAn {newpath tMatrix currentmatrix pop translate scale
  0 0 1 5 -2 roll arcn tMatrix setmatrix stroke} bdef
/PAn {newpath tMatrix currentmatrix pop translate 0 0 moveto scale
  0 0 1 5 -2 roll arcn closepath tMatrix setmatrix fill} bdef
/vradius 0 def /hradius 0 def /lry 0 def
/lrx 0 def /uly 0 def /ulx 0 def /rad 0 def
/MRR {/vradius xdef /hradius xdef /lry xdef /lrx xdef /uly xdef
  /ulx xdef newpath tMatrix currentmatrix pop ulx hradius add uly
  vradius add translate hradius vradius scale 0 0 1 180 270 arc 
  tMatrix setmatrix lrx hradius sub uly vradius add translate
  hradius vradius scale 0 0 1 270 360 arc tMatrix setmatrix
  lrx hradius sub lry vradius sub translate hradius vradius scale
  0 0 1 0 90 arc tMatrix setmatrix ulx hradius add lry vradius sub
  translate hradius vradius scale 0 0 1 90 180 arc tMatrix setmatrix
  closepath} bdef
/FRR {MRR stroke } bdef
/PRR {MRR fill } bdef
/MlrRR {/lry xdef /lrx xdef /uly xdef /ulx xdef /rad lry uly sub 2 div def
  newpath tMatrix currentmatrix pop ulx rad add uly rad add translate
  rad rad scale 0 0 1 90 270 arc tMatrix setmatrix lrx rad sub lry rad
  sub translate rad rad scale 0 0 1 270 90 arc tMatrix setmatrix
  closepath} bdef
/FlrRR {MlrRR stroke } bdef
/PlrRR {MlrRR fill } bdef
/MtbRR {/lry xdef /lrx xdef /uly xdef /ulx xdef /rad lrx ulx sub 2 div def
  newpath tMatrix currentmatrix pop ulx rad add uly rad add translate
  rad rad scale 0 0 1 180 360 arc tMatrix setmatrix lrx rad sub lry rad
  sub translate rad rad scale 0 0 1 0 180 arc tMatrix setmatrix
  closepath} bdef
/FtbRR {MtbRR stroke } bdef
/PtbRR {MtbRR fill } bdef
/stri 6 array def /dtri 6 array def
/smat 6 array def /dmat 6 array def
/tmat1 6 array def /tmat2 6 array def /dif 3 array def
/asub {/ind2 exch def /ind1 exch def dup dup
  ind1 get exch ind2 get sub exch } bdef
/tri_to_matrix {
  2 0 asub 3 1 asub 4 0 asub 5 1 asub
  dup 0 get exch 1 get 7 -1 roll astore } bdef
/compute_transform {
  dmat dtri tri_to_matrix tmat1 invertmatrix 
  smat stri tri_to_matrix tmat2 concatmatrix } bdef
/ds {stri astore pop} bdef
/dt {dtri astore pop} bdef
/db {2 copy /cols xdef /rows xdef mul dup 3 mul string
  currentfile 
  3 index 0 eq {/ASCIIHexDecode filter}
  {/ASCII85Decode filter 3 index 2 eq {/RunLengthDecode filter} if }
  ifelse exch readstring pop
  dup 0 3 index getinterval /rbmap xdef
  dup 2 index dup getinterval /gbmap xdef
  1 index dup 2 mul exch getinterval /bbmap xdef pop pop}bdef
/it {gs np dtri aload pop moveto lineto lineto cp c
  cols rows 8 compute_transform 
  rbmap gbmap bbmap true 3 colorimage gr}bdef
/il {newpath moveto lineto stroke}bdef
currentdict end def
%%EndProlog

%%BeginSetup
MathWorks begin

0 cap

end
%%EndSetup

%%Page: 1 1
%%BeginPageSetup
%%PageBoundingBox:  -284    89   881   752
MathWorks begin
bpage
%%EndPageSetup

%%BeginObject: obj1
bplot

/dpi2point 12 def
portraitMode -3408 9024 csm

    0     0 13991  7956 rc
85 dict begin %Colortable dictionary
/c0 { 0.000000 0.000000 0.000000 sr} bdef
/c1 { 1.000000 1.000000 1.000000 sr} bdef
/c2 { 0.900000 0.000000 0.000000 sr} bdef
/c3 { 0.000000 0.820000 0.000000 sr} bdef
/c4 { 0.000000 0.000000 0.800000 sr} bdef
/c5 { 0.910000 0.820000 0.320000 sr} bdef
/c6 { 1.000000 0.260000 0.820000 sr} bdef
/c7 { 0.000000 0.820000 0.820000 sr} bdef
c0
1 j
1 sg
   0    0 13992 7957 rf
6 w
0 6484 10843 0 0 -6484 1819 7080 4 MP
PP
-10843 0 0 6484 10843 0 0 -6484 1819 7080 5 MP stroke
4 w
DO
SO
6 w
0 sg
1819 7080 mt 12662 7080 L
1819  596 mt 12662  596 L
1819 7080 mt 1819  596 L
12662 7080 mt 12662  596 L
1819 7080 mt 12662 7080 L
1819 7080 mt 1819  596 L
1819 7080 mt 1819 6972 L
1819  596 mt 1819  705 L
%%IncludeResource: font Helvetica
/Helvetica /ISOLatin1Encoding 168 FMSR

1773 7271 mt 
(0) s
2903 7080 mt 2903 6972 L
2903  596 mt 2903  705 L
2787 7271 mt 
(0.5) s
3987 7080 mt 3987 6972 L
3987  596 mt 3987  705 L
3941 7271 mt 
(1) s
5071 7080 mt 5071 6972 L
5071  596 mt 5071  705 L
4955 7271 mt 
(1.5) s
6156 7080 mt 6156 6972 L
6156  596 mt 6156  705 L
6110 7271 mt 
(2) s
7240 7080 mt 7240 6972 L
7240  596 mt 7240  705 L
7124 7271 mt 
(2.5) s
8324 7080 mt 8324 6972 L
8324  596 mt 8324  705 L
8278 7271 mt 
(3) s
9409 7080 mt 9409 6972 L
9409  596 mt 9409  705 L
9293 7271 mt 
(3.5) s
10493 7080 mt 10493 6972 L
10493  596 mt 10493  705 L
10447 7271 mt 
(4) s
11577 7080 mt 11577 6972 L
11577  596 mt 11577  705 L
11461 7271 mt 
(4.5) s
12662 7080 mt 12662 6972 L
12662  596 mt 12662  705 L
12616 7271 mt 
(5) s
1819 6270 mt 1927 6270 L
12662 6270 mt 12553 6270 L
1551 6332 mt 
(0.7) s
1819 5460 mt 1927 5460 L
12662 5460 mt 12553 5460 L
1551 5522 mt 
(0.8) s
1819 4649 mt 1927 4649 L
12662 4649 mt 12553 4649 L
1551 4711 mt 
(0.9) s
1819 3839 mt 1927 3839 L
12662 3839 mt 12553 3839 L
1691 3901 mt 
(1) s
1819 3028 mt 1927 3028 L
12662 3028 mt 12553 3028 L
1551 3090 mt 
(1.1) s
1819 2217 mt 1927 2217 L
12662 2217 mt 12553 2217 L
1551 2279 mt 
(1.2) s
1819 1407 mt 1927 1407 L
12662 1407 mt 12553 1407 L
1551 1469 mt 
(1.3) s
1819  596 mt 1927  596 L
12662  596 mt 12553  596 L
1551  658 mt 
(1.4) s
1819 7080 mt 12662 7080 L
1819  596 mt 12662  596 L
1819 7080 mt 1819  596 L
12662 7080 mt 12662  596 L
gs 1819 596 10844 6486 rc
24 w
/c8 { 0.000000 0.000000 1.000000 sr} bdef
c8
3 -1 2 -1 2 -1 2 -2 2 -1 3 -1 2 -1 2 -2 
2 -1 2 -1 2 -2 3 -1 2 -1 2 -2 2 -1 2 -2 
2 -1 3 -2 2 -2 2 -1 2 -2 2 -2 2 -2 3 -2 
2 -1 2 -2 2 -2 2 -2 2 -2 3 -2 2 -2 2 -3 
2 -2 2 -2 2 -2 3 -3 2 -2 2 -3 2 -2 2 -3 
2 -2 3 -3 2 -2 2 -3 2 -3 2 -3 2 -3 3 -3 
2 -3 2 -3 2 -3 2 -3 2 -3 3 -3 2 -4 2 -3 
2 -3 2 -4 2 -3 3 -4 2 -3 2 -4 2 -4 2 -4 
2 -3 3 -4 2 -4 2 -4 2 -4 2 -4 2 -5 3 -4 
2 -4 2 -4 2 -5 2 -4 2 -5 3 -4 2 -5 2 -5 
2 -4 2 -5 2 -5 3 -5 2 -5 2 -5 2 -5 2 -5 
3 -5 2 -6 2 -5 2 -5 2 -6 2 -5 3 -6 2 -6 
2 -5 2 -6 2 -6 2 -6 3 -6 2 -6 2 -6 2 -6 
2 -6 2 -6 3 -6 2 -7 2 -6 2 -7 2 -6 2 -7 
3 -7 2 -6 2 -7 2 -7 2 -8 2 -7 3 -7 2 -7 
2 -8 2 -7 2 -8 2 -8 3 -7 2 -8 2 -8 2 -8 
2 -8 2 -8 3 -8 2 -8 2 -9 2 -8 2 -8 2 -9 
3 -8 2 -9 2 -9 2 -8 2 -9 2 -9 3 -9 2 -9 
2 -8 2 -9 2 -9 2 -10 3 -9 2 -9 2 -9 2 -9 
2 -9 2 -10 3 -9 2 -9 2 -10 2 -9 2 -10 2 -9 
3 -9 2 -10 2 -9 2 -10 2 -10 2 -9 3 -10 2 -9 
2 -10 2 -10 2 -9 2 -10 3 -10 2 -9 2 -10 2 -10 
2 -9 3 -10 2 -10 2 -9 2 -10 2 -10 2 -9 3 -10 
2 -9 2 -10 2 -10 2 -9 2 -10 3 -9 2 -10 2 -9 
2 -10 2 -9 2 -10 3 -9 2 -9 2 -10 2 -9 2 -9 
2 -10 3 -9 2 -9 2 -9 2 -9 2 -9 2 -9 3 -9 
2 -9 2 -9 2 -9 2 -8 2 -9 3 -9 2 -8 2 -9 
2 -8 2 -9 2 -8 3 -9 2 -8 2 -8 2 -8 2 -8 
2 -8 3 -8 2 -8 2 -8 2 -7 2 -8 2 -8 3 -7 
2 -7 2 -8 2 -7 2 -7 2 -7 3 -7 2 -6 2 -7 
2 -7 2 -6 2 -6 3 -7 2 -6 2 -6 2 -5 2 -6 
2 -6 3 -5 2 -6 2 -5 2 -5 2 -5 2 -5 3 -4 
2 -5 2 -4 2 -4 2 -4 3 -4 2 -4 2 -4 2 -3 
2 -4 2 -3 3 -3 2 -3 2 -3 2 -2 2 -3 2 -2 
3 -2 2 -2 2 -1 2 -2 2 -1 2 -2 3 -1 2 -1 
2 0 2 -1 2 0 2 -1 3 0 2 1 2 0 2 0 
2 1 2 1 3 1 2 1 2 2 2 1 2 2 2 2 
3 2 2 3 2 2 12013 5207 300 MP stroke
2 3 2 3 2 3 3 3 2 4 2 3 2 4 2 4 
2 5 3 4 2 5 2 5 2 5 2 5 2 5 3 6 
2 6 2 6 2 6 2 6 2 7 3 6 2 7 2 7 
2 8 2 7 2 8 3 7 2 8 2 8 2 8 2 9 
2 8 3 9 2 8 2 9 2 9 2 9 2 9 3 9 
2 9 2 10 2 9 2 10 2 10 3 9 2 10 2 10 
2 10 2 10 3 11 2 10 2 10 2 11 2 10 2 11 
3 10 2 11 2 11 2 11 2 10 2 11 3 11 2 11 
2 11 2 11 2 12 2 11 3 11 2 11 2 11 2 12 
2 11 2 11 3 12 2 11 2 11 2 12 2 11 2 11 
3 12 2 11 2 12 2 11 2 12 2 11 3 11 2 12 
2 11 2 12 2 11 2 11 3 12 2 11 2 11 2 12 
2 11 2 11 3 12 2 11 2 11 2 11 2 12 2 11 
3 11 2 11 2 11 2 11 2 11 2 11 3 11 2 11 
2 11 2 11 2 11 2 10 3 11 2 11 2 11 2 10 
2 11 2 10 3 11 2 10 2 11 2 10 2 10 2 11 
3 10 2 10 2 10 2 10 2 11 3 10 2 10 2 9 
2 10 2 10 2 10 3 10 2 9 2 10 2 9 2 10 
2 9 3 10 2 9 2 10 2 9 2 9 2 9 3 9 
2 9 2 9 2 9 2 8 2 9 3 9 2 8 2 9 
2 8 2 9 2 8 3 8 2 8 2 8 2 8 2 8 
2 8 3 8 2 8 2 8 2 7 2 8 2 7 3 8 
2 7 2 8 2 7 2 7 2 8 3 7 2 7 2 7 
2 7 2 7 2 7 3 7 2 6 2 7 2 7 2 6 
2 7 3 6 2 7 2 6 2 7 2 6 2 6 3 6 
2 7 2 6 2 6 2 6 2 6 3 6 2 6 2 6 
2 5 2 6 2 6 3 6 2 5 2 6 2 5 2 6 
2 5 3 6 2 5 2 5 2 6 2 5 3 5 2 5 
2 6 2 5 2 5 2 5 3 5 2 5 2 5 2 4 
2 5 2 5 3 5 2 5 2 4 2 5 2 5 2 4 
3 5 2 4 2 5 2 4 2 5 2 4 3 4 2 5 
2 4 2 4 2 5 2 4 3 4 2 4 2 4 2 4 
2 5 2 4 3 4 2 4 2 4 2 4 2 3 2 4 
3 4 2 4 2 4 2 4 2 3 2 4 3 4 2 4 
2 3 2 4 2 3 2 4 3 4 2 3 2 4 2 3 
2 4 2 3 3 4 2 3 2 3 2 4 2 3 2 4 
3 3 2 3 2 3 2 4 2 3 2 3 3 3 2 4 
2 3 2 3 2 3 11365 2970 300 MP stroke
2 3 3 3 2 3 2 3 2 4 2 3 3 3 2 3 
2 3 2 3 2 3 2 3 3 2 2 3 2 3 2 3 
2 3 2 3 3 3 2 3 2 3 2 2 2 3 2 3 
3 3 2 3 2 2 2 3 2 3 2 3 3 2 2 3 
2 3 2 2 2 3 2 3 3 2 2 3 2 3 2 2 
2 3 2 3 3 2 2 3 2 2 2 3 2 3 2 2 
3 3 2 2 2 3 2 2 2 3 2 2 3 3 2 2 
2 3 2 2 2 3 2 2 3 3 2 2 2 3 2 2 
2 3 2 2 3 3 2 2 2 3 2 2 2 2 2 3 
3 2 2 3 2 2 2 2 2 3 2 2 3 3 2 2 
2 2 2 3 2 2 2 3 3 2 2 2 2 3 2 2 
2 2 2 3 3 2 2 3 2 2 2 2 2 3 3 2 
2 2 2 3 2 2 2 2 2 3 3 2 2 2 2 3 
2 2 2 2 2 3 3 2 2 2 2 3 2 2 2 2 
2 3 3 2 2 2 2 3 2 2 2 2 2 3 3 2 
2 2 2 2 2 3 2 2 2 2 3 3 2 2 2 2 
2 3 2 2 2 2 3 3 2 2 2 2 2 2 2 3 
2 2 3 2 2 3 2 2 2 2 2 3 2 2 3 2 
2 2 2 3 2 2 2 2 2 3 3 2 2 2 2 2 
2 3 2 2 2 2 3 3 2 2 2 2 2 2 2 3 
2 2 3 2 2 2 2 3 2 2 2 2 2 2 3 3 
2 2 2 2 2 2 2 2 2 3 3 2 2 2 2 2 
2 3 2 2 3 2 2 2 2 2 2 2 2 3 2 2 
3 2 2 2 2 2 2 2 2 2 2 3 3 2 2 2 
2 2 2 2 2 2 2 2 3 2 2 2 2 2 2 2 
2 2 2 2 3 3 2 2 2 2 2 2 2 1 2 2 
3 2 2 2 2 2 2 2 2 2 2 2 3 2 2 2 
2 2 2 2 2 1 2 2 3 2 2 2 2 2 2 1 
2 2 2 2 3 2 2 1 2 2 2 2 2 1 2 2 
3 2 2 1 2 2 2 1 2 2 2 2 3 1 2 2 
2 1 2 2 2 1 2 1 3 2 2 1 2 2 2 1 
2 1 2 2 3 1 2 1 2 1 2 2 2 1 2 1 
3 1 2 1 2 1 2 1 2 1 2 1 3 1 2 1 
2 1 2 1 2 1 3 1 2 1 2 0 2 1 2 1 
2 0 3 1 2 1 2 0 2 1 2 0 2 1 3 0 
2 1 2 0 2 1 2 0 2 0 3 0 2 1 2 0 
2 0 2 0 2 0 3 0 2 0 2 0 2 0 2 0 
2 0 3 -1 2 0 10716 2369 300 MP stroke
2 0 2 -1 2 0 2 -1 3 0 2 -1 2 0 2 -1 
2 0 2 -1 3 -1 2 0 2 -1 2 -1 2 -1 2 -1 
3 -1 2 -1 2 -1 2 -1 2 -1 2 -1 3 -1 2 -2 
2 -1 2 -1 2 -2 2 -1 3 -2 2 -1 2 -2 2 -1 
2 -2 2 -2 3 -2 2 -1 2 -2 2 -2 2 -2 2 -2 
3 -3 2 -2 2 -2 2 -2 2 -3 2 -2 3 -3 2 -2 
2 -3 2 -3 2 -3 3 -2 2 -3 2 -3 2 -3 2 -3 
2 -4 3 -3 2 -3 2 -3 2 -4 2 -3 2 -4 3 -4 
2 -3 2 -4 2 -4 2 -4 2 -4 3 -4 2 -4 2 -5 
2 -4 2 -4 2 -5 3 -5 2 -4 2 -5 2 -5 2 -5 
2 -5 3 -5 2 -5 2 -5 2 -5 2 -6 2 -5 3 -6 
2 -5 2 -6 2 -6 2 -6 2 -6 3 -6 2 -6 2 -6 
2 -7 2 -6 2 -7 3 -6 2 -7 2 -7 2 -7 2 -7 
2 -7 3 -7 2 -7 2 -8 2 -7 2 -7 2 -8 3 -8 
2 -8 2 -8 2 -8 2 -8 2 -8 3 -8 2 -9 2 -8 
2 -9 2 -8 2 -9 3 -9 2 -9 2 -9 2 -9 2 -10 
2 -9 3 -9 2 -10 2 -10 2 -9 2 -10 2 -10 3 -10 
2 -11 2 -10 2 -10 2 -11 3 -11 2 -10 2 -11 2 -11 
2 -11 2 -11 3 -11 2 -12 2 -11 2 -12 2 -11 2 -12 
3 -12 2 -12 2 -12 2 -12 2 -13 2 -12 3 -13 2 -12 
2 -13 2 -13 2 -13 2 -13 3 -13 2 -13 2 -14 2 -13 
2 -14 2 -13 3 -14 2 -14 2 -14 2 -14 2 -15 2 -14 
3 -15 2 -14 2 -15 2 -15 2 -15 2 -15 3 -15 2 -16 
2 -15 2 -16 2 -15 2 -16 3 -16 2 -16 2 -16 2 -17 
2 -16 2 -16 3 -17 2 -17 2 -17 2 -17 2 -17 2 -17 
3 -17 2 -18 2 -17 2 -18 2 -18 2 -18 3 -18 2 -18 
2 -18 2 -18 2 -18 2 -19 3 -19 2 -18 2 -19 2 -19 
2 -19 2 -19 3 -19 2 -20 2 -19 2 -19 2 -20 3 -20 
2 -19 2 -20 2 -20 2 -20 2 -20 3 -20 2 -21 2 -20 
2 -21 2 -20 2 -21 3 -21 2 -21 2 -21 2 -22 2 -21 
2 -22 3 -21 2 -22 2 -21 2 -22 2 -22 2 -21 3 -22 
2 -22 2 -22 2 -21 2 -22 2 -22 3 -21 2 -22 2 -22 
2 -21 2 -22 2 -21 3 -21 2 -22 2 -21 2 -21 2 -21 
2 -20 3 -21 2 -21 2 -20 2 -20 2 -20 2 -20 3 -20 
2 -19 2 -20 2 -19 2 -19 2 -19 3 -18 2 -18 2 -18 
2 -18 2 -18 2 -17 3 -17 2 -17 2 -16 2 -16 2 -16 
2 -16 3 -15 2 -15 2 -14 2 -15 2 -13 2 -14 3 -13 
2 -13 2 -13 2 -12 10068 5731 300 MP stroke
2 -13 2 -12 3 -11 2 -11 2 -11 2 -11 2 -10 2 -10 
3 -10 2 -9 2 -8 2 -8 2 -8 3 -7 2 -7 2 -6 
2 -6 2 -6 2 -4 3 -5 2 -3 2 -4 2 -2 2 -2 
2 -2 3 -1 2 -1 2 1 2 0 2 1 2 2 3 3 
2 3 2 3 2 4 2 5 2 5 3 6 2 7 2 7 
2 7 2 9 2 8 3 10 2 10 2 10 2 11 2 12 
2 12 3 13 2 13 2 14 2 14 2 15 2 15 3 15 
2 17 2 16 2 18 2 17 2 18 3 19 2 18 2 20 
2 19 2 20 2 21 3 20 2 21 2 22 2 21 2 22 
2 22 3 22 2 23 2 23 2 23 2 23 2 23 3 23 
2 24 2 23 2 24 2 23 2 24 3 23 2 24 2 23 
2 24 2 23 2 23 3 23 2 22 2 23 2 22 2 22 
2 22 3 21 2 22 2 22 2 22 2 21 3 22 2 21 
2 22 2 21 2 22 2 21 3 21 2 21 2 21 2 21 
2 21 2 21 3 21 2 20 2 21 2 20 2 20 2 20 
3 20 2 20 2 20 2 20 2 19 2 20 3 19 2 20 
2 19 2 19 2 19 2 18 3 19 2 18 2 19 2 18 
2 18 2 18 3 18 2 18 2 17 2 18 2 17 2 17 
3 17 2 17 2 17 2 17 2 16 2 16 3 17 2 16 
2 16 2 16 2 15 2 16 3 15 2 15 2 16 2 14 
2 15 2 15 3 15 2 14 2 14 2 15 2 14 2 13 
3 14 2 14 2 13 2 14 2 13 2 13 3 13 2 13 
2 12 2 13 2 12 2 12 3 13 2 11 2 12 2 12 
2 12 3 11 2 11 2 11 2 12 2 10 2 11 3 11 
2 10 2 11 2 10 2 10 2 10 3 10 2 9 2 10 
2 9 2 10 2 9 3 9 2 9 2 9 2 8 2 9 
2 8 3 9 2 8 2 8 2 8 2 7 2 8 3 8 
2 7 2 7 2 7 2 7 2 7 3 7 2 7 2 6 
2 7 2 6 2 6 3 6 2 6 2 6 2 6 2 5 
2 6 3 5 2 5 2 5 2 6 2 4 2 5 3 5 
2 4 2 5 2 4 2 4 2 5 3 4 2 3 2 4 
2 4 2 4 2 3 3 3 2 4 2 3 2 3 2 3 
2 3 3 2 2 3 2 3 2 2 2 3 2 2 3 2 
2 2 2 2 2 2 2 2 2 1 3 2 2 1 2 2 
2 1 2 1 3 1 2 1 2 1 2 1 2 1 2 0 
3 1 2 0 2 1 2 0 2 0 2 0 3 0 2 0 
2 0 2 -1 2 0 2 0 3 -1 2 -1 2 0 2 -1 
2 -1 2 -1 3 -1 9419 2748 300 MP stroke
2 -1 2 -1 2 -1 2 -2 2 -1 3 -2 2 -1 2 -2 
2 -2 2 -2 2 -2 3 -2 2 -2 2 -2 2 -2 2 -2 
2 -3 3 -2 2 -2 2 -3 2 -3 2 -2 2 -3 3 -3 
2 -3 2 -3 2 -3 2 -3 2 -3 3 -3 2 -4 2 -3 
2 -4 2 -3 2 -4 3 -3 2 -4 2 -4 2 -3 2 -4 
2 -4 3 -4 2 -4 2 -4 2 -4 2 -5 2 -4 3 -4 
2 -4 2 -5 2 -4 2 -5 2 -4 3 -5 2 -4 2 -5 
2 -5 2 -4 3 -5 2 -4 2 -5 2 -5 2 -4 2 -5 
3 -4 2 -5 2 -4 2 -5 2 -4 2 -5 3 -4 2 -5 
2 -4 2 -5 2 -4 2 -5 3 -4 2 -5 2 -4 2 -5 
2 -4 2 -5 3 -4 2 -5 2 -4 2 -5 2 -4 2 -5 
3 -5 2 -4 2 -5 2 -4 2 -5 2 -4 3 -5 2 -4 
2 -5 2 -4 2 -5 2 -5 3 -4 2 -5 2 -4 2 -5 
2 -5 2 -4 3 -5 2 -5 2 -4 2 -5 2 -5 2 -4 
3 -5 2 -5 2 -4 2 -5 2 -5 2 -4 3 -5 2 -5 
2 -5 2 -4 2 -5 2 -5 3 -5 2 -5 2 -4 2 -5 
2 -5 2 -5 3 -5 2 -4 2 -5 2 -5 2 -5 2 -5 
3 -5 2 -4 2 -5 2 -5 2 -5 2 -5 3 -5 2 -5 
2 -5 2 -5 2 -4 3 -5 2 -5 2 -5 2 -5 2 -5 
2 -5 3 -5 2 -5 2 -5 2 -4 2 -5 2 -5 3 -5 
2 -5 2 -5 2 -5 2 -5 2 -5 3 -4 2 -5 2 -5 
2 -5 2 -5 2 -5 3 -4 2 -5 2 -5 2 -5 2 -5 
2 -4 3 -5 2 -5 2 -5 2 -4 2 -5 2 -5 3 -4 
2 -5 2 -5 2 -4 2 -5 2 -4 3 -5 2 -4 2 -5 
2 -4 2 -5 2 -4 3 -5 2 -4 2 -4 2 -4 2 -5 
2 -4 3 -4 2 -4 2 -4 2 -5 2 -4 2 -4 3 -4 
2 -3 2 -4 2 -4 2 -4 2 -4 3 -4 2 -3 2 -4 
2 -3 2 -4 2 -3 3 -4 2 -3 2 -3 2 -4 2 -3 
2 -3 3 -3 2 -3 2 -3 2 -3 2 -3 3 -3 2 -2 
2 -3 2 -3 2 -2 2 -2 3 -3 2 -2 2 -2 2 -2 
2 -2 2 -2 3 -2 2 -2 2 -2 2 -1 2 -2 2 -1 
3 -2 2 -1 2 -1 2 -1 2 -1 2 -1 3 -1 2 -1 
2 0 2 -1 2 0 2 0 3 0 2 0 2 0 2 0 
2 0 2 0 3 1 2 1 2 0 2 1 2 1 2 2 
3 1 2 1 2 2 2 1 2 2 2 2 3 2 2 2 
2 2 2 2 2 2 2 3 3 2 2 2 2 3 2 2 
2 3 2 3 3 2 2 3 2 3 2 3 2 3 2 3 
3 3 2 4 2 3 8771 3679 300 MP stroke
2 3 2 4 2 3 3 4 2 4 2 3 2 4 2 4 
2 4 3 4 2 4 2 4 2 4 2 4 2 4 3 5 
2 4 2 4 2 5 2 4 3 5 2 5 2 4 2 5 
2 5 2 5 3 4 2 5 2 5 2 5 2 6 2 5 
3 5 2 5 2 5 2 6 2 5 2 6 3 5 2 6 
2 5 2 6 2 5 2 6 3 6 2 6 2 5 2 6 
2 6 2 6 3 6 2 6 2 6 2 6 2 6 2 6 
3 6 2 6 2 7 2 6 2 6 2 6 3 7 2 6 
2 6 2 7 2 6 2 7 3 6 2 7 2 6 2 7 
2 6 2 7 3 6 2 7 2 6 2 7 2 7 2 6 
3 7 2 7 2 6 2 7 2 7 2 6 3 7 2 7 
2 7 2 6 2 7 2 7 3 7 2 6 2 7 2 7 
2 6 2 7 3 7 2 7 2 6 2 7 2 7 3 6 
2 7 2 7 2 6 2 7 2 7 3 6 2 7 2 6 
2 7 2 7 2 6 3 7 2 6 2 7 2 6 2 6 
2 7 3 6 2 6 2 7 2 6 2 6 2 6 3 7 
2 6 2 6 2 6 2 6 2 6 3 6 2 6 2 5 
2 6 2 6 2 6 3 5 2 6 2 6 2 5 2 6 
2 5 3 5 2 6 2 5 2 5 2 5 2 5 3 5 
2 5 2 5 2 5 2 5 2 5 3 4 2 5 2 5 
2 4 2 5 2 5 3 4 2 5 2 4 2 4 2 5 
2 4 3 4 2 4 2 5 2 4 2 4 2 4 3 4 
2 4 2 3 2 4 2 4 2 3 3 4 2 4 2 3 
2 3 2 4 2 3 3 3 2 3 2 3 2 3 2 3 
3 3 2 3 2 3 2 2 2 3 2 2 3 3 2 2 
2 2 2 2 2 2 2 2 3 2 2 2 2 2 2 1 
2 2 2 1 3 2 2 1 2 1 2 1 2 1 2 1 
3 1 2 1 2 0 2 1 2 0 2 1 3 0 2 0 
2 0 2 0 2 0 2 -1 3 0 2 0 2 -1 2 -1 
2 -1 2 0 3 -1 2 -2 2 -1 2 -1 2 -2 2 -1 
3 -2 2 -2 2 -1 2 -3 2 -2 2 -2 3 -2 2 -3 
2 -2 2 -3 2 -3 2 -3 3 -3 2 -3 2 -3 2 -4 
2 -3 2 -4 3 -4 2 -3 2 -4 2 -5 2 -4 2 -4 
3 -5 2 -4 2 -5 2 -5 2 -5 2 -5 3 -5 2 -6 
2 -5 2 -6 2 -6 3 -5 2 -6 2 -7 2 -6 2 -6 
2 -7 3 -6 2 -7 2 -7 2 -7 2 -7 2 -8 3 -7 
2 -7 2 -8 2 -8 2 -8 2 -8 3 -8 2 -8 2 -9 
2 -9 2 -8 2 -9 8123 2905 300 MP stroke
3 -9 2 -9 2 -9 2 -10 2 -9 2 -10 3 -10 2 -10 
2 -10 2 -10 2 -10 2 -11 3 -10 2 -11 2 -11 2 -11 
2 -11 2 -11 3 -11 2 -12 2 -11 2 -12 2 -12 2 -12 
3 -12 2 -12 2 -13 2 -12 2 -13 2 -13 3 -13 2 -13 
2 -13 2 -14 2 -13 2 -14 3 -14 2 -13 2 -15 2 -14 
2 -14 2 -15 3 -14 2 -15 2 -15 2 -16 2 -15 2 -15 
3 -16 2 -16 2 -16 2 -16 2 -16 2 -16 3 -17 2 -16 
2 -17 2 -17 2 -17 2 -18 3 -17 2 -18 2 -17 2 -18 
2 -18 3 -19 2 -18 2 -18 2 -19 2 -19 2 -19 3 -19 
2 -19 2 -20 2 -19 2 -20 2 -20 3 -20 2 -20 2 -20 
2 -20 2 -21 2 -21 3 -20 2 -21 2 -21 2 -22 2 -21 
2 -21 3 -22 2 -22 2 -22 2 -22 2 -22 2 -22 3 -23 
2 -22 2 -23 2 -23 2 -23 2 -24 3 -23 2 -24 2 -24 
2 -23 2 -24 2 -25 3 -24 2 -24 2 -25 2 -24 2 -25 
2 -25 3 -24 2 -25 2 -25 2 -25 2 -25 2 -25 3 -25 
2 -25 2 -24 2 -25 2 -25 2 -25 3 -25 2 -25 2 -24 
2 -25 2 -25 2 -24 3 -24 2 -25 2 -24 2 -24 2 -23 
2 -24 3 -24 2 -23 2 -23 2 -23 2 -23 2 -22 3 -22 
2 -22 2 -22 2 -22 2 -21 3 -21 2 -20 2 -21 2 -19 
2 -20 2 -19 3 -19 2 -19 2 -19 2 -19 2 -18 2 -18 
3 -18 2 -18 2 -17 2 -17 2 -16 2 -16 3 -16 2 -15 
2 -15 2 -14 2 -14 2 -13 3 -12 2 -12 2 -11 2 -11 
2 -10 2 -9 3 -9 2 -8 2 -7 2 -7 2 -6 2 -5 
3 -4 2 -3 2 -3 2 -2 2 -1 2 -1 3 0 2 2 
2 2 2 2 2 4 2 4 3 5 2 6 2 7 2 8 
2 8 2 9 3 10 2 11 2 11 2 12 2 13 2 14 
3 14 2 15 2 16 2 16 2 18 2 17 3 19 2 19 
2 19 2 21 2 20 2 22 3 21 2 23 2 22 2 23 
2 23 2 24 3 24 2 24 2 25 2 24 2 25 2 26 
3 25 2 26 2 26 2 26 2 27 3 26 2 27 2 26 
2 27 2 27 2 27 3 27 2 27 2 28 2 27 2 27 
2 28 3 27 2 27 2 28 2 27 2 27 2 28 3 27 
2 27 2 27 2 27 2 27 2 27 3 27 2 27 2 26 
2 27 2 26 2 27 3 26 2 26 2 26 2 26 2 26 
2 26 3 25 2 26 2 25 2 25 2 25 2 25 3 25 
2 25 2 24 2 25 2 24 2 24 3 24 2 24 2 24 
2 23 2 24 2 23 3 23 2 24 2 22 2 23 2 23 
2 22 3 22 2 23 7474 3843 300 MP stroke
2 22 2 21 2 22 2 22 3 21 2 21 2 21 2 21 
2 21 2 21 3 20 2 20 2 20 2 20 2 20 2 20 
3 19 2 20 2 19 2 19 2 19 3 19 2 18 2 19 
2 18 2 18 2 18 3 18 2 18 2 17 2 18 2 17 
2 17 3 17 2 17 2 17 2 16 2 17 2 16 3 16 
2 16 2 16 2 16 2 15 2 16 3 15 2 15 2 15 
2 15 2 14 2 15 3 14 2 15 2 14 2 14 2 14 
2 14 3 13 2 14 2 13 2 13 2 13 2 13 3 13 
2 13 2 12 2 13 2 12 2 12 3 12 2 12 2 12 
2 12 2 12 2 11 3 11 2 11 2 12 2 11 2 10 
2 11 3 11 2 10 2 11 2 10 2 10 2 10 3 10 
2 10 2 9 2 10 2 9 2 10 3 9 2 9 2 9 
2 9 2 9 2 8 3 9 2 8 2 9 2 8 2 8 
2 8 3 8 2 8 2 8 2 7 2 8 3 7 2 7 
2 8 2 7 2 7 2 7 3 6 2 7 2 7 2 6 
2 7 2 6 3 6 2 6 2 6 2 6 2 6 2 6 
3 6 2 5 2 6 2 5 2 5 2 6 3 5 2 5 
2 5 2 5 2 4 2 5 3 5 2 4 2 5 2 4 
2 4 2 4 3 5 2 4 2 3 2 4 2 4 2 4 
3 3 2 4 2 3 2 4 2 3 2 3 3 3 2 3 
2 3 2 3 2 3 2 3 3 3 2 2 2 3 2 2 
2 3 2 2 3 2 2 2 2 3 2 2 2 2 2 1 
3 2 2 2 2 2 2 1 2 2 2 1 3 2 2 1 
2 2 2 1 2 1 2 1 3 1 2 1 2 1 2 1 
2 1 2 0 3 1 2 1 2 0 2 1 2 0 3 0 
2 1 2 0 2 0 2 0 2 0 3 1 2 -1 2 0 
2 0 2 0 2 0 3 0 2 -1 2 0 2 -1 2 0 
2 -1 3 0 2 -1 2 -1 2 -1 2 0 2 -1 3 -1 
2 -1 2 -1 2 -1 2 -1 2 -2 3 -1 2 -1 2 -1 
2 -2 2 -1 2 -1 3 -2 2 -2 2 -1 2 -2 2 -1 
2 -2 3 -2 2 -2 2 -1 2 -2 2 -2 2 -2 3 -2 
2 -2 2 -2 2 -3 2 -2 2 -2 3 -2 2 -2 2 -3 
2 -2 2 -3 2 -2 3 -2 2 -3 2 -3 2 -2 2 -3 
2 -2 3 -3 2 -3 2 -3 2 -2 2 -3 2 -3 3 -3 
2 -3 2 -3 2 -3 2 -3 2 -3 3 -3 2 -3 2 -3 
2 -3 2 -4 3 -3 2 -3 2 -3 2 -4 2 -3 2 -3 
3 -4 2 -3 2 -4 2 -3 2 -4 2 -3 3 -4 2 -3 
2 -4 2 -3 2 -4 6826 2148 300 MP stroke
2 -4 3 -4 2 -3 2 -4 2 -4 2 -4 2 -3 3 -4 
2 -4 2 -4 2 -4 2 -4 2 -4 3 -4 2 -4 2 -4 
2 -4 2 -4 2 -4 3 -4 2 -4 2 -4 2 -4 2 -5 
2 -4 3 -4 2 -4 2 -4 2 -5 2 -4 2 -4 3 -4 
2 -5 2 -4 2 -4 2 -5 2 -4 3 -5 2 -4 2 -4 
2 -5 2 -4 2 -5 3 -4 2 -5 2 -4 2 -5 2 -4 
2 -5 3 -5 2 -4 2 -5 2 -4 2 -5 2 -5 3 -4 
2 -5 2 -5 2 -4 2 -5 2 -5 3 -4 2 -5 2 -5 
2 -5 2 -4 2 -5 3 -5 2 -5 2 -4 2 -5 2 -5 
3 -5 2 -5 2 -5 2 -4 2 -5 2 -5 3 -5 2 -5 
2 -5 2 -5 2 -5 2 -5 3 -5 2 -4 2 -5 2 -5 
2 -5 2 -5 3 -5 2 -5 2 -5 2 -5 2 -5 2 -5 
3 -5 2 -5 2 -5 2 -5 2 -5 2 -5 3 -6 2 -5 
2 -5 2 -5 2 -5 2 -5 3 -5 2 -5 2 -5 2 -5 
2 -5 2 -6 3 -5 2 -5 2 -5 2 -5 2 -5 2 -5 
3 -6 2 -5 2 -5 2 -5 2 -5 2 -5 3 -6 2 -5 
2 -5 2 -5 2 -5 2 -6 3 -5 2 -5 2 -5 2 -5 
2 -6 2 -5 3 -5 2 -5 2 -6 2 -5 2 -5 2 -5 
3 -6 2 -5 2 -5 2 -6 2 -5 2 -5 3 -5 2 -6 
2 -5 2 -5 2 -6 3 -5 2 -5 2 -6 2 -5 2 -5 
2 -6 3 -5 2 -5 2 -6 2 -5 2 -6 2 -5 3 -5 
2 -6 2 -5 2 -6 2 -5 2 -5 3 -6 2 -5 2 -6 
2 -5 2 -5 2 -6 3 -5 2 -6 2 -5 2 -6 2 -5 
2 -6 3 -5 2 -6 2 -5 2 -6 2 -5 2 -6 3 -5 
2 -6 2 -5 2 -6 2 -5 2 -6 3 -6 2 -5 2 -6 
2 -5 2 -6 2 -5 3 -6 2 -6 2 -5 2 -6 2 -6 
2 -5 3 -6 2 -5 2 -6 2 -6 2 -5 2 -6 3 -6 
2 -6 2 -5 2 -6 2 -6 2 -6 3 -5 2 -6 2 -6 
2 -6 2 -5 2 -6 3 -6 2 -6 2 -6 2 -6 2 -6 
2 -5 3 -6 2 -6 2 -6 2 -6 2 -6 2 -6 3 -6 
2 -6 2 -6 2 -6 2 -6 3 -6 2 -6 2 -6 2 -6 
2 -7 2 -6 3 -6 2 -6 2 -6 2 -6 2 -7 2 -6 
3 -6 2 -6 2 -6 2 -7 2 -6 2 -6 3 -7 2 -6 
2 -6 2 -7 2 -6 2 -6 3 -7 2 -6 2 -7 2 -6 
2 -7 2 -6 3 -7 2 -6 2 -7 2 -6 2 -7 2 -6 
3 -7 2 -6 2 -7 2 -7 2 -6 2 -7 3 -7 2 -6 
2 -7 2 -7 2 -7 2 -6 3 -7 2 -7 2 -7 2 -6 
2 -7 2 -7 3 -7 6177 3738 300 MP stroke
2 -7 2 -7 2 -6 2 -7 2 -7 3 -7 2 -7 2 -7 
2 -7 2 -7 2 -7 3 -7 2 -7 2 -7 2 -7 2 -7 
2 -7 3 -7 2 -7 2 -7 2 -7 2 -7 2 -8 3 -7 
2 -7 2 -7 2 -7 2 -7 3 -7 2 -8 2 -7 2 -7 
2 -7 2 -7 3 -7 2 -8 2 -7 2 -7 2 -7 2 -8 
3 -7 2 -7 2 -7 2 -8 2 -7 2 -7 3 -7 2 -8 
2 -7 2 -7 2 -8 2 -7 3 -7 2 -8 2 -7 2 -7 
2 -8 2 -7 3 -7 2 -8 2 -7 2 -7 2 -8 2 -7 
3 -7 2 -8 2 -7 2 -7 2 -8 2 -7 3 -7 2 -8 
2 -7 2 -7 2 -8 2 -7 3 -7 2 -7 2 -8 2 -7 
2 -7 2 -7 3 -7 2 -7 2 -7 2 -8 2 -7 2 -7 
3 -7 2 -7 2 -7 2 -7 2 -7 2 -6 3 -7 2 -7 
2 -7 2 -7 2 -6 2 -7 3 -7 2 -7 2 -6 2 -7 
2 -6 2 -7 3 -6 2 -7 2 -6 2 -6 2 -7 2 -6 
3 -6 2 -6 2 -7 2 -6 2 -6 3 -6 2 -6 2 -6 
2 -5 2 -6 2 -6 3 -6 2 -5 2 -6 2 -6 2 -5 
2 -6 3 -5 2 -5 2 -6 2 -5 2 -5 2 -5 3 -6 
2 -5 2 -5 2 -4 2 -5 2 -5 3 -5 2 -5 2 -4 
2 -5 2 -4 2 -5 3 -4 2 -4 2 -5 2 -4 2 -4 
2 -4 3 -4 2 -4 2 -4 2 -4 2 -3 2 -4 3 -4 
2 -3 2 -4 2 -3 2 -3 2 -3 3 -4 2 -3 2 -3 
2 -4 2 -3 2 -5 3 -4 2 -5 2 -5 2 -5 2 -6 
2 -5 3 -6 2 -7 2 -6 2 -6 2 -7 2 -7 3 -7 
2 -7 2 -7 2 -8 2 -7 2 -8 3 -7 2 -8 2 -8 
2 -8 2 -8 2 -8 3 -8 2 -8 2 -8 2 -8 2 -8 
3 -8 2 -8 2 -7 2 -8 2 -8 2 -8 3 -8 2 -7 
2 -8 2 -7 2 -8 2 -7 3 -7 2 -7 2 -7 2 -7 
2 -7 2 -7 3 -6 2 -6 2 -7 2 -6 2 -6 2 -5 
3 -6 2 -5 2 -5 2 -5 2 -5 2 -5 3 -4 2 -4 
2 -4 2 -4 2 -4 2 -3 3 -3 2 -3 2 -3 2 -3 
2 -2 2 -2 3 -2 2 -1 2 -2 2 -1 2 -1 2 0 
3 -1 2 0 2 0 2 0 2 1 2 1 3 1 2 1 
2 1 2 2 2 2 2 2 3 3 2 2 2 3 2 4 
2 3 2 4 3 3 2 5 2 4 2 4 2 5 2 5 
3 5 2 6 2 6 2 5 2 7 2 6 3 6 2 7 
2 7 2 7 2 7 2 8 3 7 2 8 2 8 2 8 
2 9 3 8 2 9 2 9 2 8 2 9 2 10 3 9 
2 9 2 10 2 10 5529 4993 300 MP stroke
2 9 2 10 3 10 2 10 2 10 2 10 2 10 2 11 
3 10 2 10 2 10 2 11 2 10 2 11 3 10 2 10 
2 11 2 11 2 10 2 11 3 11 2 10 2 11 2 11 
2 11 2 11 3 11 2 11 2 11 2 11 2 11 2 11 
3 11 2 11 2 11 2 12 2 11 2 11 3 11 2 11 
2 11 2 11 2 11 2 12 3 11 2 11 2 11 2 11 
2 11 2 11 3 11 2 11 2 11 2 11 2 11 2 11 
3 10 2 11 2 11 2 11 2 10 2 11 3 11 2 10 
2 11 2 10 2 11 2 10 3 11 2 10 2 10 2 10 
2 11 3 10 2 10 2 10 2 10 2 10 2 9 3 10 
2 10 2 10 2 9 2 10 2 9 3 10 2 9 2 9 
2 10 2 9 2 9 3 9 2 9 2 9 2 9 2 9 
2 9 3 8 2 9 2 8 2 9 2 8 2 9 3 8 
2 8 2 8 2 9 2 8 2 8 3 8 2 7 2 8 
2 8 2 8 2 7 3 8 2 7 2 8 2 7 2 8 
2 7 3 7 2 7 2 7 2 7 2 7 2 7 3 7 
2 6 2 7 2 7 2 6 2 7 3 6 2 6 2 7 
2 6 2 6 2 6 3 6 2 6 2 6 2 5 2 6 
2 6 3 5 2 6 2 5 2 6 2 5 2 5 3 6 
2 5 2 5 2 5 2 5 2 5 3 5 2 4 2 5 
2 5 2 4 3 5 2 4 2 5 2 4 2 4 2 4 
3 5 2 4 2 4 2 4 2 4 2 3 3 4 2 4 
2 4 2 3 2 4 2 3 3 4 2 3 2 4 2 3 
2 3 2 3 3 3 2 3 2 4 2 2 2 3 2 3 
3 3 2 3 2 3 2 2 2 3 2 2 3 3 2 2 
2 3 2 2 2 3 2 2 3 2 2 2 2 2 2 3 
2 2 2 2 3 2 2 2 2 2 2 1 2 2 2 2 
3 2 2 2 2 1 2 2 2 1 2 2 3 1 2 2 
2 1 2 1 2 1 2 1 3 1 2 1 2 1 2 1 
2 1 2 1 3 0 2 1 2 1 2 0 2 0 2 1 
3 0 2 1 2 0 2 0 2 0 3 0 2 0 2 0 
2 0 2 0 2 0 3 0 2 0 2 0 2 -1 2 0 
2 0 3 -1 2 0 2 -1 2 0 2 -1 2 0 3 -1 
2 -1 2 0 2 -1 2 -1 2 -1 3 0 2 -1 2 -1 
2 -1 2 -1 2 -1 3 -1 2 -1 2 -1 2 -1 2 -1 
2 -1 3 -1 2 -1 2 -1 2 -1 2 -2 2 -1 3 -1 
2 -1 2 -1 2 -2 2 -1 2 -1 3 -1 2 -2 2 -1 
2 -1 2 -2 2 -1 4881 3404 300 MP stroke
3 -1 2 -2 2 -1 2 -1 2 -2 2 -1 3 -2 2 -1 
2 -1 2 -2 2 -1 2 -2 3 -1 2 -1 2 -2 2 -1 
2 -2 2 -1 3 -1 2 -2 2 -1 2 -2 2 -1 2 -1 
3 -2 2 -1 2 -1 2 -2 2 -1 2 -1 3 -2 2 -1 
2 -1 2 -2 2 -1 3 -1 2 -1 2 -2 2 -1 2 -1 
2 -1 3 -1 2 -1 2 -2 2 -1 2 -1 2 -1 3 -1 
2 -1 2 -1 2 -1 2 -1 2 -1 3 -1 2 -1 2 -1 
2 0 2 -1 2 -1 3 -1 2 -1 2 0 2 -1 2 -1 
2 0 3 -1 2 -1 2 0 2 -1 2 0 2 -1 3 0 
2 -1 2 0 2 0 2 -1 2 0 3 0 2 0 2 -1 
2 0 2 0 2 0 3 0 2 0 2 0 2 0 2 0 
2 0 3 1 2 0 2 0 2 0 2 1 2 0 3 1 
2 0 2 1 2 0 2 1 2 0 3 1 2 1 2 1 
2 1 2 0 2 1 3 1 2 1 2 1 2 1 2 2 
2 1 3 1 2 1 2 2 2 1 2 1 3 2 2 2 
2 1 2 2 2 1 2 2 3 2 2 2 2 2 2 2 
2 2 2 2 3 2 2 2 2 2 2 3 2 2 2 2 
3 3 2 2 2 3 2 2 2 3 2 3 3 3 2 2 
2 3 2 3 2 3 2 3 3 4 2 3 2 3 2 3 
2 4 2 3 3 4 2 3 2 4 2 3 2 4 2 4 
3 4 2 4 2 4 2 4 2 4 2 4 3 4 2 5 
2 4 2 4 2 5 2 4 3 5 2 4 2 5 2 4 
2 5 2 5 3 4 2 5 2 5 2 5 2 4 2 5 
3 5 2 5 2 5 2 5 2 5 2 5 3 5 2 5 
2 5 2 5 2 5 2 5 3 5 2 6 2 5 2 5 
2 5 2 6 3 5 2 5 2 6 2 5 2 5 3 6 
2 5 2 6 2 5 2 6 2 5 3 6 2 5 2 6 
2 5 2 6 2 6 3 5 2 6 2 5 2 6 2 6 
2 5 3 6 2 6 2 6 2 5 2 6 2 6 3 6 
2 5 2 6 2 6 2 6 2 5 3 6 2 6 2 6 
2 6 2 5 2 6 3 6 2 6 2 6 2 5 2 6 
2 6 3 6 2 6 2 6 2 5 2 6 2 6 3 6 
2 6 2 5 2 6 2 6 2 6 3 6 2 5 2 6 
2 6 2 6 2 5 3 6 2 6 2 5 2 6 2 6 
2 5 3 6 2 6 2 5 2 6 2 6 2 5 3 6 
2 5 2 6 2 5 2 6 2 5 3 6 2 5 2 5 
2 6 2 5 2 5 3 6 2 5 2 5 2 5 2 6 
3 5 2 5 2 5 4232 2613 300 MP stroke
2 5 2 5 2 5 3 5 2 5 2 5 2 5 2 5 
2 5 3 4 2 5 2 5 2 5 2 4 2 5 3 4 
2 5 2 4 2 5 2 4 2 4 3 5 2 4 2 4 
2 4 2 4 2 5 3 4 2 4 2 4 2 3 2 4 
2 4 3 4 2 3 2 4 2 4 2 3 2 4 3 3 
2 3 2 4 2 3 2 3 2 3 3 3 2 3 2 3 
2 3 2 3 2 2 3 3 2 3 2 2 2 3 2 2 
2 2 3 3 2 2 2 2 2 2 2 2 2 3 3 2 
2 1 2 2 2 2 2 2 2 2 3 1 2 2 2 1 
2 2 2 1 2 2 3 1 2 1 2 1 2 1 2 1 
3 1 2 1 2 1 2 1 2 0 2 1 3 1 2 0 
2 0 2 1 2 0 2 0 3 0 2 0 2 0 2 0 
2 -1 2 0 3 0 2 -1 2 -1 2 0 2 -1 2 -1 
3 -1 2 -1 2 -1 2 -1 2 -2 2 -1 3 -2 2 -1 
2 -2 2 -2 2 -2 2 -2 3 -2 2 -2 2 -2 2 -3 
2 -2 2 -3 3 -2 2 -3 2 -3 2 -3 2 -3 2 -3 
3 -4 2 -3 2 -4 2 -3 2 -4 2 -4 3 -4 2 -4 
2 -4 2 -4 2 -5 2 -4 3 -5 2 -5 2 -5 2 -4 
2 -6 2 -5 3 -5 2 -6 2 -5 2 -6 2 -6 2 -5 
3 -6 2 -7 2 -6 2 -6 2 -7 2 -6 3 -7 2 -7 
2 -7 2 -7 2 -7 2 -8 3 -7 2 -8 2 -7 2 -8 
2 -8 3 -8 2 -9 2 -8 2 -9 2 -8 2 -9 3 -9 
2 -9 2 -9 2 -9 2 -10 2 -9 3 -10 2 -10 2 -10 
2 -10 2 -10 2 -10 3 -11 2 -10 2 -11 2 -11 2 -11 
2 -11 3 -11 2 -12 2 -11 2 -12 2 -12 2 -12 3 -12 
2 -12 2 -12 2 -13 2 -12 2 -13 3 -13 2 -13 2 -13 
2 -14 2 -13 2 -14 3 -13 2 -14 2 -14 2 -15 2 -14 
2 -14 3 -15 2 -15 2 -14 2 -15 2 -16 2 -15 3 -15 
2 -16 2 -16 2 -16 2 -16 2 -16 3 -16 2 -17 2 -16 
2 -17 2 -17 2 -17 3 -18 2 -17 2 -18 2 -17 2 -18 
2 -18 3 -19 2 -18 2 -19 2 -18 2 -19 2 -19 3 -19 
2 -20 2 -19 2 -20 2 -20 3 -20 2 -20 2 -20 2 -20 
2 -21 2 -21 3 -21 2 -21 2 -21 2 -21 2 -22 2 -21 
3 -22 2 -22 2 -22 2 -22 2 -23 2 -22 3 -23 2 -23 
2 -23 2 -23 2 -23 2 -23 3 -24 2 -24 2 -25 2 -25 
2 -25 2 -26 3 -26 2 -26 2 -27 2 -27 2 -27 2 -27 
3 -28 2 -28 2 -28 2 -28 2 -28 2 -28 3 -29 2 -28 
2 -29 2 -29 2 -29 3584 4910 300 MP stroke
2 -28 3 -29 2 -29 2 -29 2 -29 2 -29 2 -29 3 -28 
2 -29 2 -28 2 -29 2 -28 2 -28 3 -29 2 -27 2 -28 
2 -28 2 -27 2 -27 3 -27 2 -27 2 -27 2 -26 2 -26 
2 -26 3 -25 2 -25 2 -25 2 -25 2 -24 2 -24 3 -23 
2 -23 2 -23 2 -22 2 -22 2 -22 3 -21 2 -21 2 -21 
2 -20 2 -19 3 -21 2 -21 2 -22 2 -23 2 -22 2 -23 
3 -23 2 -23 2 -23 2 -22 2 -23 2 -22 3 -21 2 -21 
2 -21 2 -20 2 -19 2 -18 3 -17 2 -16 2 -16 2 -14 
2 -13 2 -12 3 -11 2 -10 2 -8 2 -7 2 -6 2 -4 
3 -3 2 -2 2 0 2 1 2 2 2 4 3 6 2 6 
2 9 2 9 2 11 2 13 3 13 2 15 2 17 2 17 
2 19 2 20 3 21 2 22 2 24 2 24 2 25 2 26 
3 27 2 28 2 28 2 29 2 30 2 30 3 30 2 31 
2 31 2 31 2 31 2 31 3 32 2 32 2 32 2 32 
2 33 2 33 3 33 2 33 2 33 2 34 2 33 2 34 
3 33 2 34 2 34 2 34 2 33 3 34 2 34 2 34 
2 34 2 33 2 34 3 34 2 33 2 33 2 34 2 33 
2 33 3 33 2 33 2 32 2 33 2 32 2 32 3 32 
2 32 2 32 2 31 2 31 2 31 3 31 2 31 2 30 
2 31 2 30 2 29 3 30 2 29 2 29 2 29 2 29 
2 28 3 29 2 28 2 28 2 27 2 28 2 27 3 27 
2 26 2 27 2 26 2 27 2 26 3 25 2 26 2 26 
2 25 2 25 2 25 3 25 2 24 2 25 2 24 2 24 
2 24 3 23 2 24 2 23 2 23 2 23 2 22 3 22 
2 23 2 22 2 21 2 22 2 21 3 22 2 21 2 21 
2 20 2 21 2 20 3 20 2 20 2 20 2 19 2 20 
2 19 3 19 2 18 2 19 2 19 2 18 3 18 2 18 
2 18 2 17 2 17 2 18 3 17 2 17 2 16 2 17 
2 16 2 16 3 16 2 16 2 16 2 15 2 16 2 15 
3 15 2 15 2 14 2 15 2 14 2 15 3 14 2 13 
2 14 2 14 2 13 2 14 3 13 2 13 2 13 2 12 
2 13 2 12 3 12 2 13 2 12 2 11 2 12 2 12 
3 11 2 11 2 11 2 11 2 11 2 11 3 10 2 11 
2 10 2 10 2 10 2 10 3 10 2 10 2 9 2 9 
2 10 2 9 3 9 2 8 2 9 2 9 2 8 2 8 
3 9 2 8 2 8 2 7 2 8 2 8 3 7 2 7 
2 7 2 8 2 6 2 7 3 7 2 7 2 6 2 6 
2 7 3 6 2 6 2935 1937 300 MP stroke
2 5 2 6 2 6 2 5 3 6 2 5 2 5 2 5 
2 5 2 5 3 5 2 4 2 5 2 4 2 4 2 5 
3 4 2 4 2 3 2 4 2 4 2 3 3 4 2 3 
2 3 2 3 2 3 2 3 3 3 2 3 2 2 2 3 
2 2 2 3 3 2 2 2 2 2 2 2 2 2 2 1 
3 2 2 2 2 1 2 1 2 2 2 1 3 1 2 1 
2 1 2 0 2 1 2 1 3 0 2 1 2 0 2 0 
2 1 2 0 3 0 2 0 2 -1 2 0 2 0 2 -1 
3 0 2 -1 2 0 2 -1 2 -1 2 -1 3 -1 2 -1 
2 -1 2 -1 2 -2 2 -1 3 -1 2 -2 2 -1 2 -2 
2 -2 2 -2 3 -2 2 -2 2 -2 2 -2 2 -2 3 -2 
2 -2 2 -3 2 -2 2 -3 2 -2 3 -3 2 -3 2 -3 
2 -2 2 -3 2 -3 3 -3 2 -3 2 -4 2 -3 2 -3 
2 -3 3 -4 2 -3 2 -4 2 -3 2 -4 2 -4 3 -4 
2 -3 2 -4 2 -4 2 -4 2 -4 3 -4 2 -5 2 -4 
2 -4 2 -5 2 -4 3 -5 2 -4 2 -5 2 -4 2 -5 
2 -5 3 -5 2 -5 2 -5 2 -5 2 -5 2 -5 3 -5 
2 -6 2 -5 2 -6 2 -5 2 -5 3 -6 2 -6 2 -5 
2 -6 2 -6 2 -6 3 -5 2 -6 2 -6 2 -6 2 -6 
2 -6 3 -7 2 -6 2 -6 2 -6 2 -7 2 -6 3 -6 
2 -7 2 -6 2 -7 2 -6 2 -7 3 -6 2 -7 2 -7 
2 -6 2 -7 3 -7 2 -7 2 -7 2 -6 2 -7 2 -7 
3 -7 2 -7 2 -7 2 -7 2 -7 2 -8 3 -7 2 -7 
2 -7 2 -7 2 -7 2 -8 3 -7 2 -7 2 -8 2 -7 
2 -7 2 -8 3 -7 2 -7 2 -8 2 -7 2 -8 2 -7 
3 -8 2 -7 2 -8 2 -7 2 -8 2 -7 3 -8 2 -8 
2 -7 2 -8 2 -7 2 -8 3 -8 2 -7 2 -8 2 -8 
2 -7 2 -8 3 -8 2 -8 2 -7 2 -8 2 -8 2 -7 
3 -8 2 -8 2 -8 2 -7 2 -8 2 -8 3 -8 2 -7 
2 -8 2 -8 2 -7 2 -8 3 -8 2 -8 2 -7 2 -8 
2 -8 2 -8 3 -7 2 -8 2 -8 2 -7 2 -8 2 -8 
3 -8 2 -7 2 -8 2 -8 2 -7 2 -8 3 -8 2 -7 
2 -8 2 -7 2 -8 3 -8 2 -7 2 -8 2 -7 2 -8 
2 -7 3 -8 2 -7 2 -8 2 -7 2 -8 2 -7 3 -8 
2 -7 2 -8 2 -7 2 -7 2 -8 3 -7 2 -7 2 -8 
2 -7 2 -7 2 -7 3 -8 2 -7 2 -7 2 -7 2 -7 
2 -8 3 -7 2 -7 2 -7 2 -7 2 -7 2 -7 3 -7 
2 -7 2 -7 2 -7 2287 3157 300 MP stroke
2 -7 2 -7 3 -6 2 -7 2 -7 2 -7 2 -7 2 -6 
3 -7 2 -7 2 -6 2 -7 2 -7 2 -6 3 -7 2 -6 
2 -7 2 -6 2 -7 2 -6 3 -7 2 -6 2 -6 2 -7 
2 -6 2 -6 3 -6 2 -7 2 -6 2 -6 2 -6 2 -6 
3 -6 2 -6 2 -6 2 -6 2 -6 2 -6 3 -6 2 -6 
2 -5 2 -6 2 -6 3 -6 2 -5 2 -6 2 -6 2 -5 
2 -6 3 -5 2 -6 2 -5 2 -6 2 -5 2 -6 3 -5 
2 -5 2 -6 2 -5 2 -5 2 -5 3 -5 2 -5 2 -5 
2 -5 2 -5 2 -5 3 -5 2 -5 2 -5 2 -5 2 -4 
2 -5 3 -5 2 -4 2 -5 2 -4 2 -5 2 -4 3 -4 
2 -5 2 -4 2 -4 2 -4 2 -4 3 -5 2 -4 2 -4 
2 -4 2 -3 2 -4 3 -4 2 -4 2 -4 2 -3 2 -4 
2 -3 3 -4 2 -3 2 -4 2 -3 2 -4 2 -3 3 -3 
2 -3 2 -3 2 -4 2 -3 2 -3 3 -3 2 -2 2 -3 
2 -3 2 -3 2 -3 3 -2 2 -3 2 -3 2 -2 2 -3 
2 -2 3 -3 2 -2 2 -2 2 -3 2 -2 2 -2 3 -2 
2 -2 2 -2 2 -2 2 -2 3 -2 2 -2 2 -2 2 -2 
2 -2 2 -1 3 -2 2 -2 2 -1 2 -2 2 -2 2 -1 
3 -2 2 -1 2 -1 2 -2 2 -1 2 -1 3 -2 2 -1 
2 -1 2 -1 2 -1 2 -1 3 -1 2 -1 2 -1 2 -1 
2 -1 2 -1 3 -1 2 -1 2 0 2 -1 2 -1 2 0 
3 -1 2 -1 2 0 2 -1 2 -1 2 0 3 -1 2 0 
2 -1 2 0 2 0 2 -1 3 0 2 0 2 -1 2 0 
2 0 2 -1 3 0 2 0 2 0 2 -1 2 0 2 0 
3 0 2 0 2 -1 2 0 2 0 2 0 3 0 2 0 
2 0 2 0 2 0 2 0 3 0 2 0 2 0 2 0 
2 0 2 0 3 0 2 0 2 0 2 0 2 0 2 -1 
1819 3839 217 MP stroke
/c9 { 0.000000 0.500000 0.000000 sr} bdef
c9
3 -9 2 -8 2 -9 2 -9 2 -10 3 -9 2 -9 2 -10 
2 -9 2 -10 2 -10 3 -9 2 -10 2 -10 2 -10 2 -11 
2 -10 3 -10 2 -11 2 -11 2 -10 2 -11 2 -11 3 -11 
2 -11 2 -12 2 -11 2 -11 2 -12 3 -12 2 -11 2 -12 
2 -12 2 -12 2 -13 3 -12 2 -12 2 -13 2 -13 2 -12 
2 -13 3 -13 2 -13 2 -13 2 -14 2 -13 2 -14 3 -13 
2 -14 2 -14 2 -14 2 -14 2 -14 3 -15 2 -14 2 -15 
2 -14 2 -15 2 -15 3 -15 2 -15 2 -15 2 -16 2 -15 
2 -16 3 -15 2 -16 2 -16 2 -16 2 -16 2 -16 3 -17 
2 -16 2 -17 2 -16 2 -17 2 -17 3 -17 2 -17 2 -18 
2 -17 2 -17 2 -18 3 -18 2 -17 2 -18 2 -18 2 -19 
3 -18 2 -18 2 -19 2 -18 2 -19 2 -18 3 -19 2 -19 
2 -19 2 -19 2 -20 2 -19 3 -19 2 -20 2 -20 2 -19 
2 -20 2 -20 3 -20 2 -20 2 -20 2 -20 2 -20 2 -21 
3 -20 2 -21 2 -20 2 -21 2 -21 2 -20 3 -21 2 -21 
2 -21 2 -21 2 -21 2 -21 3 -21 2 -21 2 -21 2 -21 
2 -21 2 -21 3 -21 2 -21 2 -22 2 -21 2 -21 2 -21 
3 -21 2 -21 2 -21 2 -21 2 -21 2 -21 3 -21 2 -21 
2 -20 2 -21 2 -20 2 -21 3 -20 2 -20 2 -20 2 -20 
2 -20 2 -20 3 -19 2 -20 2 -19 2 -19 2 -19 2 -18 
3 -19 2 -18 2 -18 2 -18 2 -17 2 -17 3 -17 2 -17 
2 -16 2 -16 2 -16 2 -15 3 -16 2 -14 2 -15 2 -14 
2 -13 3 -13 2 -13 2 -12 2 -12 2 -12 2 -11 3 -11 
2 -10 2 -10 2 -9 2 -9 2 -8 3 -7 2 -8 2 -6 
2 -7 2 -5 2 -5 3 -5 2 -4 2 -3 2 -3 2 -3 
2 -2 3 -1 2 0 2 -1 2 1 2 1 2 1 3 3 
2 2 2 3 2 4 2 4 2 5 3 6 2 6 2 6 
2 7 2 7 2 8 3 9 2 9 2 9 2 10 2 10 
2 11 3 11 2 12 2 12 2 12 2 13 2 13 3 14 
2 14 2 14 2 15 2 15 2 15 3 16 2 16 2 16 
2 17 2 17 2 17 3 17 2 17 2 18 2 18 2 18 
2 18 3 19 2 19 2 19 2 19 2 19 2 19 3 19 
2 20 2 20 2 19 2 20 3 20 2 20 2 20 2 20 
2 20 2 21 3 20 2 20 2 21 2 20 2 20 2 21 
3 20 2 20 2 21 2 20 2 21 2 20 3 20 2 20 
2 21 2 20 2 20 2 20 3 20 2 20 2 20 2 20 
2 20 2 19 3 20 2 20 2 19 2 19 2 20 2 19 
3 19 2 19 2 19 12013 4357 300 MP stroke
2 19 2 19 2 19 3 18 2 19 2 18 2 18 2 18 
2 18 3 18 2 18 2 18 2 17 2 18 2 17 3 17 
2 18 2 16 2 17 2 17 2 17 3 16 2 16 2 17 
2 16 2 15 2 16 3 16 2 15 2 16 2 15 2 15 
2 15 3 15 2 15 2 15 2 14 2 14 2 15 3 14 
2 14 2 13 2 14 2 14 2 13 3 13 2 13 2 13 
2 13 2 13 3 12 2 13 2 12 2 12 2 12 2 12 
3 12 2 12 2 11 2 12 2 11 2 11 3 11 2 11 
2 10 2 11 2 10 2 10 3 10 2 10 2 10 2 10 
2 10 2 9 3 9 2 10 2 9 2 9 2 8 2 9 
3 9 2 8 2 8 2 8 2 8 2 8 3 8 2 7 
2 8 2 7 2 8 2 7 3 7 2 6 2 7 2 7 
2 6 2 7 3 6 2 6 2 6 2 6 2 5 2 6 
3 5 2 6 2 5 2 5 2 5 2 5 3 5 2 4 
2 5 2 4 2 4 2 5 3 4 2 4 2 3 2 4 
2 4 2 3 3 3 2 4 2 3 2 3 2 3 2 2 
3 3 2 3 2 2 2 2 2 3 3 2 2 2 2 2 
2 1 2 2 2 2 3 1 2 1 2 2 2 1 2 1 
2 1 3 1 2 0 2 1 2 0 2 1 2 0 3 0 
2 0 2 0 2 0 2 0 2 0 3 0 2 -1 2 0 
2 -1 2 -1 2 -1 3 -1 2 -1 2 -1 2 -1 2 -1 
2 -2 3 -1 2 -2 2 -1 2 -2 2 -2 2 -2 3 -2 
2 -2 2 -2 2 -2 2 -3 2 -2 3 -3 2 -2 2 -3 
2 -3 2 -3 2 -3 3 -3 2 -3 2 -3 2 -3 2 -3 
2 -4 3 -3 2 -4 2 -3 2 -4 2 -4 2 -4 3 -3 
2 -4 2 -4 2 -5 2 -4 2 -4 3 -4 2 -5 2 -4 
2 -5 2 -4 2 -5 3 -4 2 -5 2 -5 2 -5 2 -5 
2 -5 3 -5 2 -5 2 -5 2 -5 2 -5 3 -6 2 -5 
2 -6 2 -5 2 -6 2 -5 3 -6 2 -5 2 -6 2 -6 
2 -6 2 -6 3 -5 2 -6 2 -6 2 -6 2 -6 2 -6 
3 -7 2 -6 2 -6 2 -6 2 -6 2 -7 3 -6 2 -6 
2 -7 2 -6 2 -7 2 -6 3 -7 2 -6 2 -7 2 -6 
2 -7 2 -6 3 -7 2 -7 2 -6 2 -7 2 -7 2 -6 
3 -7 2 -7 2 -7 2 -6 2 -7 2 -7 3 -7 2 -7 
2 -6 2 -7 2 -7 2 -7 3 -7 2 -6 2 -7 2 -7 
2 -7 2 -7 3 -6 2 -7 2 -7 2 -7 2 -6 2 -7 
3 -7 2 -7 2 -6 2 -7 2 -7 2 -6 3 -7 2 -6 
2 -7 2 -6 2 -7 11365 3632 300 MP stroke
2 -6 3 -7 2 -6 2 -7 2 -6 2 -6 3 -7 2 -6 
2 -6 2 -6 2 -6 2 -7 3 -6 2 -6 2 -6 2 -5 
2 -6 2 -6 3 -6 2 -6 2 -5 2 -6 2 -6 2 -5 
3 -5 2 -6 2 -5 2 -5 2 -6 2 -5 3 -5 2 -5 
2 -5 2 -5 2 -5 2 -4 3 -5 2 -5 2 -4 2 -5 
2 -4 2 -4 3 -4 2 -5 2 -4 2 -4 2 -3 2 -4 
3 -4 2 -4 2 -3 2 -4 2 -3 2 -3 3 -4 2 -3 
2 -3 2 -3 2 -2 2 -3 3 -3 2 -2 2 -3 2 -2 
2 -2 2 -2 3 -3 2 -1 2 -2 2 -2 2 -2 2 -1 
3 -2 2 -1 2 -1 2 -1 2 -1 2 -1 3 -1 2 -1 
2 0 2 -1 2 0 2 -1 3 0 2 0 2 0 2 1 
2 0 2 0 3 1 2 0 2 1 2 1 2 1 3 1 
2 1 2 1 2 2 2 1 2 2 3 2 2 1 2 2 
2 2 2 3 2 2 3 2 2 3 2 2 2 3 2 3 
2 3 3 3 2 3 2 3 2 4 2 3 2 4 3 3 
2 4 2 4 2 4 2 4 2 4 3 5 2 4 2 4 
2 5 2 5 2 5 3 4 2 5 2 6 2 5 2 5 
2 5 3 6 2 5 2 6 2 6 2 6 2 6 3 6 
2 6 2 6 2 6 2 6 2 7 3 6 2 7 2 7 
2 6 2 7 2 7 3 7 2 7 2 7 2 8 2 7 
2 7 3 8 2 7 2 8 2 7 2 8 2 8 3 8 
2 8 2 8 2 8 2 8 2 8 3 8 2 8 2 9 
2 8 2 8 3 9 2 8 2 9 2 8 2 9 2 9 
3 9 2 8 2 9 2 9 2 9 2 9 3 9 2 9 
2 9 2 9 2 9 2 10 3 9 2 9 2 9 2 10 
2 9 2 9 3 10 2 9 2 10 2 9 2 10 2 9 
3 10 2 9 2 10 2 9 2 10 2 10 3 9 2 10 
2 10 2 9 2 10 2 10 3 9 2 10 2 10 2 10 
2 9 2 10 3 10 2 10 2 9 2 10 2 10 2 10 
3 9 2 10 2 10 2 9 2 10 2 10 3 10 2 9 
2 10 2 10 2 9 2 10 3 10 2 9 2 10 2 9 
2 10 2 9 3 10 2 10 2 9 2 9 2 10 2 9 
3 10 2 9 2 10 2 9 2 9 2 10 3 9 2 9 
2 9 2 9 2 10 3 9 2 9 2 9 2 9 2 9 
2 9 3 9 2 9 2 9 2 8 2 9 2 9 3 9 
2 8 2 9 2 9 2 8 2 9 3 8 2 8 2 9 
2 8 2 8 2 9 3 8 2 8 2 8 2 8 2 8 
2 8 3 8 2 8 10716 2421 300 MP stroke
2 8 2 7 2 8 2 8 3 7 2 8 2 7 2 8 
2 7 2 8 3 7 2 7 2 7 2 7 2 7 2 7 
3 7 2 7 2 7 2 7 2 6 2 7 3 6 2 7 
2 6 2 7 2 6 2 6 3 6 2 6 2 6 2 6 
2 6 2 6 3 6 2 5 2 6 2 5 2 6 2 5 
3 5 2 6 2 5 2 5 2 5 2 5 3 5 2 4 
2 5 2 5 2 4 3 5 2 4 2 4 2 5 2 4 
2 4 3 4 2 4 2 3 2 4 2 4 2 3 3 4 
2 3 2 4 2 3 2 3 2 3 3 3 2 3 2 3 
2 2 2 3 2 2 3 3 2 2 2 2 2 2 2 3 
2 1 3 2 2 2 2 2 2 1 2 2 2 1 3 2 
2 1 2 1 2 1 2 1 2 1 3 0 2 1 2 0 
2 1 2 0 2 0 3 0 2 0 2 0 2 0 2 0 
2 -1 3 0 2 -1 2 -1 2 -1 2 -1 2 -1 3 -1 
2 -1 2 -1 2 -2 2 -2 2 -1 3 -2 2 -2 2 -2 
2 -2 2 -3 2 -2 3 -3 2 -2 2 -3 2 -3 2 -3 
2 -3 3 -3 2 -4 2 -3 2 -4 2 -4 2 -3 3 -4 
2 -4 2 -5 2 -4 2 -4 3 -5 2 -5 2 -5 2 -5 
2 -5 2 -5 3 -5 2 -6 2 -5 2 -6 2 -6 2 -6 
3 -6 2 -6 2 -7 2 -6 2 -7 2 -7 3 -7 2 -7 
2 -7 2 -7 2 -8 2 -7 3 -8 2 -8 2 -8 2 -8 
2 -9 2 -8 3 -9 2 -9 2 -9 2 -9 2 -9 2 -9 
3 -10 2 -9 2 -10 2 -10 2 -10 2 -11 3 -10 2 -11 
2 -10 2 -11 2 -11 2 -11 3 -12 2 -11 2 -12 2 -12 
2 -12 2 -12 3 -12 2 -13 2 -12 2 -13 2 -13 2 -13 
3 -13 2 -14 2 -13 2 -14 2 -14 2 -14 3 -15 2 -14 
2 -15 2 -14 2 -15 2 -16 3 -15 2 -15 2 -16 2 -16 
2 -16 2 -16 3 -17 2 -16 2 -17 2 -17 2 -17 3 -17 
2 -18 2 -18 2 -17 2 -18 2 -19 3 -18 2 -19 2 -19 
2 -19 2 -19 2 -19 3 -20 2 -20 2 -19 2 -21 2 -20 
2 -21 3 -20 2 -21 2 -21 2 -22 2 -21 2 -22 3 -22 
2 -22 2 -22 2 -23 2 -23 2 -23 3 -23 2 -23 2 -24 
2 -24 2 -24 2 -24 3 -24 2 -25 2 -25 2 -25 2 -25 
2 -25 3 -26 2 -26 2 -26 2 -26 2 -27 2 -26 3 -27 
2 -27 2 -28 2 -27 2 -28 2 -28 3 -28 2 -28 2 -29 
2 -28 2 -29 2 -29 3 -30 2 -29 2 -30 2 -30 2 -30 
2 -30 3 -30 2 -31 2 -31 2 -31 2 -31 2 -31 3 -31 
2 -32 2 -32 2 -31 10068 4817 300 MP stroke
2 -32 2 -33 3 -32 2 -32 2 -33 2 -32 2 -33 2 -33 
3 -33 2 -33 2 -33 2 -33 2 -33 3 -33 2 -33 2 -33 
2 -33 2 -33 2 -33 3 -33 2 -33 2 -33 2 -33 2 -33 
2 -32 3 -32 2 -32 2 -32 2 -32 2 -31 2 -31 3 -31 
2 -31 2 -30 2 -29 2 -29 2 -29 3 -28 2 -28 2 -27 
2 -27 2 -26 2 -25 3 -25 2 -24 2 -23 2 -22 2 -21 
2 -21 3 -19 2 -19 2 -17 2 -17 2 -15 2 -15 3 -13 
2 -12 2 -11 2 -10 2 -9 2 -7 3 -6 2 -5 2 -3 
2 -2 2 -1 2 0 3 2 2 3 2 4 2 5 2 7 
2 8 3 9 2 11 2 12 2 12 2 14 2 15 3 17 
2 17 2 18 2 19 2 20 2 21 3 22 2 23 2 23 
2 24 2 25 2 26 3 26 2 27 2 28 2 28 2 29 
2 29 3 29 2 30 2 31 2 30 2 31 3 32 2 31 
2 32 2 32 2 32 2 33 3 32 2 33 2 33 2 33 
2 33 2 33 3 33 2 34 2 33 2 33 2 33 2 34 
3 33 2 33 2 33 2 33 2 33 2 33 3 33 2 32 
2 33 2 32 2 33 2 32 3 32 2 32 2 32 2 32 
2 31 2 31 3 32 2 31 2 30 2 31 2 31 2 30 
3 30 2 30 2 30 2 30 2 29 2 29 3 29 2 29 
2 29 2 28 2 28 2 28 3 28 2 28 2 27 2 28 
2 27 2 27 3 26 2 27 2 26 2 26 2 26 2 25 
3 26 2 25 2 25 2 25 2 25 2 24 3 24 2 24 
2 24 2 24 2 23 2 23 3 23 2 23 2 23 2 22 
2 23 3 22 2 21 2 22 2 22 2 21 2 21 3 21 
2 21 2 20 2 21 2 20 2 20 3 19 2 20 2 19 
2 20 2 19 2 19 3 18 2 19 2 18 2 18 2 18 
2 18 3 17 2 18 2 17 2 17 2 17 2 17 3 16 
2 17 2 16 2 16 2 16 2 15 3 16 2 15 2 15 
2 15 2 15 2 15 3 14 2 15 2 14 2 14 2 14 
2 14 3 13 2 14 2 13 2 13 2 13 2 13 3 12 
2 13 2 12 2 12 2 12 2 12 3 12 2 12 2 11 
2 11 2 12 2 11 3 10 2 11 2 11 2 10 2 11 
2 10 3 10 2 10 2 10 2 9 2 10 2 9 3 9 
2 9 2 9 2 9 2 9 2 8 3 9 2 8 2 8 
2 8 2 8 3 8 2 8 2 7 2 7 2 8 2 7 
3 7 2 7 2 7 2 6 2 7 2 6 3 6 2 7 
2 6 2 6 2 5 2 6 3 6 2 5 2 6 2 5 
2 5 2 5 3 5 9419 1930 300 MP stroke
2 5 2 4 2 5 2 4 2 5 3 4 2 4 2 4 
2 4 2 4 2 4 3 3 2 4 2 3 2 3 2 3 
2 3 3 3 2 3 2 3 2 3 2 2 2 3 3 2 
2 2 2 3 2 2 2 2 2 1 3 2 2 2 2 2 
2 1 2 1 2 2 3 1 2 1 2 1 2 1 2 1 
2 1 3 0 2 1 2 0 2 1 2 0 2 0 3 0 
2 1 2 -1 2 0 2 0 2 0 3 0 2 -1 2 0 
2 -1 2 -1 3 -1 2 0 2 -1 2 -1 2 -2 2 -1 
3 -1 2 -1 2 -2 2 -1 2 -2 2 -1 3 -2 2 -2 
2 -2 2 -2 2 -2 2 -2 3 -2 2 -2 2 -3 2 -2 
2 -3 2 -2 3 -3 2 -2 2 -3 2 -3 2 -3 2 -3 
3 -3 2 -3 2 -3 2 -3 2 -4 2 -3 3 -3 2 -4 
2 -3 2 -4 2 -4 2 -3 3 -4 2 -4 2 -4 2 -4 
2 -4 2 -4 3 -4 2 -5 2 -4 2 -4 2 -5 2 -4 
3 -5 2 -4 2 -5 2 -4 2 -5 2 -5 3 -5 2 -5 
2 -5 2 -5 2 -5 2 -5 3 -5 2 -5 2 -6 2 -5 
2 -5 2 -6 3 -5 2 -6 2 -5 2 -6 2 -6 2 -5 
3 -6 2 -6 2 -6 2 -6 2 -5 2 -6 3 -6 2 -7 
2 -6 2 -6 2 -6 3 -6 2 -6 2 -7 2 -6 2 -7 
2 -6 3 -6 2 -7 2 -7 2 -6 2 -7 2 -6 3 -7 
2 -7 2 -7 2 -6 2 -7 2 -7 3 -7 2 -7 2 -7 
2 -7 2 -7 2 -7 3 -7 2 -7 2 -7 2 -8 2 -7 
2 -7 3 -7 2 -8 2 -7 2 -7 2 -8 2 -7 3 -8 
2 -7 2 -7 2 -8 2 -8 2 -7 3 -8 2 -7 2 -8 
2 -8 2 -7 2 -8 3 -8 2 -7 2 -8 2 -8 2 -8 
2 -7 3 -8 2 -8 2 -8 2 -8 2 -8 2 -7 3 -8 
2 -8 2 -8 2 -8 2 -8 2 -8 3 -8 2 -8 2 -8 
2 -8 2 -8 2 -8 3 -8 2 -8 2 -8 2 -8 2 -8 
2 -8 3 -8 2 -8 2 -8 2 -8 2 -9 3 -8 2 -8 
2 -8 2 -8 2 -8 2 -8 3 -8 2 -8 2 -8 2 -8 
2 -8 2 -8 3 -9 2 -8 2 -8 2 -8 2 -8 2 -8 
3 -8 2 -8 2 -8 2 -8 2 -8 2 -8 3 -8 2 -8 
2 -8 2 -8 2 -8 2 -8 3 -7 2 -8 2 -8 2 -8 
2 -8 2 -8 3 -8 2 -7 2 -8 2 -8 2 -8 2 -7 
3 -8 2 -8 2 -8 2 -7 2 -8 2 -7 3 -8 2 -8 
2 -7 2 -8 2 -7 2 -7 3 -8 2 -7 2 -8 2 -7 
2 -7 2 -8 3 -7 2 -7 2 -7 2 -8 2 -7 2 -7 
3 -7 2 -7 2 -7 8771 3306 300 MP stroke
2 -7 2 -7 2 -7 3 -7 2 -6 2 -7 2 -7 2 -7 
2 -6 3 -7 2 -7 2 -6 2 -7 2 -6 2 -7 3 -6 
2 -7 2 -6 2 -6 2 -6 3 -7 2 -6 2 -6 2 -6 
2 -6 2 -6 3 -6 2 -6 2 -6 2 -6 2 -5 2 -6 
3 -6 2 -5 2 -6 2 -5 2 -6 2 -5 3 -6 2 -5 
2 -5 2 -5 2 -6 2 -5 3 -5 2 -5 2 -5 2 -5 
2 -5 2 -4 3 -5 2 -5 2 -4 2 -5 2 -5 2 -4 
3 -4 2 -5 2 -4 2 -4 2 -5 2 -4 3 -4 2 -4 
2 -4 2 -4 2 -4 2 -4 3 -3 2 -4 2 -4 2 -3 
2 -4 2 -3 3 -4 2 -3 2 -3 2 -4 2 -3 2 -3 
3 -3 2 -3 2 -3 2 -3 2 -3 2 -3 3 -2 2 -3 
2 -3 2 -2 2 -3 2 -2 3 -3 2 -2 2 -2 2 -3 
2 -2 2 -2 3 -2 2 -2 2 -2 2 -2 2 -2 3 -2 
2 -1 2 -2 2 -2 2 -1 2 -2 3 -2 2 -1 2 -1 
2 -2 2 -1 2 -1 3 -1 2 -2 2 -1 2 -1 2 -1 
2 -1 3 -1 2 0 2 -1 2 -1 2 -1 2 0 3 -1 
2 -1 2 0 2 -1 2 0 2 -1 3 0 2 0 2 -1 
2 0 2 0 2 0 3 0 2 0 2 -1 2 0 2 0 
2 1 3 0 2 0 2 0 2 0 2 0 2 1 3 0 
2 0 2 0 2 1 2 0 2 1 3 0 2 1 2 0 
2 1 2 0 2 1 3 0 2 1 2 1 2 0 2 1 
2 1 3 0 2 1 2 1 2 1 2 1 2 0 3 1 
2 1 2 1 2 1 2 1 2 1 3 0 2 1 2 1 
2 1 2 1 2 1 3 1 2 1 2 1 2 1 2 1 
3 1 2 1 2 1 2 1 2 1 2 1 3 1 2 1 
2 1 2 1 2 1 2 1 3 0 2 1 2 1 2 1 
2 1 2 1 3 1 2 1 2 1 2 1 2 0 2 1 
3 1 2 1 2 1 2 0 2 1 2 1 3 1 2 0 
2 1 2 1 2 0 2 1 3 0 2 1 2 0 2 1 
2 0 2 1 3 0 2 1 2 0 2 0 2 1 2 0 
3 0 2 0 2 1 2 0 2 0 2 0 3 0 2 0 
2 0 2 0 2 0 2 0 3 -1 2 0 2 0 2 0 
2 -1 2 0 3 -1 2 0 2 -1 2 0 2 -1 2 0 
3 -1 2 -1 2 -1 2 0 2 -1 2 -1 3 -1 2 -1 
2 -1 2 -1 2 -2 3 -1 2 -1 2 -1 2 -2 2 -1 
2 -2 3 -1 2 -2 2 -1 2 -2 2 -2 2 -2 3 -2 
2 -2 2 -2 2 -2 2 -2 2 -2 3 -2 2 -2 2 -3 
2 -2 2 -3 2 -2 8123 3807 300 MP stroke
3 -3 2 -2 2 -3 2 -3 2 -3 2 -2 3 -3 2 -3 
2 -3 2 -4 2 -3 2 -3 3 -3 2 -4 2 -3 2 -4 
2 -3 2 -4 3 -4 2 -3 2 -4 2 -4 2 -4 2 -4 
3 -4 2 -4 2 -5 2 -4 2 -4 2 -5 3 -4 2 -5 
2 -5 2 -4 2 -5 2 -5 3 -5 2 -5 2 -5 2 -5 
2 -5 2 -5 3 -5 2 -6 2 -5 2 -6 2 -5 2 -6 
3 -6 2 -5 2 -6 2 -6 2 -6 2 -6 3 -6 2 -6 
2 -7 2 -6 2 -6 2 -7 3 -6 2 -6 2 -7 2 -7 
2 -6 3 -7 2 -7 2 -7 2 -7 2 -7 2 -7 3 -7 
2 -7 2 -7 2 -8 2 -7 2 -8 3 -7 2 -7 2 -8 
2 -8 2 -7 2 -8 3 -8 2 -8 2 -8 2 -7 2 -8 
2 -8 3 -9 2 -8 2 -8 2 -8 2 -8 2 -8 3 -9 
2 -8 2 -9 2 -8 2 -8 2 -9 3 -8 2 -9 2 -9 
2 -8 2 -9 2 -9 3 -8 2 -9 2 -9 2 -9 2 -8 
2 -9 3 -9 2 -9 2 -9 2 -9 2 -9 2 -9 3 -8 
2 -9 2 -9 2 -9 2 -9 2 -9 3 -9 2 -9 2 -9 
2 -9 2 -9 2 -9 3 -8 2 -9 2 -9 2 -9 2 -9 
2 -9 3 -8 2 -9 2 -9 2 -9 2 -8 2 -9 3 -8 
2 -9 2 -8 2 -9 2 -8 3 -8 2 -9 2 -8 2 -8 
2 -8 2 -8 3 -8 2 -8 2 -8 2 -8 2 -8 2 -7 
3 -8 2 -7 2 -8 2 -7 2 -7 2 -7 3 -7 2 -7 
2 -7 2 -7 2 -6 2 -7 3 -6 2 -7 2 -6 2 -6 
2 -6 2 -6 3 -5 2 -6 2 -6 2 -5 2 -5 2 -5 
3 -5 2 -5 2 -4 2 -5 2 -4 2 -5 3 -4 2 -4 
2 -3 2 -4 2 -3 2 -4 3 -3 2 -3 2 -3 2 -2 
2 -3 2 -2 3 -2 2 -2 2 -2 2 -2 2 -1 2 -1 
3 -2 2 -1 2 0 2 -1 2 0 2 -1 3 0 2 0 
2 1 2 0 2 1 2 1 3 1 2 1 2 1 2 2 
2 1 2 2 3 2 2 2 2 3 2 2 2 3 2 3 
3 3 2 3 2 4 2 3 2 4 3 4 2 4 2 4 
2 4 2 5 2 5 3 5 2 5 2 5 2 5 2 6 
2 5 3 6 2 6 2 6 2 6 2 6 2 7 3 6 
2 7 2 7 2 7 2 7 2 7 3 8 2 7 2 8 
2 8 2 7 2 8 3 8 2 9 2 8 2 8 2 9 
2 8 3 9 2 8 2 9 2 9 2 9 2 9 3 9 
2 10 2 9 2 9 2 10 2 9 3 10 2 9 2 10 
2 10 2 10 2 10 3 10 2 10 2 10 2 10 2 10 
2 10 3 10 2 10 7474 4607 300 MP stroke
2 11 2 10 2 10 2 11 3 10 2 11 2 10 2 11 
2 10 2 11 3 10 2 11 2 11 2 10 2 11 2 10 
3 11 2 11 2 10 2 11 2 11 3 11 2 10 2 11 
2 11 2 10 2 11 3 11 2 10 2 11 2 11 2 10 
2 11 3 11 2 10 2 11 2 10 2 11 2 11 3 10 
2 11 2 10 2 11 2 10 2 11 3 10 2 10 2 11 
2 10 2 10 2 11 3 10 2 10 2 10 2 11 2 10 
2 10 3 10 2 10 2 10 2 10 2 10 2 10 3 10 
2 10 2 10 2 9 2 10 2 10 3 10 2 9 2 10 
2 9 2 10 2 9 3 10 2 9 2 10 2 9 2 9 
2 10 3 9 2 9 2 9 2 9 2 9 2 9 3 9 
2 9 2 9 2 9 2 9 2 9 3 8 2 9 2 9 
2 8 2 9 2 8 3 9 2 8 2 9 2 8 2 8 
2 9 3 8 2 8 2 8 2 8 2 8 3 8 2 8 
2 8 2 8 2 8 2 8 3 8 2 7 2 8 2 8 
2 7 2 8 3 7 2 8 2 7 2 8 2 7 2 7 
3 8 2 7 2 7 2 7 2 7 2 7 3 7 2 7 
2 7 2 7 2 7 2 7 3 7 2 6 2 7 2 7 
2 6 2 7 3 7 2 6 2 7 2 6 2 6 2 7 
3 6 2 6 2 7 2 6 2 6 2 6 3 6 2 6 
2 6 2 6 2 6 2 6 3 6 2 6 2 6 2 6 
2 6 2 5 3 6 2 6 2 5 2 6 2 6 2 5 
3 6 2 5 2 6 2 5 2 6 2 5 3 5 2 6 
2 5 2 5 2 5 2 6 3 5 2 5 2 5 2 5 
2 5 2 5 3 5 2 5 2 5 2 5 2 5 3 5 
2 5 2 5 2 4 2 5 2 5 3 5 2 4 2 5 
2 5 2 4 2 5 3 5 2 4 2 5 2 4 2 5 
2 4 3 5 2 4 2 5 2 4 2 4 2 5 3 4 
2 4 2 5 2 4 2 4 2 5 3 4 2 4 2 4 
2 4 2 4 2 5 3 4 2 4 2 4 2 4 2 4 
2 4 3 4 2 4 2 4 2 4 2 4 2 4 3 4 
2 4 2 4 2 4 2 3 2 4 3 4 2 4 2 4 
2 4 2 3 2 4 3 4 2 4 2 3 2 4 2 4 
2 3 3 4 2 4 2 3 2 4 2 4 2 3 3 4 
2 4 2 3 2 4 2 3 2 4 3 3 2 4 2 3 
2 4 2 4 3 3 2 3 2 4 2 3 2 4 2 3 
3 4 2 3 2 4 2 3 2 3 2 4 3 3 2 4 
2 3 2 3 2 4 6826 2562 300 MP stroke
2 3 3 3 2 4 2 3 2 3 2 4 2 3 3 3 
2 3 2 4 2 3 2 3 2 3 3 4 2 3 2 3 
2 3 2 3 2 4 3 3 2 3 2 3 2 3 2 3 
2 3 3 4 2 3 2 3 2 3 2 3 2 3 3 3 
2 3 2 3 2 3 2 3 2 3 3 4 2 3 2 3 
2 3 2 3 2 3 3 2 2 3 2 3 2 3 2 3 
2 3 3 3 2 3 2 3 2 3 2 3 2 3 3 2 
2 3 2 3 2 3 2 3 2 3 3 2 2 3 2 3 
2 3 2 3 2 2 3 3 2 3 2 2 2 3 2 3 
3 3 2 2 2 3 2 3 2 2 2 3 3 2 2 3 
2 3 2 2 2 3 2 2 3 3 2 2 2 3 2 2 
2 3 2 2 3 3 2 2 2 2 2 3 2 2 2 3 
3 2 2 2 2 3 2 2 2 2 2 3 3 2 2 2 
2 2 2 2 2 3 2 2 3 2 2 2 2 2 2 2 
2 2 2 2 3 2 2 2 2 2 2 2 2 2 2 2 
3 2 2 2 2 2 2 2 2 2 2 1 3 2 2 2 
2 2 2 1 2 2 2 2 3 1 2 2 2 2 2 1 
2 2 2 1 3 2 2 1 2 1 2 2 2 1 2 2 
3 1 2 1 2 1 2 2 2 1 2 1 3 1 2 1 
2 1 2 1 2 1 3 1 2 1 2 1 2 1 2 1 
2 1 3 1 2 1 2 0 2 1 2 1 2 0 3 1 
2 0 2 1 2 0 2 1 2 0 3 1 2 0 2 0 
2 0 2 1 2 0 3 0 2 0 2 0 2 0 2 0 
2 0 3 0 2 0 2 0 2 -1 2 0 2 0 3 -1 
2 0 2 0 2 -1 2 0 2 -1 3 -1 2 0 2 -1 
2 -1 2 -1 2 -1 3 0 2 -1 2 -1 2 -2 2 -1 
2 -1 3 -1 2 -1 2 -2 2 -1 2 -1 2 -2 3 -2 
2 -1 2 -2 2 -1 2 -2 2 -2 3 -2 2 -2 2 -2 
2 -2 2 -2 2 -2 3 -2 2 -3 2 -2 2 -2 2 -3 
2 -2 3 -3 2 -3 2 -2 2 -3 2 -3 2 -3 3 -3 
2 -3 2 -3 2 -3 2 -3 3 -3 2 -4 2 -3 2 -4 
2 -3 2 -4 3 -4 2 -3 2 -4 2 -4 2 -4 2 -4 
3 -4 2 -4 2 -5 2 -4 2 -4 2 -5 3 -4 2 -5 
2 -5 2 -5 2 -4 2 -5 3 -5 2 -5 2 -6 2 -5 
2 -5 2 -6 3 -5 2 -6 2 -5 2 -6 2 -6 2 -6 
3 -6 2 -6 2 -6 2 -6 2 -7 2 -6 3 -7 2 -6 
2 -7 2 -7 2 -6 2 -7 3 -7 2 -7 2 -8 2 -7 
2 -7 2 -8 3 -7 6177 2548 300 MP stroke
2 -8 2 -8 2 -8 2 -8 2 -8 3 -8 2 -8 2 -8 
2 -9 2 -8 2 -9 3 -9 2 -8 2 -9 2 -9 2 -10 
2 -9 3 -9 2 -9 2 -10 2 -10 2 -9 2 -10 3 -10 
2 -10 2 -10 2 -11 2 -10 3 -10 2 -11 2 -11 2 -10 
2 -11 2 -11 3 -11 2 -12 2 -11 2 -11 2 -12 2 -12 
3 -11 2 -12 2 -12 2 -13 2 -12 2 -12 3 -13 2 -12 
2 -13 2 -13 2 -13 2 -13 3 -13 2 -13 2 -13 2 -14 
2 -14 2 -13 3 -14 2 -14 2 -14 2 -15 2 -14 2 -14 
3 -15 2 -15 2 -15 2 -15 2 -15 2 -15 3 -15 2 -16 
2 -15 2 -16 2 -16 2 -16 3 -16 2 -16 2 -16 2 -17 
2 -16 2 -17 3 -17 2 -17 2 -17 2 -17 2 -17 2 -18 
3 -17 2 -18 2 -18 2 -18 2 -18 2 -18 3 -18 2 -19 
2 -18 2 -19 2 -19 2 -19 3 -19 2 -19 2 -19 2 -20 
2 -19 2 -20 3 -19 2 -20 2 -20 2 -20 2 -21 2 -20 
3 -20 2 -21 2 -20 2 -21 2 -21 3 -21 2 -21 2 -21 
2 -21 2 -22 2 -21 3 -21 2 -22 2 -22 2 -21 2 -22 
2 -22 3 -22 2 -22 2 -22 2 -23 2 -22 2 -22 3 -23 
2 -22 2 -23 2 -22 2 -23 2 -22 3 -23 2 -23 2 -22 
2 -23 2 -23 2 -23 3 -22 2 -23 2 -23 2 -23 2 -22 
2 -23 3 -23 2 -22 2 -23 2 -22 2 -23 2 -22 3 -22 
2 -22 2 -22 2 -22 2 -22 2 -22 3 -22 2 -21 2 -21 
2 -21 2 -21 2 -21 3 -21 2 -20 2 -20 2 -20 2 -20 
2 -19 3 -19 2 -19 2 -19 2 -18 2 -18 2 -18 3 -17 
2 -17 2 -16 2 -17 2 -15 2 -16 3 -15 2 -14 2 -14 
2 -14 2 -13 2 -13 3 -12 2 -11 2 -11 2 -11 2 -10 
3 -10 2 -8 2 -9 2 -8 2 -7 2 -6 3 -6 2 -6 
2 -4 2 -5 2 -3 2 -3 3 -2 2 -2 2 -1 2 0 
2 0 2 1 3 2 2 2 2 3 2 3 2 4 2 5 
3 5 2 6 2 7 2 7 2 7 2 9 3 9 2 9 
2 10 2 10 2 11 2 12 3 12 2 12 2 13 2 14 
2 14 2 14 3 15 2 15 2 16 2 15 2 17 2 17 
3 17 2 17 2 18 2 18 2 18 2 18 3 19 2 19 
2 20 2 19 2 20 2 20 3 20 2 21 2 20 2 21 
2 21 2 21 3 21 2 21 2 22 2 21 2 22 2 21 
3 22 2 22 2 22 2 22 2 22 2 22 3 22 2 22 
2 22 2 22 2 22 2 22 3 22 2 22 2 22 2 22 
2 22 3 22 2 22 2 22 2 22 2 21 2 22 3 22 
2 21 2 22 2 21 5529 4567 300 MP stroke
2 21 2 21 3 22 2 21 2 21 2 20 2 21 2 21 
3 20 2 21 2 20 2 20 2 20 2 20 3 20 2 20 
2 20 2 19 2 20 2 19 3 19 2 19 2 19 2 19 
2 18 2 19 3 18 2 18 2 18 2 18 2 18 2 18 
3 17 2 18 2 17 2 17 2 17 2 17 3 17 2 16 
2 17 2 16 2 16 2 16 3 16 2 16 2 15 2 16 
2 15 2 15 3 15 2 15 2 15 2 14 2 14 2 15 
3 14 2 14 2 14 2 13 2 14 2 13 3 13 2 13 
2 13 2 13 2 13 2 12 3 13 2 12 2 12 2 12 
2 11 3 12 2 12 2 11 2 11 2 11 2 11 3 11 
2 10 2 11 2 10 2 10 2 11 3 9 2 10 2 10 
2 9 2 10 2 9 3 9 2 9 2 9 2 9 2 8 
2 9 3 8 2 8 2 8 2 8 2 8 2 7 3 8 
2 7 2 7 2 7 2 7 2 7 3 7 2 6 2 7 
2 6 2 6 2 6 3 6 2 6 2 5 2 6 2 5 
2 5 3 6 2 5 2 5 2 4 2 5 2 4 3 5 
2 4 2 4 2 4 2 4 2 4 3 4 2 3 2 4 
2 3 2 3 2 3 3 3 2 3 2 3 2 2 2 3 
2 2 3 2 2 3 2 2 2 1 2 2 2 2 3 2 
2 1 2 1 2 2 2 1 2 1 3 1 2 1 2 0 
2 1 2 1 3 0 2 0 2 0 2 1 2 0 2 -1 
3 0 2 0 2 0 2 -1 2 -1 2 0 3 -1 2 -1 
2 -1 2 -1 2 -1 2 -2 3 -1 2 -1 2 -2 2 -2 
2 -2 2 -1 3 -2 2 -2 2 -2 2 -3 2 -2 2 -2 
3 -3 2 -2 2 -3 2 -3 2 -3 2 -3 3 -3 2 -3 
2 -3 2 -3 2 -4 2 -3 3 -3 2 -4 2 -4 2 -3 
2 -4 2 -4 3 -4 2 -4 2 -4 2 -4 2 -5 2 -4 
3 -4 2 -5 2 -4 2 -5 2 -5 2 -5 3 -4 2 -5 
2 -5 2 -5 2 -5 2 -5 3 -6 2 -5 2 -5 2 -6 
2 -5 2 -6 3 -5 2 -6 2 -6 2 -5 2 -6 2 -6 
3 -6 2 -6 2 -6 2 -6 2 -6 3 -7 2 -6 2 -6 
2 -6 2 -7 2 -6 3 -7 2 -6 2 -7 2 -6 2 -7 
2 -7 3 -6 2 -7 2 -7 2 -7 2 -7 2 -7 3 -7 
2 -7 2 -7 2 -7 2 -7 2 -7 3 -7 2 -7 2 -7 
2 -7 2 -8 2 -7 3 -7 2 -8 2 -7 2 -7 2 -8 
2 -7 3 -7 2 -8 2 -7 2 -8 2 -7 2 -7 3 -8 
2 -7 2 -8 2 -7 2 -8 2 -7 3 -8 2 -7 2 -8 
2 -7 2 -8 2 -7 4881 3472 300 MP stroke
3 -8 2 -7 2 -8 2 -7 2 -8 2 -7 3 -8 2 -7 
2 -7 2 -8 2 -7 2 -8 3 -7 2 -7 2 -7 2 -8 
2 -7 2 -7 3 -7 2 -8 2 -7 2 -7 2 -7 2 -7 
3 -7 2 -7 2 -7 2 -7 2 -7 2 -6 3 -7 2 -7 
2 -7 2 -6 2 -7 3 -6 2 -7 2 -6 2 -7 2 -6 
2 -6 3 -6 2 -7 2 -6 2 -6 2 -6 2 -6 3 -5 
2 -6 2 -6 2 -6 2 -5 2 -6 3 -5 2 -5 2 -6 
2 -5 2 -5 2 -5 3 -5 2 -5 2 -5 2 -5 2 -4 
2 -5 3 -4 2 -5 2 -4 2 -4 2 -4 2 -4 3 -4 
2 -4 2 -4 2 -4 2 -3 2 -4 3 -3 2 -3 2 -3 
2 -3 2 -3 2 -3 3 -3 2 -3 2 -2 2 -3 2 -2 
2 -2 3 -2 2 -2 2 -2 2 -2 2 -2 2 -1 3 -2 
2 -1 2 -1 2 -1 2 -1 2 -1 3 -1 2 -1 2 0 
2 -1 2 0 2 0 3 0 2 0 2 0 2 0 2 1 
2 0 3 1 2 1 2 1 2 1 2 1 3 1 2 1 
2 2 2 1 2 2 2 2 3 2 2 2 2 2 2 2 
2 2 2 3 3 2 2 3 2 3 2 3 2 3 2 3 
3 4 2 3 2 3 2 4 2 4 2 4 3 4 2 4 
2 4 2 4 2 4 2 5 3 5 2 4 2 5 2 5 
2 5 2 5 3 5 2 6 2 5 2 6 2 5 2 6 
3 6 2 6 2 6 2 6 2 6 2 6 3 7 2 6 
2 7 2 6 2 7 2 7 3 7 2 7 2 7 2 7 
2 7 2 7 3 8 2 7 2 8 2 7 2 8 2 8 
3 7 2 8 2 8 2 8 2 8 2 8 3 8 2 9 
2 8 2 8 2 9 2 8 3 9 2 8 2 9 2 9 
2 8 2 9 3 9 2 9 2 9 2 9 2 9 3 9 
2 9 2 9 2 9 2 10 2 9 3 9 2 10 2 9 
2 9 2 10 2 9 3 10 2 9 2 10 2 9 2 10 
2 10 3 9 2 10 2 10 2 9 2 10 2 10 3 10 
2 9 2 10 2 10 2 10 2 10 3 9 2 10 2 10 
2 10 2 10 2 10 3 10 2 10 2 9 2 10 2 10 
2 10 3 10 2 10 2 10 2 10 2 10 2 9 3 10 
2 10 2 10 2 10 2 10 2 9 3 10 2 10 2 10 
2 9 2 10 2 10 3 10 2 9 2 10 2 10 2 9 
2 10 3 9 2 10 2 9 2 10 2 9 2 10 3 9 
2 10 2 9 2 9 2 10 2 9 3 9 2 9 2 10 
2 9 2 9 2 9 3 9 2 9 2 9 2 9 2 9 
3 8 2 9 2 9 4232 2604 300 MP stroke
2 9 2 8 2 9 3 9 2 8 2 9 2 8 2 8 
2 9 3 8 2 8 2 9 2 8 2 8 2 8 3 8 
2 8 2 8 2 8 2 7 2 8 3 8 2 8 2 7 
2 8 2 7 2 7 3 8 2 7 2 7 2 7 2 8 
2 7 3 7 2 7 2 6 2 7 2 7 2 7 3 6 
2 7 2 6 2 6 2 7 2 6 3 6 2 6 2 6 
2 6 2 6 2 6 3 6 2 5 2 6 2 6 2 5 
2 5 3 6 2 5 2 5 2 5 2 5 2 5 3 5 
2 5 2 4 2 5 2 5 2 4 3 4 2 5 2 4 
2 4 2 4 2 4 3 4 2 4 2 3 2 4 2 3 
3 4 2 3 2 3 2 4 2 3 2 3 3 3 2 2 
2 3 2 3 2 2 2 3 3 2 2 2 2 2 2 3 
2 2 2 1 3 2 2 2 2 1 2 2 2 1 2 2 
3 1 2 1 2 1 2 1 2 1 2 0 3 1 2 0 
2 1 2 0 2 0 2 0 3 0 2 0 2 0 2 -1 
2 0 2 -1 3 0 2 -1 2 -1 2 -1 2 -1 2 -2 
3 -1 2 -1 2 -2 2 -2 2 -1 2 -2 3 -2 2 -3 
2 -2 2 -2 2 -3 2 -2 3 -3 2 -3 2 -3 2 -3 
2 -3 2 -4 3 -3 2 -4 2 -3 2 -4 2 -4 2 -4 
3 -4 2 -5 2 -4 2 -5 2 -4 2 -5 3 -5 2 -5 
2 -6 2 -5 2 -5 2 -6 3 -6 2 -6 2 -6 2 -6 
2 -6 3 -7 2 -6 2 -7 2 -7 2 -7 2 -7 3 -7 
2 -7 2 -8 2 -8 2 -7 2 -8 3 -9 2 -8 2 -8 
2 -9 2 -8 2 -9 3 -9 2 -9 2 -10 2 -9 2 -10 
2 -9 3 -10 2 -10 2 -10 2 -11 2 -10 2 -11 3 -11 
2 -10 2 -12 2 -11 2 -11 2 -12 3 -12 2 -11 2 -13 
2 -12 2 -12 2 -13 3 -12 2 -13 2 -13 2 -13 2 -14 
2 -13 3 -14 2 -14 2 -14 2 -14 2 -15 2 -14 3 -15 
2 -15 2 -15 2 -15 2 -16 2 -15 3 -16 2 -16 2 -16 
2 -16 2 -17 2 -17 3 -17 2 -17 2 -17 2 -17 2 -18 
2 -18 3 -18 2 -18 2 -18 2 -19 2 -18 2 -19 3 -20 
2 -19 2 -19 2 -20 2 -20 3 -20 2 -20 2 -21 2 -20 
2 -21 2 -21 3 -22 2 -21 2 -22 2 -22 2 -22 2 -22 
3 -23 2 -22 2 -23 2 -23 2 -23 2 -24 3 -24 2 -24 
2 -24 2 -24 2 -24 2 -25 3 -25 2 -25 2 -26 2 -25 
2 -26 2 -26 3 -26 2 -26 2 -27 2 -27 2 -27 2 -27 
3 -27 2 -28 2 -28 2 -28 2 -28 2 -28 3 -29 2 -28 
2 -29 2 -29 2 -30 3584 4409 300 MP stroke
2 -29 3 -30 2 -30 2 -30 2 -30 2 -31 2 -30 3 -31 
2 -31 2 -31 2 -31 2 -31 2 -32 3 -31 2 -32 2 -32 
2 -32 2 -32 2 -32 3 -33 2 -32 2 -33 2 -32 2 -33 
2 -32 3 -33 2 -33 2 -33 2 -32 2 -33 2 -33 3 -33 
2 -32 2 -33 2 -32 2 -33 2 -32 3 -32 2 -32 2 -32 
2 -31 2 -32 3 -31 2 -31 2 -30 2 -30 2 -30 2 -30 
3 -29 2 -28 2 -28 2 -28 2 -27 2 -26 3 -26 2 -25 
2 -25 2 -24 2 -23 2 -22 3 -22 2 -20 2 -20 2 -19 
2 -17 2 -17 3 -16 2 -15 2 -13 2 -13 2 -11 2 -11 
3 -9 2 -8 2 -6 2 -6 2 -4 2 -3 3 -1 2 -1 
2 1 2 2 2 4 2 5 3 6 2 7 2 8 2 10 
2 11 2 11 3 14 2 14 2 15 2 16 2 17 2 19 
3 19 2 20 2 21 2 22 2 22 2 24 3 24 2 25 
2 25 2 27 2 26 2 28 3 28 2 28 2 29 2 29 
2 30 2 30 3 30 2 31 2 31 2 31 2 32 2 32 
3 31 2 33 2 32 2 32 2 33 3 33 2 32 2 33 
2 33 2 33 2 33 3 33 2 33 2 32 2 33 2 33 
2 33 3 33 2 32 2 33 2 32 2 33 2 32 3 32 
2 32 2 32 2 32 2 31 2 32 3 31 2 32 2 31 
2 30 2 31 2 31 3 30 2 30 2 31 2 29 2 30 
2 30 3 29 2 29 2 29 2 29 2 29 2 28 3 28 
2 28 2 28 2 28 2 27 2 27 3 27 2 27 2 27 
2 26 2 27 2 26 3 26 2 25 2 26 2 25 2 25 
2 25 3 25 2 24 2 24 2 24 2 24 2 24 3 23 
2 24 2 23 2 23 2 22 2 23 3 22 2 22 2 22 
2 22 2 22 2 21 3 21 2 21 2 21 2 20 2 21 
2 20 3 20 2 20 2 20 2 19 2 20 3 19 2 19 
2 18 2 19 2 18 2 19 3 18 2 18 2 17 2 18 
2 17 2 17 3 17 2 17 2 17 2 16 2 17 2 16 
3 16 2 16 2 15 2 16 2 15 2 15 3 15 2 15 
2 15 2 14 2 15 2 14 3 14 2 14 2 14 2 13 
2 14 2 13 3 13 2 13 2 13 2 12 2 13 2 12 
3 12 2 12 2 12 2 12 2 12 2 11 3 11 2 12 
2 11 2 11 2 10 2 11 3 10 2 11 2 10 2 10 
2 10 2 10 3 10 2 9 2 10 2 9 2 9 2 9 
3 9 2 9 2 8 2 9 2 8 2 8 3 8 2 8 
2 8 2 8 2 8 2 7 3 7 2 8 2 7 2 7 
2 7 3 6 2 7 2935 2012 300 MP stroke
2 7 2 6 2 6 2 6 3 6 2 6 2 6 2 6 
2 6 2 5 3 5 2 6 2 5 2 5 2 5 2 4 
3 5 2 5 2 4 2 5 2 4 2 4 3 4 2 4 
2 4 2 4 2 3 2 4 3 3 2 4 2 3 2 3 
2 3 2 3 3 3 2 2 2 3 2 3 2 2 2 2 
3 3 2 2 2 2 2 2 2 2 2 1 3 2 2 2 
2 1 2 2 2 1 2 1 3 1 2 1 2 1 2 1 
2 1 2 1 3 0 2 1 2 0 2 0 2 1 2 0 
3 0 2 0 2 0 2 0 2 0 2 -1 3 0 2 -1 
2 0 2 -1 2 0 2 -1 3 -1 2 -1 2 -1 2 -1 
2 -1 2 -2 3 -1 2 -1 2 -2 2 -1 2 -2 3 -2 
2 -1 2 -2 2 -2 2 -2 2 -2 3 -2 2 -3 2 -2 
2 -2 2 -3 2 -2 3 -3 2 -2 2 -3 2 -3 2 -2 
2 -3 3 -3 2 -3 2 -3 2 -3 2 -4 2 -3 3 -3 
2 -3 2 -4 2 -3 2 -4 2 -4 3 -3 2 -4 2 -4 
2 -4 2 -4 2 -4 3 -4 2 -4 2 -4 2 -4 2 -4 
2 -5 3 -4 2 -4 2 -5 2 -4 2 -5 2 -5 3 -4 
2 -5 2 -5 2 -5 2 -4 2 -5 3 -5 2 -5 2 -5 
2 -6 2 -5 2 -5 3 -5 2 -6 2 -5 2 -5 2 -6 
2 -5 3 -6 2 -5 2 -6 2 -6 2 -5 2 -6 3 -6 
2 -6 2 -6 2 -5 2 -6 2 -6 3 -6 2 -7 2 -6 
2 -6 2 -6 3 -6 2 -6 2 -7 2 -6 2 -6 2 -7 
3 -6 2 -7 2 -6 2 -7 2 -6 2 -7 3 -7 2 -6 
2 -7 2 -7 2 -6 2 -7 3 -7 2 -7 2 -7 2 -7 
2 -7 2 -6 3 -7 2 -7 2 -8 2 -7 2 -7 2 -7 
3 -7 2 -7 2 -7 2 -7 2 -8 2 -7 3 -7 2 -7 
2 -8 2 -7 2 -7 2 -8 3 -7 2 -8 2 -7 2 -7 
2 -8 2 -7 3 -8 2 -7 2 -8 2 -7 2 -8 2 -8 
3 -7 2 -8 2 -7 2 -8 2 -8 2 -7 3 -8 2 -8 
2 -7 2 -8 2 -8 2 -7 3 -8 2 -8 2 -7 2 -8 
2 -8 2 -8 3 -7 2 -8 2 -8 2 -8 2 -7 2 -8 
3 -8 2 -8 2 -7 2 -8 2 -8 2 -8 3 -8 2 -7 
2 -8 2 -8 2 -8 3 -7 2 -8 2 -8 2 -8 2 -8 
2 -7 3 -8 2 -8 2 -8 2 -7 2 -8 2 -8 3 -7 
2 -8 2 -8 2 -7 2 -8 2 -8 3 -7 2 -8 2 -8 
2 -7 2 -8 2 -8 3 -7 2 -8 2 -7 2 -8 2 -7 
2 -8 3 -7 2 -8 2 -7 2 -8 2 -7 2 -8 3 -7 
2 -7 2 -8 2 -7 2287 3126 300 MP stroke
2 -7 2 -8 3 -7 2 -7 2 -7 2 -7 2 -8 2 -7 
3 -7 2 -7 2 -7 2 -7 2 -7 2 -7 3 -7 2 -7 
2 -7 2 -7 2 -7 2 -7 3 -6 2 -7 2 -7 2 -7 
2 -6 2 -7 3 -7 2 -6 2 -7 2 -6 2 -7 2 -6 
3 -7 2 -6 2 -6 2 -7 2 -6 2 -6 3 -6 2 -7 
2 -6 2 -6 2 -6 3 -6 2 -6 2 -6 2 -6 2 -6 
2 -6 3 -5 2 -6 2 -6 2 -5 2 -6 2 -6 3 -5 
2 -6 2 -5 2 -6 2 -5 2 -5 3 -6 2 -5 2 -5 
2 -5 2 -5 2 -6 3 -5 2 -5 2 -4 2 -5 2 -5 
2 -5 3 -5 2 -5 2 -4 2 -5 2 -4 2 -5 3 -4 
2 -5 2 -4 2 -5 2 -4 2 -4 3 -4 2 -4 2 -5 
2 -4 2 -4 2 -4 3 -4 2 -3 2 -4 2 -4 2 -4 
2 -3 3 -4 2 -4 2 -3 2 -4 2 -3 2 -3 3 -4 
2 -3 2 -3 2 -4 2 -3 2 -3 3 -3 2 -3 2 -3 
2 -3 2 -3 2 -2 3 -3 2 -3 2 -3 2 -2 2 -3 
2 -2 3 -3 2 -2 2 -3 2 -2 2 -2 2 -3 3 -2 
2 -2 2 -2 2 -2 2 -2 3 -2 2 -2 2 -2 2 -2 
2 -2 2 -2 3 -1 2 -2 2 -2 2 -1 2 -2 2 -2 
3 -1 2 -2 2 -1 2 -1 2 -2 2 -1 3 -1 2 -2 
2 -1 2 -1 2 -1 2 -1 3 -1 2 -1 2 -1 2 -1 
2 -1 2 -1 3 -1 2 -1 2 -1 2 -1 2 0 2 -1 
3 -1 2 0 2 -1 2 -1 2 0 2 -1 3 0 2 -1 
2 0 2 -1 2 0 2 -1 3 0 2 0 2 -1 2 0 
2 0 2 -1 3 0 2 0 2 0 2 -1 2 0 2 0 
3 0 2 0 2 -1 2 0 2 0 2 0 3 0 2 0 
2 0 2 0 2 0 2 0 3 0 2 0 2 0 2 0 
2 0 2 0 3 0 2 0 2 0 2 0 2 0 2 -1 
1819 3839 217 MP stroke
/c10 { 1.000000 0.000000 0.000000 sr} bdef
c10
3 -8 2 -8 2 -9 2 -8 2 -9 3 -8 2 -9 2 -8 
2 -9 2 -9 2 -8 3 -9 2 -9 2 -9 2 -8 2 -9 
2 -9 3 -9 2 -9 2 -9 2 -9 2 -9 2 -9 3 -9 
2 -9 2 -10 2 -9 2 -9 2 -9 3 -10 2 -9 2 -9 
2 -10 2 -9 2 -10 3 -9 2 -9 2 -10 2 -10 2 -9 
2 -10 3 -9 2 -10 2 -10 2 -9 2 -10 2 -10 3 -10 
2 -9 2 -10 2 -10 2 -10 2 -10 3 -10 2 -9 2 -10 
2 -10 2 -10 2 -10 3 -10 2 -10 2 -10 2 -10 2 -10 
2 -10 3 -10 2 -10 2 -10 2 -10 2 -10 2 -10 3 -10 
2 -10 2 -11 2 -10 2 -10 2 -10 3 -10 2 -10 2 -10 
2 -10 2 -10 2 -10 3 -10 2 -10 2 -10 2 -10 2 -10 
3 -10 2 -9 2 -10 2 -10 2 -10 2 -10 3 -10 2 -9 
2 -10 2 -10 2 -9 2 -10 3 -10 2 -9 2 -10 2 -9 
2 -9 2 -10 3 -9 2 -9 2 -10 2 -9 2 -9 2 -9 
3 -9 2 -9 2 -9 2 -9 2 -8 2 -9 3 -9 2 -8 
2 -9 2 -8 2 -9 2 -8 3 -8 2 -8 2 -8 2 -8 
2 -8 2 -8 3 -7 2 -8 2 -7 2 -8 2 -7 2 -7 
3 -7 2 -7 2 -7 2 -7 2 -7 2 -6 3 -6 2 -7 
2 -6 2 -6 2 -6 2 -6 3 -5 2 -6 2 -6 2 -5 
2 -5 2 -5 3 -5 2 -5 2 -4 2 -5 2 -4 2 -5 
3 -4 2 -4 2 -3 2 -4 2 -4 2 -3 3 -3 2 -3 
2 -3 2 -3 2 -3 2 -2 3 -2 2 -3 2 -2 2 -1 
2 -2 3 -2 2 -1 2 -1 2 -1 2 -1 2 -1 3 -1 
2 0 2 0 2 0 2 0 2 0 3 0 2 1 2 0 
2 1 2 1 2 1 3 1 2 2 2 1 2 2 2 2 
2 2 3 2 2 2 2 3 2 2 2 3 2 3 3 3 
2 3 2 3 2 3 2 4 2 4 3 3 2 4 2 4 
2 5 2 4 2 4 3 5 2 5 2 4 2 5 2 5 
2 5 3 6 2 5 2 5 2 6 2 6 2 5 3 6 
2 6 2 6 2 6 2 6 2 7 3 6 2 6 2 7 
2 7 2 6 2 7 3 7 2 7 2 7 2 7 2 7 
2 7 3 7 2 7 2 8 2 7 2 8 2 7 3 8 
2 7 2 8 2 7 2 8 3 8 2 8 2 7 2 8 
2 8 2 8 3 8 2 8 2 8 2 8 2 8 2 8 
3 8 2 8 2 8 2 8 2 8 2 8 3 8 2 8 
2 8 2 8 2 8 2 8 3 8 2 8 2 8 2 8 
2 8 2 8 3 8 2 8 2 8 2 8 2 8 2 8 
3 8 2 8 2 8 12013 4432 300 MP stroke
2 8 2 7 2 8 3 8 2 8 2 7 2 8 2 8 
2 7 3 8 2 7 2 8 2 7 2 8 2 7 3 7 
2 8 2 7 2 7 2 7 2 7 3 7 2 7 2 7 
2 7 2 7 2 7 3 7 2 7 2 6 2 7 2 7 
2 6 3 7 2 6 2 7 2 6 2 6 2 7 3 6 
2 6 2 6 2 6 2 6 2 6 3 6 2 6 2 5 
2 6 2 6 3 5 2 6 2 5 2 6 2 5 2 5 
3 6 2 5 2 5 2 5 2 5 2 5 3 5 2 5 
2 5 2 4 2 5 2 5 3 4 2 5 2 4 2 4 
2 5 2 4 3 4 2 4 2 4 2 4 2 4 2 4 
3 4 2 4 2 4 2 3 2 4 2 3 3 4 2 3 
2 4 2 3 2 3 2 3 3 4 2 3 2 3 2 3 
2 3 2 2 3 3 2 3 2 3 2 2 2 3 2 2 
3 3 2 2 2 3 2 2 2 2 2 3 3 2 2 2 
2 2 2 2 2 2 2 2 3 2 2 1 2 2 2 2 
2 1 2 2 3 2 2 1 2 2 2 1 2 1 2 2 
3 1 2 1 2 1 2 2 2 1 3 1 2 1 2 1 
2 1 2 1 2 1 3 0 2 1 2 1 2 1 2 0 
2 1 3 0 2 1 2 0 2 1 2 0 2 1 3 0 
2 1 2 0 2 0 2 0 2 1 3 0 2 0 2 0 
2 0 2 0 2 0 3 0 2 0 2 0 2 0 2 0 
2 0 3 0 2 0 2 -1 2 0 2 0 2 0 3 0 
2 -1 2 0 2 0 2 -1 2 0 3 0 2 -1 2 0 
2 -1 2 0 2 0 3 -1 2 0 2 -1 2 0 2 -1 
2 0 3 -1 2 0 2 -1 2 0 2 -1 2 0 3 -1 
2 -1 2 0 2 -1 2 0 2 -1 3 0 2 -1 2 0 
2 -1 2 0 2 -1 3 0 2 -1 2 -1 2 0 2 -1 
2 0 3 -1 2 0 2 -1 2 0 2 0 3 -1 2 0 
2 -1 2 0 2 -1 2 0 3 0 2 -1 2 0 2 0 
2 -1 2 0 3 0 2 0 2 0 2 -1 2 0 2 0 
3 0 2 0 2 0 2 0 2 0 2 0 3 0 2 0 
2 0 2 0 2 0 2 0 3 0 2 1 2 0 2 0 
2 1 2 0 3 0 2 1 2 0 2 1 2 0 2 1 
3 0 2 1 2 1 2 1 2 0 2 1 3 1 2 1 
2 1 2 1 2 1 2 1 3 1 2 1 2 1 2 1 
2 2 2 1 3 1 2 2 2 1 2 2 2 1 2 2 
3 1 2 2 2 2 2 1 2 2 2 2 3 2 2 2 
2 2 2 2 2 2 11365 3782 300 MP stroke
2 2 3 2 2 3 2 2 2 2 2 3 3 2 2 3 
2 2 2 3 2 2 2 3 3 3 2 3 2 2 2 3 
2 3 2 3 3 3 2 4 2 3 2 3 2 3 2 4 
3 3 2 3 2 4 2 3 2 4 2 3 3 4 2 4 
2 4 2 4 2 3 2 4 3 4 2 4 2 4 2 5 
2 4 2 4 3 4 2 5 2 4 2 5 2 4 2 5 
3 4 2 5 2 4 2 5 2 5 2 5 3 5 2 5 
2 5 2 5 2 5 2 5 3 5 2 5 2 6 2 5 
2 5 2 6 3 5 2 6 2 5 2 6 2 5 2 6 
3 6 2 6 2 5 2 6 2 6 2 6 3 6 2 6 
2 6 2 6 2 6 2 7 3 6 2 6 2 6 2 7 
2 6 2 6 3 7 2 6 2 7 2 7 2 6 3 7 
2 6 2 7 2 7 2 7 2 6 3 7 2 7 2 7 
2 7 2 7 2 7 3 7 2 7 2 7 2 7 2 7 
2 7 3 7 2 8 2 7 2 7 2 7 2 8 3 7 
2 7 2 8 2 7 2 7 2 8 3 7 2 8 2 7 
2 8 2 7 2 8 3 8 2 7 2 8 2 7 2 8 
2 8 3 7 2 8 2 8 2 7 2 8 2 8 3 8 
2 7 2 8 2 8 2 8 2 8 3 7 2 8 2 8 
2 8 2 8 2 8 3 7 2 8 2 8 2 8 2 8 
2 8 3 8 2 8 2 8 2 7 2 8 2 8 3 8 
2 8 2 8 2 8 2 8 2 8 3 8 2 7 2 8 
2 8 2 8 3 8 2 8 2 8 2 8 2 8 2 7 
3 8 2 8 2 8 2 8 2 8 2 7 3 8 2 8 
2 8 2 8 2 7 2 8 3 8 2 7 2 8 2 8 
2 7 2 8 3 8 2 7 2 8 2 8 2 7 2 8 
3 7 2 8 2 7 2 8 2 7 2 8 3 7 2 7 
2 8 2 7 2 8 2 7 3 7 2 7 2 8 2 7 
2 7 2 7 3 7 2 7 2 8 2 7 2 7 2 7 
3 7 2 7 2 6 2 7 2 7 2 7 3 7 2 7 
2 6 2 7 2 7 2 6 3 7 2 6 2 7 2 7 
2 6 2 6 3 7 2 6 2 6 2 7 2 6 2 6 
3 6 2 6 2 7 2 6 2 6 2 6 3 5 2 6 
2 6 2 6 2 6 3 5 2 6 2 6 2 5 2 6 
2 5 3 6 2 5 2 5 2 6 2 5 2 5 3 5 
2 5 2 6 2 5 2 4 2 5 3 5 2 5 2 5 
2 4 2 5 2 5 3 4 2 5 2 4 2 5 2 4 
2 4 3 4 2 5 10716 1941 300 MP stroke
2 4 2 4 2 4 2 4 3 3 2 4 2 4 2 4 
2 3 2 4 3 3 2 4 2 3 2 3 2 4 2 3 
3 3 2 3 2 3 2 3 2 3 2 3 3 2 2 3 
2 3 2 2 2 3 2 2 3 2 2 3 2 2 2 2 
2 2 2 2 3 2 2 2 2 1 2 2 2 2 2 1 
3 2 2 1 2 2 2 1 2 1 2 1 3 1 2 1 
2 1 2 1 2 0 3 1 2 0 2 1 2 0 2 1 
2 0 3 0 2 0 2 0 2 0 2 0 2 -1 3 0 
2 0 2 -1 2 -1 2 0 2 -1 3 -1 2 -1 2 -1 
2 -1 2 -1 2 -2 3 -1 2 -2 2 -1 2 -2 2 -2 
2 -2 3 -2 2 -2 2 -2 2 -2 2 -2 2 -3 3 -2 
2 -3 2 -3 2 -3 2 -2 2 -4 3 -3 2 -3 2 -3 
2 -4 2 -3 2 -4 3 -4 2 -3 2 -4 2 -4 2 -5 
2 -4 3 -4 2 -5 2 -4 2 -5 2 -5 2 -5 3 -5 
2 -5 2 -5 2 -6 2 -5 2 -6 3 -5 2 -6 2 -6 
2 -6 2 -6 2 -7 3 -6 2 -6 2 -7 2 -7 2 -7 
2 -7 3 -7 2 -7 2 -7 2 -8 2 -7 2 -8 3 -8 
2 -8 2 -8 2 -8 2 -9 3 -8 2 -9 2 -8 2 -9 
2 -9 2 -9 3 -10 2 -9 2 -9 2 -10 2 -10 2 -10 
3 -10 2 -10 2 -10 2 -11 2 -10 2 -11 3 -11 2 -11 
2 -11 2 -12 2 -11 2 -12 3 -11 2 -12 2 -12 2 -12 
2 -13 2 -12 3 -13 2 -13 2 -13 2 -13 2 -13 2 -13 
3 -14 2 -13 2 -14 2 -14 2 -14 2 -15 3 -14 2 -15 
2 -15 2 -14 2 -16 2 -15 3 -15 2 -16 2 -16 2 -16 
2 -16 2 -16 3 -16 2 -17 2 -17 2 -17 2 -17 2 -17 
3 -17 2 -18 2 -18 2 -18 2 -18 2 -18 3 -19 2 -18 
2 -19 2 -19 2 -20 2 -19 3 -20 2 -19 2 -20 2 -20 
2 -21 2 -20 3 -21 2 -21 2 -21 2 -21 2 -22 3 -21 
2 -22 2 -22 2 -22 2 -23 2 -22 3 -23 2 -23 2 -23 
2 -24 2 -23 2 -24 3 -24 2 -24 2 -25 2 -24 2 -25 
2 -25 3 -25 2 -25 2 -26 2 -26 2 -26 2 -26 3 -26 
2 -27 2 -27 2 -27 2 -27 2 -27 3 -28 2 -28 2 -28 
2 -28 2 -28 2 -29 3 -28 2 -29 2 -29 2 -30 2 -29 
2 -30 3 -30 2 -30 2 -30 2 -30 2 -31 2 -31 3 -31 
2 -31 2 -31 2 -31 2 -32 2 -32 3 -31 2 -32 2 -33 
2 -32 2 -32 2 -33 3 -32 2 -33 2 -33 2 -32 2 -33 
2 -33 3 -33 2 -33 2 -33 2 -34 2 -33 2 -33 3 -33 
2 -33 2 -33 2 -33 10068 5502 300 MP stroke
2 -33 2 -33 3 -32 2 -33 2 -32 2 -32 2 -32 2 -32 
3 -32 2 -31 2 -31 2 -30 2 -31 3 -29 2 -30 2 -29 
2 -28 2 -28 2 -28 3 -27 2 -26 2 -26 2 -25 2 -24 
2 -23 3 -23 2 -22 2 -21 2 -20 2 -19 2 -18 3 -18 
2 -16 2 -15 2 -14 2 -13 2 -11 3 -11 2 -9 2 -8 
2 -7 2 -6 2 -4 3 -3 2 -2 2 0 2 1 2 2 
2 3 3 5 2 6 2 7 2 9 2 9 2 11 3 12 
2 14 2 14 2 15 2 17 2 17 3 19 2 19 2 21 
2 21 2 22 2 23 3 23 2 25 2 25 2 26 2 26 
2 27 3 28 2 28 2 29 2 29 2 30 2 30 3 30 
2 30 2 31 2 32 2 31 2 32 3 32 2 32 2 32 
2 33 2 33 2 32 3 33 2 33 2 33 2 33 2 33 
2 33 3 33 2 33 2 33 2 33 2 33 3 33 2 33 
2 33 2 32 2 33 2 32 3 33 2 32 2 32 2 32 
2 32 2 31 3 32 2 31 2 31 2 31 2 31 2 31 
3 31 2 30 2 30 2 30 2 30 2 30 3 29 2 30 
2 29 2 29 2 28 2 29 3 28 2 28 2 28 2 28 
2 27 2 28 3 27 2 27 2 26 2 27 2 26 2 26 
3 26 2 26 2 26 2 25 2 25 2 25 3 24 2 25 
2 24 2 24 2 24 2 24 3 23 2 24 2 23 2 23 
2 22 2 23 3 22 2 22 2 22 2 22 2 21 2 22 
3 21 2 21 2 20 2 21 2 20 2 20 3 20 2 20 
2 20 2 19 2 19 2 19 3 19 2 19 2 18 2 19 
2 18 3 18 2 17 2 18 2 17 2 17 2 18 3 16 
2 17 2 17 2 16 2 16 2 16 3 16 2 15 2 16 
2 15 2 15 2 15 3 15 2 15 2 14 2 14 2 14 
2 14 3 14 2 14 2 13 2 13 2 14 2 13 3 12 
2 13 2 13 2 12 2 12 2 12 3 12 2 12 2 11 
2 12 2 11 2 11 3 11 2 11 2 11 2 10 2 11 
2 10 3 10 2 10 2 10 2 10 2 9 2 10 3 9 
2 9 2 9 2 9 2 9 2 8 3 9 2 8 2 8 
2 8 2 8 2 8 3 8 2 7 2 7 2 8 2 7 
2 7 3 7 2 6 2 7 2 6 2 7 2 6 3 6 
2 6 2 6 2 6 2 5 2 6 3 5 2 5 2 5 
2 5 2 5 3 5 2 5 2 4 2 5 2 4 2 4 
3 4 2 4 2 4 2 4 2 3 2 4 3 3 2 3 
2 4 2 3 2 3 2 2 3 3 2 3 2 2 2 3 
2 2 2 2 3 2 9419 1949 300 MP stroke
2 2 2 2 2 2 2 1 2 2 3 1 2 2 2 1 
2 1 2 1 2 1 3 1 2 1 2 1 2 0 2 1 
2 0 3 0 2 0 2 0 2 0 2 0 2 0 3 0 
2 -1 2 0 2 -1 2 0 2 -1 3 -1 2 -1 2 -1 
2 -1 2 -1 2 -1 3 -2 2 -1 2 -2 2 -1 2 -2 
2 -2 3 -2 2 -2 2 -2 2 -2 2 -2 2 -3 3 -2 
2 -2 2 -3 2 -3 2 -2 2 -3 3 -3 2 -3 2 -3 
2 -3 2 -3 3 -3 2 -4 2 -3 2 -4 2 -3 2 -4 
3 -4 2 -3 2 -4 2 -4 2 -4 2 -4 3 -4 2 -5 
2 -4 2 -4 2 -5 2 -4 3 -5 2 -4 2 -5 2 -5 
2 -4 2 -5 3 -5 2 -5 2 -5 2 -6 2 -5 2 -5 
3 -5 2 -6 2 -5 2 -6 2 -5 2 -6 3 -6 2 -5 
2 -6 2 -6 2 -6 2 -6 3 -6 2 -6 2 -6 2 -6 
2 -7 2 -6 3 -6 2 -7 2 -6 2 -7 2 -6 2 -7 
3 -7 2 -7 2 -6 2 -7 2 -7 2 -7 3 -7 2 -7 
2 -7 2 -7 2 -7 2 -8 3 -7 2 -7 2 -7 2 -8 
2 -7 2 -8 3 -7 2 -8 2 -7 2 -8 2 -8 2 -7 
3 -8 2 -8 2 -8 2 -8 2 -7 2 -8 3 -8 2 -8 
2 -8 2 -8 2 -9 3 -8 2 -8 2 -8 2 -8 2 -8 
2 -9 3 -8 2 -8 2 -9 2 -8 2 -9 2 -8 3 -8 
2 -9 2 -8 2 -9 2 -9 2 -8 3 -9 2 -8 2 -9 
2 -9 2 -8 2 -9 3 -9 2 -8 2 -9 2 -9 2 -9 
2 -9 3 -8 2 -9 2 -9 2 -9 2 -9 2 -9 3 -8 
2 -9 2 -9 2 -9 2 -9 2 -9 3 -9 2 -9 2 -9 
2 -9 2 -8 2 -9 3 -9 2 -9 2 -9 2 -9 2 -9 
2 -9 3 -9 2 -9 2 -9 2 -9 2 -9 2 -8 3 -9 
2 -9 2 -9 2 -9 2 -9 2 -9 3 -8 2 -9 2 -9 
2 -9 2 -9 2 -8 3 -9 2 -9 2 -9 2 -8 2 -9 
2 -9 3 -8 2 -9 2 -8 2 -9 2 -8 3 -9 2 -8 
2 -9 2 -8 2 -9 2 -8 3 -8 2 -8 2 -9 2 -8 
2 -8 2 -8 3 -8 2 -9 2 -8 2 -8 2 -8 2 -7 
3 -8 2 -8 2 -8 2 -8 2 -8 2 -7 3 -8 2 -7 
2 -8 2 -7 2 -8 2 -7 3 -8 2 -7 2 -7 2 -7 
2 -7 2 -8 3 -7 2 -7 2 -6 2 -7 2 -7 2 -7 
3 -6 2 -7 2 -7 2 -6 2 -7 2 -6 3 -6 2 -6 
2 -7 2 -6 2 -6 2 -6 3 -6 2 -6 2 -5 2 -6 
2 -6 2 -5 3 -6 2 -5 2 -5 2 -6 2 -5 2 -5 
3 -5 2 -5 2 -5 8771 3729 300 MP stroke
2 -5 2 -4 2 -5 3 -5 2 -4 2 -5 2 -4 2 -4 
2 -4 3 -4 2 -4 2 -4 2 -4 2 -4 2 -4 3 -3 
2 -4 2 -3 2 -4 2 -3 3 -3 2 -3 2 -3 2 -3 
2 -3 2 -3 3 -2 2 -3 2 -2 2 -3 2 -2 2 -2 
3 -2 2 -2 2 -2 2 -2 2 -2 2 -2 3 -1 2 -2 
2 -1 2 -2 2 -1 2 -1 3 -1 2 -1 2 -1 2 -1 
2 -1 2 -1 3 0 2 -1 2 0 2 0 2 -1 2 0 
3 0 2 0 2 0 2 0 2 1 2 0 3 0 2 1 
2 0 2 1 2 1 2 1 3 0 2 1 2 1 2 2 
2 1 2 1 3 1 2 2 2 1 2 2 2 2 2 1 
3 2 2 2 2 2 2 2 2 2 2 2 3 2 2 2 
2 3 2 2 2 2 2 3 3 3 2 2 2 3 2 3 
2 2 2 3 3 3 2 3 2 3 2 3 2 3 3 4 
2 3 2 3 2 3 2 4 2 3 3 4 2 3 2 4 
2 3 2 4 2 4 3 4 2 3 2 4 2 4 2 4 
2 4 3 4 2 4 2 4 2 4 2 4 2 4 3 4 
2 4 2 5 2 4 2 4 2 4 3 5 2 4 2 4 
2 5 2 4 2 4 3 5 2 4 2 5 2 4 2 5 
2 4 3 5 2 4 2 5 2 4 2 5 2 4 3 5 
2 4 2 5 2 4 2 5 2 4 3 5 2 4 2 5 
2 4 2 5 2 4 3 5 2 4 2 5 2 4 2 5 
2 4 3 5 2 4 2 5 2 4 2 4 2 5 3 4 
2 4 2 5 2 4 2 4 2 4 3 5 2 4 2 4 
2 4 2 4 2 4 3 4 2 4 2 4 2 4 2 4 
3 4 2 4 2 4 2 3 2 4 2 4 3 3 2 4 
2 4 2 3 2 4 2 3 3 3 2 4 2 3 2 3 
2 4 2 3 3 3 2 3 2 3 2 3 2 3 2 3 
3 3 2 2 2 3 2 3 2 2 2 3 3 2 2 3 
2 2 2 3 2 2 2 2 3 2 2 2 2 2 2 2 
2 2 2 2 3 2 2 1 2 2 2 2 2 1 2 1 
3 2 2 1 2 1 2 1 2 2 2 1 3 0 2 1 
2 1 2 1 2 0 2 1 3 0 2 1 2 0 2 0 
2 1 2 0 3 0 2 0 2 -1 2 0 2 0 2 0 
3 -1 2 -1 2 0 2 -1 2 -1 2 -1 3 -1 2 -1 
2 -1 2 -1 2 -1 3 -2 2 -1 2 -2 2 -2 2 -1 
2 -2 3 -2 2 -2 2 -2 2 -3 2 -2 2 -2 3 -3 
2 -2 2 -3 2 -3 2 -3 2 -3 3 -3 2 -3 2 -3 
2 -4 2 -3 2 -4 8123 3345 300 MP stroke
3 -3 2 -4 2 -4 2 -4 2 -4 2 -4 3 -5 2 -4 
2 -4 2 -5 2 -5 2 -4 3 -5 2 -5 2 -5 2 -6 
2 -5 2 -5 3 -6 2 -5 2 -6 2 -6 2 -6 2 -6 
3 -6 2 -6 2 -6 2 -7 2 -6 2 -7 3 -7 2 -7 
2 -7 2 -7 2 -7 2 -7 3 -8 2 -7 2 -8 2 -8 
2 -7 2 -8 3 -8 2 -9 2 -8 2 -8 2 -9 2 -8 
3 -9 2 -9 2 -9 2 -9 2 -9 2 -9 3 -10 2 -9 
2 -10 2 -9 2 -10 2 -10 3 -10 2 -10 2 -10 2 -11 
2 -10 3 -11 2 -10 2 -11 2 -11 2 -11 2 -11 3 -11 
2 -11 2 -12 2 -11 2 -12 2 -12 3 -11 2 -12 2 -12 
2 -12 2 -13 2 -12 3 -12 2 -13 2 -12 2 -13 2 -13 
2 -13 3 -13 2 -13 2 -13 2 -13 2 -13 2 -14 3 -13 
2 -14 2 -14 2 -13 2 -14 2 -14 3 -14 2 -14 2 -15 
2 -14 2 -14 2 -14 3 -15 2 -14 2 -15 2 -15 2 -14 
2 -15 3 -15 2 -15 2 -15 2 -15 2 -15 2 -15 3 -15 
2 -16 2 -15 2 -15 2 -15 2 -16 3 -15 2 -16 2 -15 
2 -16 2 -15 2 -16 3 -15 2 -16 2 -15 2 -16 2 -15 
2 -16 3 -15 2 -16 2 -15 2 -16 2 -15 2 -16 3 -15 
2 -15 2 -16 2 -15 2 -15 3 -15 2 -15 2 -15 2 -15 
2 -15 2 -15 3 -15 2 -14 2 -15 2 -14 2 -15 2 -14 
3 -14 2 -14 2 -13 2 -14 2 -14 2 -13 3 -13 2 -13 
2 -13 2 -13 2 -12 2 -13 3 -12 2 -12 2 -12 2 -11 
2 -11 2 -12 3 -10 2 -11 2 -10 2 -11 2 -9 2 -10 
3 -9 2 -9 2 -9 2 -9 2 -8 2 -8 3 -7 2 -8 
2 -7 2 -6 2 -7 2 -6 3 -5 2 -6 2 -5 2 -4 
2 -5 2 -4 3 -3 2 -4 2 -3 2 -2 2 -2 2 -2 
3 -2 2 -1 2 0 2 -1 2 0 2 1 3 0 2 2 
2 1 2 2 2 2 2 3 3 3 2 3 2 4 2 4 
2 4 2 5 3 5 2 5 2 6 2 6 2 7 2 7 
3 7 2 7 2 8 2 8 2 8 3 9 2 9 2 9 
2 10 2 10 2 10 3 10 2 11 2 11 2 11 2 11 
2 12 3 12 2 12 2 12 2 13 2 12 2 13 3 14 
2 13 2 13 2 14 2 14 2 14 3 14 2 15 2 14 
2 15 2 15 2 14 3 16 2 15 2 15 2 15 2 16 
2 15 3 16 2 16 2 16 2 16 2 16 2 16 3 16 
2 16 2 17 2 16 2 16 2 17 3 16 2 17 2 16 
2 17 2 17 2 16 3 17 2 16 2 17 2 17 2 16 
2 17 3 17 2 16 7474 4570 300 MP stroke
2 17 2 17 2 16 2 17 3 17 2 16 2 17 2 16 
2 17 2 16 3 17 2 16 2 17 2 16 2 16 2 17 
3 16 2 16 2 16 2 16 2 16 3 16 2 16 2 16 
2 16 2 15 2 16 3 16 2 15 2 16 2 15 2 16 
2 15 3 15 2 15 2 15 2 15 2 15 2 15 3 15 
2 15 2 15 2 14 2 15 2 14 3 15 2 14 2 14 
2 15 2 14 2 14 3 14 2 14 2 13 2 14 2 14 
2 13 3 14 2 13 2 13 2 14 2 13 2 13 3 13 
2 13 2 13 2 13 2 12 2 13 3 12 2 13 2 12 
2 12 2 13 2 12 3 12 2 12 2 11 2 12 2 12 
2 11 3 12 2 11 2 12 2 11 2 11 2 11 3 11 
2 11 2 11 2 11 2 11 2 10 3 11 2 10 2 10 
2 11 2 10 2 10 3 10 2 10 2 10 2 10 2 9 
2 10 3 10 2 9 2 9 2 10 2 9 3 9 2 9 
2 9 2 9 2 9 2 9 3 9 2 8 2 9 2 8 
2 9 2 8 3 9 2 8 2 8 2 8 2 8 2 8 
3 8 2 8 2 8 2 7 2 8 2 7 3 8 2 7 
2 8 2 7 2 7 2 8 3 7 2 7 2 7 2 7 
2 7 2 6 3 7 2 7 2 6 2 7 2 6 2 7 
3 6 2 7 2 6 2 6 2 6 2 6 3 6 2 6 
2 6 2 6 2 6 2 5 3 6 2 6 2 5 2 6 
2 5 2 5 3 6 2 5 2 5 2 5 2 6 2 5 
3 5 2 5 2 5 2 4 2 5 2 5 3 5 2 4 
2 5 2 5 2 4 2 5 3 4 2 4 2 5 2 4 
2 4 2 4 3 4 2 5 2 4 2 4 2 4 3 3 
2 4 2 4 2 4 2 4 2 3 3 4 2 4 2 3 
2 4 2 3 2 4 3 3 2 3 2 4 2 3 2 3 
2 4 3 3 2 3 2 3 2 3 2 3 2 3 3 3 
2 3 2 3 2 3 2 2 2 3 3 3 2 3 2 2 
2 3 2 3 2 2 3 3 2 2 2 3 2 2 2 3 
2 2 3 2 2 3 2 2 2 2 2 2 2 3 3 2 
2 2 2 2 2 2 2 2 2 2 3 2 2 2 2 2 
2 2 2 2 2 2 3 2 2 2 2 1 2 2 2 2 
2 2 3 1 2 2 2 2 2 1 2 2 2 2 3 1 
2 2 2 1 2 2 2 1 2 2 3 1 2 2 2 1 
2 1 2 2 3 1 2 1 2 2 2 1 2 1 2 2 
3 1 2 1 2 1 2 1 2 1 2 2 3 1 2 1 
2 1 2 1 2 1 6826 2298 300 MP stroke
2 1 3 1 2 1 2 1 2 1 2 1 2 1 3 1 
2 1 2 0 2 1 2 1 2 1 3 1 2 1 2 0 
2 1 2 1 2 1 3 0 2 1 2 1 2 0 2 1 
2 1 3 0 2 1 2 1 2 0 2 1 2 0 3 1 
2 0 2 1 2 0 2 1 2 0 3 1 2 0 2 1 
2 0 2 1 2 0 3 0 2 1 2 0 2 0 2 1 
2 0 3 0 2 1 2 0 2 0 2 1 2 0 3 0 
2 0 2 0 2 1 2 0 2 0 3 0 2 0 2 0 
2 1 2 0 2 0 3 0 2 0 2 0 2 0 2 0 
3 0 2 0 2 0 2 0 2 0 2 0 3 0 2 0 
2 0 2 0 2 -1 2 0 3 0 2 0 2 0 2 0 
2 -1 2 0 3 0 2 0 2 -1 2 0 2 0 2 0 
3 -1 2 0 2 -1 2 0 2 0 2 -1 3 0 2 -1 
2 0 2 0 2 -1 2 0 3 -1 2 0 2 -1 2 -1 
2 0 2 -1 3 0 2 -1 2 -1 2 0 2 -1 2 -1 
3 0 2 -1 2 -1 2 -1 2 -1 2 0 3 -1 2 -1 
2 -1 2 -1 2 -1 2 -1 3 -1 2 -1 2 -1 2 -1 
2 -1 2 -1 3 -1 2 -1 2 -1 2 -1 2 -1 2 -2 
3 -1 2 -1 2 -1 2 -2 2 -1 2 -1 3 -2 2 -1 
2 -1 2 -2 2 -1 3 -2 2 -1 2 -2 2 -1 2 -2 
2 -2 3 -1 2 -2 2 -2 2 -2 2 -1 2 -2 3 -2 
2 -2 2 -2 2 -2 2 -1 2 -2 3 -2 2 -2 2 -3 
2 -2 2 -2 2 -2 3 -2 2 -2 2 -3 2 -2 2 -2 
2 -3 3 -2 2 -2 2 -3 2 -2 2 -3 2 -3 3 -2 
2 -3 2 -2 2 -3 2 -3 2 -3 3 -3 2 -2 2 -3 
2 -3 2 -3 2 -3 3 -3 2 -4 2 -3 2 -3 2 -3 
2 -3 3 -4 2 -3 2 -3 2 -4 2 -3 2 -4 3 -4 
2 -3 2 -4 2 -4 2 -3 2 -4 3 -4 2 -4 2 -4 
2 -4 2 -4 2 -4 3 -4 2 -4 2 -4 2 -5 2 -4 
2 -5 3 -4 2 -4 2 -5 2 -5 2 -4 2 -5 3 -5 
2 -5 2 -4 2 -5 2 -5 3 -5 2 -5 2 -6 2 -5 
2 -5 2 -5 3 -6 2 -5 2 -6 2 -5 2 -6 2 -5 
3 -6 2 -6 2 -6 2 -6 2 -6 2 -6 3 -6 2 -6 
2 -6 2 -6 2 -7 2 -6 3 -6 2 -7 2 -7 2 -6 
2 -7 2 -7 3 -7 2 -7 2 -7 2 -7 2 -7 2 -7 
3 -7 2 -8 2 -7 2 -7 2 -8 2 -8 3 -7 2 -8 
2 -8 2 -8 2 -8 2 -8 3 -8 2 -8 2 -8 2 -9 
2 -8 2 -9 3 -8 6177 2953 300 MP stroke
2 -9 2 -9 2 -8 2 -9 2 -9 3 -9 2 -9 2 -10 
2 -9 2 -9 2 -10 3 -9 2 -10 2 -9 2 -10 2 -10 
2 -10 3 -10 2 -10 2 -10 2 -10 2 -11 2 -10 3 -10 
2 -11 2 -11 2 -10 2 -11 3 -11 2 -11 2 -11 2 -11 
2 -12 2 -11 3 -11 2 -12 2 -11 2 -12 2 -12 2 -12 
3 -11 2 -12 2 -13 2 -12 2 -12 2 -12 3 -13 2 -12 
2 -13 2 -13 2 -12 2 -13 3 -13 2 -13 2 -13 2 -14 
2 -13 2 -13 3 -14 2 -13 2 -14 2 -14 2 -14 2 -14 
3 -14 2 -14 2 -14 2 -14 2 -14 2 -15 3 -14 2 -15 
2 -15 2 -14 2 -15 2 -15 3 -15 2 -15 2 -15 2 -15 
2 -16 2 -15 3 -16 2 -15 2 -16 2 -15 2 -16 2 -16 
3 -16 2 -16 2 -16 2 -16 2 -16 2 -16 3 -17 2 -16 
2 -17 2 -16 2 -17 2 -16 3 -17 2 -17 2 -17 2 -16 
2 -17 2 -17 3 -17 2 -17 2 -17 2 -17 2 -18 2 -17 
3 -17 2 -17 2 -18 2 -17 2 -17 3 -18 2 -17 2 -17 
2 -18 2 -17 2 -18 3 -17 2 -18 2 -17 2 -17 2 -18 
2 -17 3 -18 2 -17 2 -17 2 -18 2 -17 2 -17 3 -17 
2 -18 2 -17 2 -17 2 -17 2 -17 3 -17 2 -16 2 -17 
2 -17 2 -16 2 -17 3 -16 2 -17 2 -16 2 -16 2 -16 
2 -15 3 -16 2 -16 2 -15 2 -15 2 -15 2 -15 3 -15 
2 -14 2 -15 2 -14 2 -14 2 -13 3 -14 2 -13 2 -13 
2 -13 2 -13 2 -12 3 -12 2 -12 2 -12 2 -11 2 -11 
2 -11 3 -10 2 -10 2 -10 2 -10 2 -9 2 -9 3 -8 
2 -9 2 -8 2 -7 2 -7 2 -7 3 -7 2 -6 2 -5 
2 -6 2 -5 2 -4 3 -5 2 -4 2 -3 2 -3 2 -3 
3 -2 2 -2 2 -1 2 -1 2 -1 2 0 3 0 2 0 
2 1 2 1 2 2 2 2 3 3 2 3 2 3 2 4 
2 4 2 4 3 5 2 5 2 6 2 5 2 7 2 6 
3 7 2 8 2 7 2 8 2 9 2 8 3 9 2 9 
2 10 2 10 2 10 2 10 3 11 2 11 2 11 2 11 
2 12 2 12 3 12 2 13 2 12 2 13 2 13 2 14 
3 13 2 14 2 13 2 14 2 15 2 14 3 14 2 15 
2 15 2 15 2 15 2 15 3 15 2 16 2 15 2 16 
2 15 2 16 3 16 2 16 2 16 2 16 2 16 2 16 
3 16 2 16 2 16 2 17 2 16 2 16 3 17 2 16 
2 16 2 17 2 16 2 16 3 17 2 16 2 17 2 16 
2 16 3 16 2 17 2 16 2 16 2 16 2 16 3 17 
2 16 2 16 2 15 5529 4503 300 MP stroke
2 16 2 16 3 16 2 16 2 15 2 16 2 15 2 16 
3 15 2 16 2 15 2 15 2 15 2 15 3 15 2 15 
2 15 2 14 2 15 2 14 3 15 2 14 2 14 2 14 
2 15 2 13 3 14 2 14 2 14 2 13 2 14 2 13 
3 13 2 14 2 13 2 13 2 13 2 12 3 13 2 12 
2 13 2 12 2 12 2 13 3 12 2 11 2 12 2 12 
2 12 2 11 3 11 2 12 2 11 2 11 2 11 2 10 
3 11 2 11 2 10 2 10 2 11 2 10 3 10 2 10 
2 9 2 10 2 10 2 9 3 9 2 9 2 10 2 9 
2 8 3 9 2 9 2 8 2 9 2 8 2 8 3 8 
2 8 2 8 2 8 2 8 2 7 3 7 2 8 2 7 
2 7 2 7 2 7 3 7 2 6 2 7 2 6 2 6 
2 7 3 6 2 6 2 6 2 5 2 6 2 6 3 5 
2 5 2 6 2 5 2 5 2 5 3 4 2 5 2 5 
2 4 2 4 2 5 3 4 2 4 2 4 2 4 2 4 
2 3 3 4 2 3 2 4 2 3 2 3 2 3 3 3 
2 3 2 3 2 2 2 3 2 2 3 3 2 2 2 2 
2 2 2 2 2 2 3 2 2 2 2 1 2 2 2 1 
2 2 3 1 2 1 2 1 2 1 2 1 2 1 3 1 
2 0 2 1 2 0 2 1 2 0 3 0 2 1 2 0 
2 0 2 -1 3 0 2 0 2 0 2 -1 2 0 2 -1 
3 -1 2 0 2 -1 2 -1 2 -1 2 -1 3 -1 2 -2 
2 -1 2 -1 2 -2 2 -1 3 -2 2 -1 2 -2 2 -2 
2 -2 2 -2 3 -2 2 -2 2 -2 2 -2 2 -2 2 -2 
3 -3 2 -2 2 -3 2 -2 2 -3 2 -3 3 -2 2 -3 
2 -3 2 -3 2 -3 2 -3 3 -3 2 -3 2 -3 2 -4 
2 -3 2 -3 3 -4 2 -3 2 -4 2 -3 2 -4 2 -3 
3 -4 2 -4 2 -3 2 -4 2 -4 2 -4 3 -4 2 -4 
2 -4 2 -4 2 -4 2 -4 3 -4 2 -5 2 -4 2 -4 
2 -5 2 -4 3 -4 2 -5 2 -4 2 -5 2 -4 2 -5 
3 -4 2 -5 2 -4 2 -5 2 -5 3 -4 2 -5 2 -5 
2 -4 2 -5 2 -5 3 -5 2 -4 2 -5 2 -5 2 -5 
2 -5 3 -4 2 -5 2 -5 2 -5 2 -5 2 -5 3 -5 
2 -5 2 -4 2 -5 2 -5 2 -5 3 -5 2 -5 2 -5 
2 -5 2 -5 2 -4 3 -5 2 -5 2 -5 2 -5 2 -5 
2 -4 3 -5 2 -5 2 -5 2 -4 2 -5 2 -5 3 -5 
2 -4 2 -5 2 -4 2 -5 2 -5 3 -4 2 -5 2 -4 
2 -5 2 -4 2 -4 4881 3702 300 MP stroke
3 -5 2 -4 2 -4 2 -5 2 -4 2 -4 3 -4 2 -4 
2 -4 2 -4 2 -4 2 -4 3 -4 2 -4 2 -4 2 -3 
2 -4 2 -4 3 -3 2 -4 2 -3 2 -4 2 -3 2 -4 
3 -3 2 -3 2 -3 2 -3 2 -3 2 -3 3 -3 2 -3 
2 -3 2 -3 2 -2 3 -3 2 -2 2 -3 2 -2 2 -3 
2 -2 3 -2 2 -2 2 -2 2 -2 2 -2 2 -2 3 -2 
2 -1 2 -2 2 -1 2 -2 2 -1 3 -1 2 -2 2 -1 
2 -1 2 -1 2 -1 3 0 2 -1 2 -1 2 0 2 -1 
2 0 3 0 2 -1 2 0 2 0 2 0 2 1 3 0 
2 0 2 1 2 0 2 1 2 0 3 1 2 1 2 1 
2 1 2 1 2 1 3 1 2 2 2 1 2 2 2 2 
2 1 3 2 2 2 2 2 2 2 2 2 2 3 3 2 
2 2 2 3 2 2 2 3 2 3 3 3 2 3 2 3 
2 3 2 3 2 3 3 4 2 3 2 4 2 4 2 3 
2 4 3 4 2 4 2 4 2 4 2 4 3 5 2 4 
2 5 2 4 2 5 2 4 3 5 2 5 2 5 2 5 
2 5 2 5 3 6 2 5 2 5 2 6 2 5 2 6 
3 6 2 5 2 6 2 6 2 6 2 6 3 6 2 7 
2 6 2 6 2 7 2 6 3 6 2 7 2 7 2 6 
2 7 2 7 3 7 2 7 2 7 2 7 2 7 2 7 
3 8 2 7 2 7 2 8 2 7 2 8 3 7 2 8 
2 7 2 8 2 8 2 8 3 7 2 8 2 8 2 8 
2 8 2 8 3 8 2 8 2 8 2 9 2 8 2 8 
3 8 2 9 2 8 2 8 2 9 2 8 3 9 2 8 
2 9 2 8 2 9 2 8 3 9 2 9 2 8 2 9 
2 9 2 8 3 9 2 9 2 9 2 8 2 9 3 9 
2 9 2 9 2 8 2 9 2 9 3 9 2 9 2 9 
2 9 2 9 2 9 3 8 2 9 2 9 2 9 2 9 
2 9 3 9 2 9 2 9 2 9 2 9 2 9 3 9 
2 9 2 9 2 9 2 8 2 9 3 9 2 9 2 9 
2 9 2 9 2 9 3 8 2 9 2 9 2 9 2 9 
2 8 3 9 2 9 2 8 2 9 2 9 2 8 3 9 
2 9 2 8 2 9 2 8 2 9 3 8 2 9 2 8 
2 9 2 8 2 8 3 9 2 8 2 8 2 9 2 8 
2 8 3 8 2 8 2 8 2 8 2 8 2 8 3 8 
2 8 2 8 2 8 2 8 2 8 3 7 2 8 2 8 
2 7 2 8 2 7 3 8 2 7 2 8 2 7 2 7 
3 8 2 7 2 7 4232 2363 300 MP stroke
2 7 2 7 2 7 3 7 2 7 2 7 2 7 2 7 
2 7 3 6 2 7 2 7 2 6 2 7 2 6 3 6 
2 7 2 6 2 6 2 6 2 6 3 6 2 6 2 6 
2 6 2 6 2 6 3 6 2 5 2 6 2 5 2 6 
2 5 3 5 2 6 2 5 2 5 2 5 2 5 3 5 
2 5 2 5 2 4 2 5 2 5 3 4 2 5 2 4 
2 4 2 5 2 4 3 4 2 4 2 4 2 4 2 4 
2 3 3 4 2 4 2 3 2 4 2 3 2 3 3 3 
2 4 2 3 2 3 2 2 2 3 3 3 2 3 2 2 
2 3 2 2 2 3 3 2 2 2 2 2 2 2 2 2 
3 2 2 2 2 1 2 2 2 1 2 2 3 1 2 1 
2 1 2 1 2 1 2 1 3 1 2 1 2 0 2 1 
2 0 2 0 3 1 2 0 2 0 2 0 2 -1 2 0 
3 0 2 -1 2 0 2 -1 2 -1 2 -1 3 0 2 -2 
2 -1 2 -1 2 -1 2 -2 3 -1 2 -2 2 -2 2 -2 
2 -2 2 -2 3 -2 2 -2 2 -3 2 -2 2 -3 2 -3 
3 -2 2 -3 2 -3 2 -4 2 -3 2 -3 3 -4 2 -3 
2 -4 2 -4 2 -4 2 -4 3 -4 2 -5 2 -4 2 -5 
2 -4 2 -5 3 -5 2 -5 2 -5 2 -6 2 -5 2 -5 
3 -6 2 -6 2 -6 2 -6 2 -6 2 -6 3 -7 2 -6 
2 -7 2 -6 2 -7 2 -7 3 -8 2 -7 2 -7 2 -8 
2 -8 3 -7 2 -8 2 -8 2 -9 2 -8 2 -9 3 -8 
2 -9 2 -9 2 -9 2 -9 2 -9 3 -10 2 -10 2 -9 
2 -10 2 -10 2 -10 3 -11 2 -10 2 -11 2 -11 2 -11 
2 -11 3 -11 2 -11 2 -12 2 -12 2 -11 2 -12 3 -12 
2 -13 2 -12 2 -13 2 -13 2 -12 3 -14 2 -13 2 -13 
2 -14 2 -13 2 -14 3 -14 2 -15 2 -14 2 -15 2 -14 
2 -15 3 -15 2 -15 2 -16 2 -15 2 -16 2 -16 3 -16 
2 -16 2 -17 2 -16 2 -17 2 -17 3 -17 2 -17 2 -18 
2 -17 2 -18 2 -18 3 -18 2 -19 2 -18 2 -19 2 -19 
2 -19 3 -19 2 -20 2 -20 2 -19 2 -20 2 -21 3 -20 
2 -21 2 -21 2 -21 2 -21 3 -21 2 -22 2 -21 2 -22 
2 -23 2 -22 3 -23 2 -22 2 -23 2 -23 2 -24 2 -23 
3 -24 2 -24 2 -24 2 -25 2 -24 2 -25 3 -25 2 -25 
2 -25 2 -26 2 -26 2 -26 3 -26 2 -26 2 -27 2 -27 
2 -27 2 -27 3 -27 2 -28 2 -27 2 -28 2 -28 2 -29 
3 -28 2 -29 2 -29 2 -29 2 -29 2 -30 3 -29 2 -30 
2 -30 2 -30 2 -31 3584 4601 300 MP stroke
2 -30 3 -31 2 -31 2 -31 2 -31 2 -31 2 -31 3 -32 
2 -32 2 -31 2 -32 2 -32 2 -33 3 -32 2 -32 2 -33 
2 -32 2 -33 2 -32 3 -33 2 -32 2 -33 2 -33 2 -32 
2 -33 3 -33 2 -32 2 -33 2 -32 2 -33 2 -32 3 -32 
2 -32 2 -31 2 -32 2 -31 2 -31 3 -31 2 -31 2 -30 
2 -30 2 -29 3 -29 2 -29 2 -28 2 -27 2 -28 2 -26 
3 -26 2 -25 2 -25 2 -24 2 -23 2 -22 3 -22 2 -21 
2 -20 2 -19 2 -17 2 -17 3 -16 2 -15 2 -14 2 -13 
2 -12 2 -10 3 -9 2 -9 2 -6 2 -6 2 -5 2 -3 
3 -2 2 0 2 0 2 2 2 3 2 5 3 5 2 7 
2 8 2 10 2 10 2 12 3 13 2 13 2 15 2 16 
2 17 2 18 3 19 2 20 2 21 2 21 2 23 2 23 
3 24 2 25 2 25 2 26 2 26 2 27 3 28 2 28 
2 29 2 29 2 29 2 30 3 31 2 30 2 31 2 31 
2 31 2 32 3 32 2 32 2 32 2 32 2 32 2 33 
3 32 2 33 2 33 2 33 2 32 3 33 2 33 2 33 
2 32 2 33 2 33 3 32 2 33 2 32 2 33 2 32 
2 32 3 32 2 32 2 32 2 32 2 31 2 31 3 32 
2 31 2 31 2 31 2 30 2 31 3 30 2 30 2 30 
2 30 2 30 2 29 3 29 2 30 2 28 2 29 2 29 
2 28 3 28 2 28 2 28 2 28 2 27 2 27 3 27 
2 27 2 27 2 26 2 26 2 26 3 26 2 26 2 25 
2 25 2 25 2 25 3 25 2 24 2 24 2 24 2 24 
2 24 3 23 2 24 2 23 2 23 2 22 2 23 3 22 
2 22 2 22 2 22 2 21 2 22 3 21 2 21 2 21 
2 20 2 21 2 20 3 20 2 20 2 20 2 19 2 20 
2 19 3 19 2 18 2 19 2 19 2 18 3 18 2 18 
2 18 2 17 2 18 2 17 3 17 2 17 2 16 2 17 
2 16 2 17 3 16 2 16 2 15 2 16 2 15 2 15 
3 15 2 15 2 15 2 15 2 14 2 14 3 14 2 14 
2 14 2 14 2 13 2 14 3 13 2 13 2 13 2 13 
2 12 2 13 3 12 2 12 2 12 2 12 2 12 2 11 
3 12 2 11 2 11 2 11 2 11 2 11 3 10 2 11 
2 10 2 10 2 10 2 10 3 10 2 10 2 9 2 10 
2 9 2 9 3 9 2 9 2 9 2 8 2 9 2 8 
3 8 2 9 2 7 2 8 2 8 2 8 3 7 2 8 
2 7 2 7 2 7 2 7 3 7 2 6 2 7 2 6 
2 7 3 6 2 6 2935 1997 300 MP stroke
2 6 2 6 2 6 2 5 3 6 2 5 2 6 2 5 
2 5 2 5 3 5 2 4 2 5 2 5 2 4 2 4 
3 5 2 4 2 4 2 4 2 3 2 4 3 4 2 3 
2 4 2 3 2 3 2 3 3 3 2 3 2 3 2 3 
2 2 2 3 3 2 2 3 2 2 2 2 2 2 2 2 
3 2 2 2 2 2 2 1 2 2 2 1 3 1 2 2 
2 1 2 1 2 1 2 1 3 1 2 0 2 1 2 0 
2 1 2 0 3 1 2 0 2 0 2 0 2 0 2 0 
3 0 2 0 2 -1 2 0 2 -1 2 0 3 -1 2 -1 
2 -1 2 0 2 -1 2 -1 3 -2 2 -1 2 -1 2 -1 
2 -2 2 -1 3 -2 2 -1 2 -2 2 -2 2 -2 3 -2 
2 -2 2 -2 2 -2 2 -2 2 -2 3 -2 2 -3 2 -2 
2 -3 2 -2 2 -3 3 -3 2 -2 2 -3 2 -3 2 -3 
2 -3 3 -3 2 -3 2 -4 2 -3 2 -3 2 -4 3 -3 
2 -4 2 -3 2 -4 2 -4 2 -3 3 -4 2 -4 2 -4 
2 -4 2 -4 2 -4 3 -4 2 -4 2 -5 2 -4 2 -4 
2 -5 3 -4 2 -5 2 -4 2 -5 2 -4 2 -5 3 -5 
2 -5 2 -5 2 -5 2 -4 2 -5 3 -6 2 -5 2 -5 
2 -5 2 -5 2 -5 3 -6 2 -5 2 -6 2 -5 2 -6 
2 -5 3 -6 2 -5 2 -6 2 -6 2 -5 2 -6 3 -6 
2 -6 2 -6 2 -6 2 -6 2 -6 3 -6 2 -6 2 -6 
2 -6 2 -6 3 -7 2 -6 2 -6 2 -7 2 -6 2 -6 
3 -7 2 -6 2 -7 2 -6 2 -7 2 -6 3 -7 2 -7 
2 -6 2 -7 2 -7 2 -7 3 -6 2 -7 2 -7 2 -7 
2 -7 2 -7 3 -7 2 -7 2 -7 2 -7 2 -7 2 -7 
3 -7 2 -7 2 -7 2 -7 2 -8 2 -7 3 -7 2 -7 
2 -8 2 -7 2 -7 2 -7 3 -8 2 -7 2 -8 2 -7 
2 -7 2 -8 3 -7 2 -8 2 -7 2 -8 2 -7 2 -8 
3 -7 2 -8 2 -7 2 -8 2 -7 2 -8 3 -7 2 -8 
2 -8 2 -7 2 -8 2 -7 3 -8 2 -8 2 -7 2 -8 
2 -8 2 -7 3 -8 2 -8 2 -7 2 -8 2 -8 2 -7 
3 -8 2 -8 2 -7 2 -8 2 -8 2 -7 3 -8 2 -8 
2 -7 2 -8 2 -8 3 -7 2 -8 2 -8 2 -7 2 -8 
2 -8 3 -7 2 -8 2 -8 2 -7 2 -8 2 -7 3 -8 
2 -8 2 -7 2 -8 2 -7 2 -8 3 -7 2 -8 2 -7 
2 -8 2 -7 2 -8 3 -7 2 -8 2 -7 2 -8 2 -7 
2 -7 3 -8 2 -7 2 -7 2 -8 2 -7 2 -7 3 -8 
2 -7 2 -7 2 -7 2287 3142 300 MP stroke
2 -7 2 -8 3 -7 2 -7 2 -7 2 -7 2 -7 2 -7 
3 -7 2 -7 2 -7 2 -7 2 -7 2 -7 3 -7 2 -6 
2 -7 2 -7 2 -7 2 -6 3 -7 2 -7 2 -6 2 -7 
2 -6 2 -7 3 -6 2 -7 2 -6 2 -7 2 -6 2 -6 
3 -7 2 -6 2 -6 2 -6 2 -6 2 -7 3 -6 2 -6 
2 -6 2 -6 2 -6 3 -6 2 -5 2 -6 2 -6 2 -6 
2 -5 3 -6 2 -6 2 -5 2 -6 2 -5 2 -6 3 -5 
2 -6 2 -5 2 -5 2 -6 2 -5 3 -5 2 -5 2 -5 
2 -5 2 -5 2 -5 3 -5 2 -5 2 -5 2 -5 2 -4 
2 -5 3 -5 2 -4 2 -5 2 -4 2 -5 2 -4 3 -5 
2 -4 2 -4 2 -4 2 -5 2 -4 3 -4 2 -4 2 -4 
2 -4 2 -4 2 -4 3 -3 2 -4 2 -4 2 -4 2 -3 
2 -4 3 -3 2 -4 2 -3 2 -4 2 -3 2 -3 3 -4 
2 -3 2 -3 2 -3 2 -3 2 -3 3 -3 2 -3 2 -3 
2 -3 2 -2 2 -3 3 -3 2 -3 2 -2 2 -3 2 -2 
2 -3 3 -2 2 -3 2 -2 2 -2 2 -2 2 -3 3 -2 
2 -2 2 -2 2 -2 2 -2 3 -2 2 -2 2 -2 2 -2 
2 -1 2 -2 3 -2 2 -1 2 -2 2 -2 2 -1 2 -2 
3 -1 2 -2 2 -1 2 -1 2 -2 2 -1 3 -1 2 -1 
2 -2 2 -1 2 -1 2 -1 3 -1 2 -1 2 -1 2 -1 
2 -1 2 -1 3 -1 2 0 2 -1 2 -1 2 -1 2 0 
3 -1 2 -1 2 0 2 -1 2 0 2 -1 3 -1 2 0 
2 0 2 -1 2 0 2 -1 3 0 2 0 2 -1 2 0 
2 0 2 -1 3 0 2 0 2 0 2 -1 2 0 2 0 
3 0 2 0 2 -1 2 0 2 0 2 0 3 0 2 0 
2 0 2 0 2 0 2 0 3 0 2 0 2 0 2 0 
2 0 2 0 3 0 2 0 2 0 2 0 2 0 2 -1 
1819 3839 217 MP stroke
/c11 { 0.000000 0.750000 0.750000 sr} bdef
c11
5 -14 4 -14 5 -14 4 -15 4 -14 5 -14 4 -15 4 -14 
5 -15 4 -15 4 -14 5 -15 4 -15 4 -15 5 -15 4 -15 
4 -15 5 -15 4 -15 4 -15 5 -15 4 -15 4 -15 5 -16 
4 -15 4 -15 5 -15 4 -15 4 -16 5 -15 4 -15 4 -15 
5 -15 4 -15 4 -16 5 -15 4 -15 4 -15 5 -15 4 -14 
4 -15 5 -15 4 -15 4 -14 5 -15 4 -14 4 -14 5 -14 
4 -14 4 -14 5 -14 4 -14 4 -13 5 -13 4 -14 4 -12 
5 -13 4 -13 4 -12 5 -12 4 -12 4 -12 5 -12 4 -11 
4 -11 5 -11 4 -10 4 -11 5 -10 4 -9 4 -10 5 -9 
4 -9 4 -8 5 -8 4 -8 4 -8 5 -7 4 -7 4 -6 
5 -6 4 -6 4 -5 5 -5 4 -5 4 -4 5 -4 4 -4 
5 -3 4 -3 4 -2 5 -2 4 -2 4 -1 5 -1 4 0 
4 0 5 0 4 1 4 1 5 1 4 2 4 2 5 2 
4 3 4 4 5 3 4 4 4 4 5 5 4 5 4 5 
5 5 4 6 4 6 5 7 4 6 4 7 5 7 4 8 
4 7 5 8 4 8 4 9 5 8 4 9 4 9 5 9 
4 9 4 10 5 9 4 10 4 10 5 10 4 10 4 10 
5 10 4 10 4 11 5 10 4 11 4 10 5 11 4 11 
4 10 5 11 4 11 4 10 5 11 4 11 4 11 5 10 
4 11 4 11 5 10 4 11 4 10 5 11 4 10 4 10 
5 11 4 10 4 10 5 10 4 10 4 10 5 9 4 10 
4 10 5 9 4 9 4 10 5 9 4 9 5 9 4 8 
4 9 5 9 4 8 4 8 5 8 4 8 4 8 5 8 
4 8 4 7 5 8 4 7 4 7 5 7 4 7 4 6 
5 7 4 6 4 7 5 6 4 6 4 6 5 6 4 6 
4 5 5 6 4 5 4 5 5 5 4 5 4 5 5 5 
4 5 4 4 5 5 4 4 4 4 5 4 4 5 4 4 
5 3 4 4 4 4 5 4 4 3 4 4 5 3 4 3 
4 4 5 3 4 3 4 3 5 3 4 3 4 3 5 3 
4 3 4 3 5 3 4 3 4 2 5 3 4 3 4 3 
5 2 4 3 4 3 5 2 4 3 4 3 5 3 4 2 
4 3 5 3 4 3 4 3 5 3 4 3 4 2 5 3 
4 4 4 3 5 3 4 3 5 3 4 4 4 3 5 4 
4 3 4 4 5 4 4 3 4 4 5 4 4 4 4 4 
5 5 4 4 4 5 5 4 4 5 4 5 5 4 4 5 
4 6 5 5 4 5 4 6 5 5 4 6 4 6 5 6 
4 6 4 6 5 7 4 6 4 7 5 7 4 6 4 8 
5 7 4 7 4 8 11365 3667 300 MP stroke
5 7 4 8 4 8 5 8 4 8 4 8 5 9 4 8 
4 9 5 9 4 9 4 9 5 9 4 10 4 9 5 10 
4 10 4 10 5 10 4 10 4 10 5 11 4 11 4 10 
5 11 4 11 4 11 5 12 4 11 4 11 5 12 4 12 
4 11 5 12 4 12 4 13 5 12 4 12 4 13 5 12 
4 13 4 13 5 12 4 13 4 13 5 13 4 14 5 13 
4 13 4 14 5 13 4 14 4 13 5 14 4 14 4 13 
5 14 4 14 4 14 5 14 4 14 4 14 5 14 4 15 
4 14 5 14 4 14 4 15 5 14 4 14 4 15 5 14 
4 14 4 15 5 14 4 14 4 15 5 14 4 15 4 14 
5 14 4 15 4 14 5 14 4 14 4 15 5 14 4 14 
4 14 5 14 4 14 4 14 5 14 4 14 4 14 5 14 
4 14 4 13 5 14 4 14 4 13 5 14 4 13 4 13 
5 13 4 13 4 13 5 13 4 13 4 13 5 12 4 13 
4 12 5 12 4 13 4 12 5 12 4 11 4 12 5 12 
4 11 4 11 5 11 4 11 4 11 5 11 4 10 4 11 
5 10 4 10 4 10 5 10 4 9 5 10 4 9 4 9 
5 9 4 9 4 8 5 8 4 8 4 8 5 8 4 8 
4 7 5 7 4 7 4 7 5 6 4 6 4 6 5 6 
4 5 4 6 5 5 4 5 4 4 5 4 4 5 4 3 
5 4 4 3 4 3 5 3 4 2 4 3 5 1 4 2 
4 1 5 1 4 1 4 1 5 0 4 0 4 -1 5 -1 
4 -1 4 -1 5 -2 4 -2 4 -2 5 -3 4 -3 4 -3 
5 -4 4 -4 4 -5 5 -5 4 -5 4 -5 5 -6 4 -7 
4 -6 5 -7 4 -8 4 -8 5 -8 4 -9 4 -9 5 -9 
4 -10 4 -10 5 -11 4 -11 4 -12 5 -12 4 -12 4 -13 
5 -13 4 -14 4 -14 5 -15 4 -15 4 -16 5 -16 4 -17 
4 -17 5 -18 4 -18 5 -18 4 -20 4 -19 5 -20 4 -21 
4 -21 5 -22 4 -22 4 -23 5 -24 4 -24 4 -24 5 -25 
4 -26 4 -26 5 -27 4 -28 4 -28 5 -29 4 -29 4 -30 
5 -30 4 -32 4 -31 5 -33 4 -33 4 -34 5 -34 4 -35 
4 -36 5 -37 4 -37 4 -38 5 -38 4 -39 4 -40 5 -41 
4 -42 4 -42 5 -43 4 -43 4 -45 5 -45 4 -46 4 -46 
5 -48 4 -48 4 -49 5 -50 4 -50 4 -51 5 -52 4 -53 
4 -53 5 -55 4 -55 4 -55 5 -57 4 -57 4 -58 5 -58 
4 -60 4 -60 5 -60 4 -61 4 -62 5 -62 4 -62 4 -63 
5 -64 4 -64 4 -63 5 -65 4 -64 4 -64 5 -64 4 -64 
4 -63 5 -63 4 -62 10068 5681 300 MP stroke
4 -62 5 -60 4 -59 4 -58 5 -56 4 -55 5 -52 4 -50 
4 -47 5 -44 4 -41 4 -38 5 -34 4 -30 4 -26 5 -22 
4 -17 4 -13 5 -7 4 -3 4 2 5 7 4 11 4 17 
5 21 4 25 4 29 5 34 4 37 4 41 5 43 4 47 
4 50 5 51 4 54 4 56 5 57 4 59 4 60 5 61 
4 62 4 63 5 63 4 64 4 63 5 64 4 64 4 64 
5 64 4 63 4 63 5 63 4 62 4 62 5 62 4 60 
4 61 5 59 4 59 4 58 5 58 4 57 4 56 5 55 
4 54 4 54 5 53 4 53 4 51 5 51 4 50 4 49 
5 48 4 48 4 46 5 46 4 46 4 44 5 44 4 43 
4 42 5 41 4 41 4 40 5 39 4 38 4 38 5 37 
4 36 4 35 5 35 4 34 5 34 4 32 4 32 5 32 
4 30 4 30 5 29 4 29 4 28 5 27 4 27 4 26 
5 26 4 25 4 24 5 23 4 23 4 23 5 22 4 21 
4 20 5 20 4 20 4 19 5 18 4 18 4 17 5 17 
4 16 4 16 5 15 4 15 4 14 5 13 4 13 4 13 
5 12 4 11 4 11 5 11 4 10 4 10 5 9 4 8 
4 9 5 7 4 8 4 6 5 7 4 6 4 5 5 5 
4 5 4 4 5 4 4 3 4 3 5 3 4 2 4 2 
5 1 4 1 4 1 5 0 4 0 4 -1 5 -1 4 -1 
4 -1 5 -2 4 -3 4 -3 5 -3 4 -3 4 -4 5 -4 
4 -4 4 -5 5 -5 4 -6 4 -5 5 -6 4 -7 4 -6 
5 -7 4 -8 5 -7 4 -8 4 -8 5 -9 4 -8 4 -9 
5 -9 4 -10 4 -10 5 -10 4 -10 4 -11 5 -10 4 -11 
4 -12 5 -11 4 -12 4 -12 5 -12 4 -13 4 -12 5 -13 
4 -13 4 -13 5 -14 4 -14 4 -13 5 -15 4 -14 4 -14 
5 -15 4 -14 4 -15 5 -15 4 -16 4 -15 5 -16 4 -15 
4 -16 5 -16 4 -16 4 -16 5 -17 4 -16 4 -17 5 -16 
4 -17 4 -17 5 -17 4 -17 4 -17 5 -17 4 -17 4 -17 
5 -18 4 -17 4 -18 5 -17 4 -18 4 -17 5 -18 4 -17 
4 -18 5 -17 4 -18 4 -17 5 -18 4 -18 4 -17 5 -18 
4 -17 4 -17 5 -18 4 -17 4 -17 5 -17 4 -17 4 -17 
5 -17 4 -17 4 -17 5 -16 4 -17 4 -16 5 -16 4 -16 
5 -16 4 -16 4 -15 5 -16 4 -15 4 -15 5 -15 4 -15 
4 -14 5 -14 4 -14 4 -14 5 -14 4 -13 4 -13 5 -13 
4 -13 4 -12 5 -12 4 -12 4 -11 5 -12 4 -11 4 -10 
5 -11 4 -10 4 -9 5 -10 4 -9 4 -9 5 -8 4 -8 
4 -8 5 -8 4 -7 8771 3798 300 MP stroke
4 -6 5 -7 4 -6 4 -6 5 -5 4 -5 4 -5 5 -4 
4 -4 4 -4 5 -3 4 -3 4 -2 5 -2 4 -2 4 -1 
5 -1 4 -1 4 -1 5 0 4 1 4 0 5 2 4 1 
4 2 5 2 4 2 4 3 5 3 4 3 4 4 5 4 
4 4 4 4 5 5 4 5 4 6 5 5 4 6 4 6 
5 7 4 6 4 7 5 7 4 8 4 7 5 8 4 8 
4 8 5 8 4 9 5 8 4 9 4 9 5 9 4 10 
4 9 5 9 4 10 4 10 5 9 4 10 4 10 5 10 
4 10 4 10 5 11 4 10 4 10 5 10 4 10 4 11 
5 10 4 10 4 10 5 10 4 11 4 10 5 10 4 10 
4 10 5 9 4 10 4 10 5 9 4 10 4 9 5 9 
4 9 4 9 5 9 4 9 4 9 5 8 4 8 4 8 
5 8 4 8 4 7 5 8 4 7 4 7 5 6 4 7 
4 6 5 6 4 6 4 5 5 6 4 5 4 4 5 5 
4 4 4 4 5 4 4 3 4 4 5 2 4 3 4 2 
5 2 4 2 4 1 5 1 4 1 4 0 5 0 4 0 
4 -1 5 -1 4 -1 4 -2 5 -2 4 -2 4 -3 5 -3 
4 -4 5 -4 4 -4 4 -5 5 -5 4 -5 4 -6 5 -7 
4 -6 4 -7 5 -8 4 -8 4 -8 5 -9 4 -9 4 -9 
5 -10 4 -11 4 -11 5 -11 4 -12 4 -12 5 -13 4 -13 
4 -13 5 -14 4 -14 4 -15 5 -16 4 -15 4 -17 5 -16 
4 -17 4 -18 5 -18 4 -19 4 -19 5 -19 4 -20 4 -21 
5 -20 4 -22 4 -22 5 -22 4 -22 4 -24 5 -23 4 -24 
4 -25 5 -25 4 -25 4 -26 5 -27 4 -26 4 -28 5 -27 
4 -28 4 -29 5 -28 4 -30 4 -29 5 -30 4 -31 4 -31 
5 -31 4 -31 4 -32 5 -32 4 -32 4 -33 5 -33 4 -33 
4 -33 5 -34 4 -34 4 -33 5 -34 4 -35 4 -34 5 -34 
4 -34 4 -34 5 -35 4 -34 4 -33 5 -34 4 -34 5 -33 
4 -33 4 -33 5 -32 4 -31 4 -32 5 -30 4 -30 4 -30 
5 -28 4 -28 4 -27 5 -26 4 -25 4 -24 5 -22 4 -22 
4 -21 5 -19 4 -18 4 -16 5 -15 4 -13 4 -12 5 -11 
4 -9 4 -7 5 -5 4 -4 4 -2 5 -1 4 2 4 3 
5 4 4 7 4 8 5 9 4 12 4 12 5 15 4 16 
4 17 5 19 4 20 4 21 5 23 4 24 4 25 5 26 
4 27 4 28 5 29 4 30 4 30 5 31 4 32 4 33 
5 33 4 34 4 34 5 34 4 35 4 35 5 35 4 36 
4 36 5 36 4 36 4 36 5 36 4 36 4 36 5 36 
4 37 4 36 5 35 7474 4488 300 MP stroke
4 36 4 36 5 35 4 36 4 35 5 34 4 35 4 34 
5 35 4 33 5 34 4 33 4 33 5 33 4 32 4 32 
5 32 4 31 4 31 5 31 4 31 4 30 5 29 4 30 
4 28 5 29 4 28 4 28 5 28 4 27 4 27 5 26 
4 26 4 26 5 25 4 25 4 25 5 24 4 24 4 23 
5 24 4 22 4 23 5 22 4 22 4 21 5 21 4 21 
4 20 5 21 4 19 4 20 5 19 4 19 4 18 5 18 
4 18 4 17 5 17 4 17 4 17 5 16 4 16 4 16 
5 15 4 15 4 15 5 14 4 14 4 14 5 14 4 13 
4 13 5 13 4 13 4 12 5 12 4 12 4 11 5 12 
4 11 4 11 5 10 4 11 4 10 5 9 4 10 4 10 
5 9 4 9 4 9 5 8 4 8 4 9 5 8 4 7 
4 8 5 7 4 7 5 7 4 7 4 7 5 6 4 7 
4 6 5 6 4 5 4 6 5 5 4 6 4 5 5 5 
4 5 4 4 5 5 4 4 4 5 5 4 4 4 4 4 
5 3 4 4 4 3 5 4 4 3 4 3 5 3 4 3 
4 3 5 2 4 3 4 2 5 3 4 2 4 2 5 2 
4 2 4 2 5 1 4 2 4 2 5 1 4 2 4 1 
5 1 4 1 4 1 5 1 4 1 4 1 5 1 4 1 
4 0 5 1 4 0 4 1 5 0 4 0 4 0 5 1 
4 0 4 0 5 0 4 0 4 0 5 -1 4 0 4 0 
5 -1 4 0 4 0 5 -1 4 -1 4 0 5 -1 4 -1 
4 0 5 -1 4 -1 4 -1 5 -1 4 -1 4 -1 5 -2 
4 -1 5 -1 4 -1 4 -2 5 -1 4 -2 4 -1 5 -2 
4 -1 4 -2 5 -2 4 -2 4 -2 5 -1 4 -2 4 -3 
5 -2 4 -2 4 -2 5 -2 4 -3 4 -2 5 -3 4 -2 
4 -3 5 -2 4 -3 4 -3 5 -3 4 -3 4 -3 5 -3 
4 -3 4 -4 5 -3 4 -3 4 -4 5 -4 4 -3 4 -4 
5 -4 4 -4 4 -4 5 -4 4 -5 4 -4 5 -4 4 -5 
4 -5 5 -5 4 -4 4 -5 5 -6 4 -5 4 -5 5 -6 
4 -5 4 -6 5 -6 4 -6 4 -6 5 -6 4 -7 4 -6 
5 -7 4 -7 4 -7 5 -7 4 -7 4 -8 5 -8 4 -7 
4 -8 5 -8 4 -9 4 -8 5 -9 4 -9 4 -9 5 -9 
4 -9 4 -10 5 -9 4 -10 4 -10 5 -11 4 -10 5 -11 
4 -11 4 -11 5 -11 4 -12 4 -12 5 -12 4 -12 4 -13 
5 -12 4 -13 4 -13 5 -14 4 -14 4 -13 5 -15 4 -14 
4 -15 5 -15 4 -15 4 -15 5 -16 4 -16 4 -16 5 -17 
4 -16 4 -17 5 -18 6177 3066 300 MP stroke
4 -17 4 -18 5 -18 4 -19 4 -19 5 -19 4 -19 4 -20 
5 -20 4 -20 4 -20 5 -21 4 -21 4 -22 5 -22 4 -22 
4 -22 5 -23 4 -23 4 -23 5 -24 4 -24 4 -24 5 -24 
4 -25 4 -25 5 -26 4 -26 4 -26 5 -26 4 -27 4 -27 
5 -27 4 -27 4 -28 5 -28 4 -29 4 -29 5 -28 4 -30 
4 -29 5 -30 4 -30 4 -30 5 -30 4 -31 4 -31 5 -31 
4 -31 4 -32 5 -31 4 -32 4 -32 5 -32 4 -32 4 -32 
5 -32 4 -32 5 -32 4 -33 4 -32 5 -32 4 -32 4 -32 
5 -32 4 -32 4 -31 5 -31 4 -31 4 -31 5 -30 4 -30 
4 -30 5 -29 4 -29 4 -28 5 -28 4 -27 4 -26 5 -25 
4 -25 4 -24 5 -24 4 -22 4 -21 5 -21 4 -19 4 -19 
5 -17 4 -16 4 -15 5 -14 4 -12 4 -12 5 -9 4 -9 
4 -7 5 -6 4 -5 4 -3 5 -2 4 0 4 1 5 2 
4 4 4 5 5 7 4 8 4 9 5 10 4 12 4 13 
5 14 4 15 4 17 5 17 4 19 4 19 5 21 4 21 
4 22 5 23 4 23 4 25 5 25 4 26 4 26 5 26 
4 28 4 27 5 28 4 29 4 28 5 29 4 29 4 30 
5 29 4 30 4 30 5 30 4 30 4 29 5 30 4 30 
5 30 4 29 4 30 5 29 4 30 4 29 5 29 4 28 
4 29 5 28 4 28 4 27 5 28 4 27 4 27 5 26 
4 26 4 26 5 26 4 25 4 25 5 24 4 24 4 24 
5 23 4 23 4 22 5 22 4 22 4 22 5 20 4 21 
4 20 5 20 4 19 4 19 5 18 4 18 4 18 5 17 
4 17 4 16 5 16 4 16 4 15 5 14 4 15 4 14 
5 13 4 13 4 13 5 12 4 12 4 11 5 11 4 11 
4 10 5 10 4 9 4 9 5 9 4 8 4 8 5 7 
4 7 4 7 5 6 4 6 4 6 5 5 4 5 4 4 
5 4 4 4 4 4 5 3 4 3 4 2 5 2 4 2 
4 1 5 1 4 1 4 1 5 0 4 0 5 -1 4 0 
4 -1 5 -2 4 -1 4 -2 5 -2 4 -3 4 -2 5 -3 
4 -3 4 -4 5 -3 4 -4 4 -4 5 -5 4 -4 4 -5 
5 -5 4 -5 4 -6 5 -5 4 -6 4 -6 5 -6 4 -6 
4 -7 5 -6 4 -7 4 -7 5 -7 4 -7 4 -8 5 -7 
4 -8 4 -7 5 -8 4 -8 4 -8 5 -8 4 -8 4 -8 
5 -8 4 -8 4 -8 5 -8 4 -9 4 -8 5 -8 4 -9 
4 -8 5 -8 4 -9 4 -8 5 -8 4 -8 4 -8 5 -8 
4 -8 4 -8 5 -8 4 -8 4 -8 5 -7 4 -8 4 -7 
5 -7 4 -7 4 -7 4881 3739 300 MP stroke
5 -7 4 -6 4 -7 5 -6 4 -6 4 -6 5 -6 4 -5 
4 -5 5 -5 4 -5 4 -5 5 -4 4 -4 4 -4 5 -4 
4 -3 5 -3 4 -3 4 -3 5 -2 4 -2 4 -2 5 -1 
4 -1 4 -1 5 -1 4 0 4 0 5 0 4 1 4 1 
5 1 4 2 4 2 5 2 4 3 4 3 5 3 4 4 
4 4 5 4 4 5 4 5 5 5 4 6 4 6 5 6 
4 7 4 6 5 8 4 7 4 8 5 8 4 9 4 8 
5 9 4 10 4 9 5 10 4 11 4 10 5 11 4 11 
4 11 5 12 4 12 4 12 5 12 4 13 4 13 5 13 
4 13 4 13 5 14 4 14 4 14 5 14 4 15 4 15 
5 14 4 15 4 16 5 15 4 16 4 15 5 16 4 16 
4 16 5 16 4 16 4 17 5 16 4 17 4 17 5 16 
4 17 4 17 5 17 4 17 4 17 5 18 4 17 5 17 
4 17 4 18 5 17 4 17 4 18 5 17 4 17 4 18 
5 17 4 17 4 18 5 17 4 17 4 17 5 18 4 17 
4 17 5 17 4 17 4 16 5 17 4 17 4 16 5 17 
4 16 4 17 5 16 4 16 4 16 5 16 4 16 4 15 
5 16 4 15 4 15 5 15 4 15 4 15 5 15 4 14 
4 14 5 15 4 13 4 14 5 14 4 13 4 13 5 13 
4 13 4 13 5 12 4 12 4 12 5 12 4 12 4 11 
5 11 4 11 4 11 5 10 4 10 4 10 5 10 4 9 
4 9 5 9 4 9 4 8 5 8 4 8 4 7 5 7 
4 7 4 7 5 6 4 6 4 6 5 5 4 5 4 5 
5 5 4 4 4 4 5 3 4 3 5 3 4 3 4 2 
5 1 4 2 4 1 5 1 4 0 4 0 5 -1 4 0 
4 -1 5 -2 4 -2 4 -2 5 -3 4 -3 4 -4 5 -4 
4 -4 4 -5 5 -5 4 -6 4 -6 5 -6 4 -7 4 -7 
5 -8 4 -8 4 -9 5 -9 4 -10 4 -10 5 -11 4 -11 
4 -11 5 -12 4 -13 4 -13 5 -13 4 -14 4 -15 5 -15 
4 -15 4 -17 5 -16 4 -17 4 -18 5 -18 4 -19 4 -20 
5 -20 4 -20 4 -21 5 -22 4 -22 4 -23 5 -23 4 -24 
4 -25 5 -25 4 -26 4 -27 5 -27 4 -28 4 -28 5 -29 
4 -30 4 -30 5 -32 4 -31 4 -33 5 -33 4 -34 4 -34 
5 -36 4 -36 4 -36 5 -38 4 -38 4 -39 5 -39 4 -41 
4 -41 5 -42 4 -42 5 -44 4 -44 4 -45 5 -46 4 -47 
4 -47 5 -48 4 -49 4 -50 5 -50 4 -52 4 -52 5 -53 
4 -54 4 -54 5 -55 4 -57 4 -56 5 -58 4 -58 4 -59 
5 -60 4 -61 4 -61 3584 4674 300 MP stroke
5 -62 4 -62 4 -63 5 -63 4 -64 4 -65 5 -64 4 -65 
4 -65 5 -65 4 -66 4 -65 5 -65 4 -64 4 -65 5 -63 
4 -63 4 -61 5 -61 4 -59 4 -57 5 -56 4 -53 4 -51 
5 -48 4 -45 4 -42 5 -38 4 -35 4 -30 5 -27 4 -21 
4 -17 5 -12 4 -7 4 -2 5 3 4 8 4 13 5 18 
4 22 4 27 5 32 4 35 4 39 5 43 4 46 4 48 
5 52 4 54 4 56 5 57 4 60 4 60 5 62 4 63 
4 64 5 64 4 65 4 65 5 66 4 65 5 65 4 66 
4 65 5 65 4 64 4 64 5 64 4 63 4 62 5 62 
4 61 4 61 5 60 4 59 4 59 5 57 4 57 4 57 
5 55 4 55 4 54 5 53 4 53 4 51 5 51 4 50 
4 49 5 49 4 48 4 46 5 47 4 45 4 45 5 43 
4 44 4 42 5 42 4 40 4 41 5 39 4 39 4 38 
5 37 4 36 4 36 5 35 4 35 4 34 5 33 4 32 
4 32 5 31 4 31 4 29 5 30 4 28 4 28 5 28 
4 26 4 27 5 25 4 25 4 25 5 23 4 24 4 22 
5 22 4 22 4 21 5 20 4 20 4 20 5 19 4 18 
4 18 5 17 4 17 4 16 5 16 4 16 4 14 5 15 
4 14 4 13 5 13 4 13 5 12 4 11 4 12 5 10 
4 11 4 9 5 10 4 9 4 8 5 9 4 7 4 8 
5 7 4 6 4 6 5 6 4 5 4 6 5 4 4 4 
4 4 5 4 4 3 4 3 5 2 4 2 4 2 5 2 
4 1 4 0 5 1 4 0 4 0 5 -1 4 -1 4 -1 
5 -1 4 -2 4 -2 5 -3 4 -2 4 -3 5 -3 4 -4 
4 -4 5 -4 4 -4 4 -5 5 -5 4 -5 4 -5 5 -6 
4 -6 4 -6 5 -6 4 -7 4 -7 5 -7 4 -7 4 -8 
5 -8 4 -8 4 -8 5 -8 4 -9 4 -9 5 -9 4 -9 
4 -10 5 -9 4 -10 4 -10 5 -10 4 -11 4 -10 5 -11 
4 -11 4 -11 5 -11 4 -12 4 -11 5 -12 4 -12 4 -12 
5 -12 4 -13 5 -12 4 -13 4 -12 5 -13 4 -13 4 -13 
5 -14 4 -13 4 -13 5 -14 4 -14 4 -13 5 -14 4 -14 
4 -14 5 -15 4 -14 4 -14 5 -14 4 -15 4 -15 5 -14 
4 -15 4 -15 5 -14 4 -15 4 -15 5 -15 4 -15 4 -15 
5 -15 4 -15 4 -16 5 -15 4 -15 4 -15 5 -15 4 -16 
4 -15 5 -15 4 -15 4 -16 5 -15 4 -15 4 -15 5 -16 
4 -15 4 -15 5 -15 4 -15 4 -16 5 -15 4 -15 4 -15 
5 -15 4 -14 4 -15 5 -15 4 -15 4 -14 5 -15 4 -15 
4 -14 5 -14 4 -15 2287 3154 300 MP stroke
4 -14 5 -14 4 -14 4 -14 5 -14 4 -14 4 -13 5 -14 
4 -13 4 -13 5 -14 4 -13 4 -12 5 -13 4 -13 4 -12 
5 -13 4 -12 4 -12 5 -12 4 -12 5 -12 4 -11 4 -12 
5 -11 4 -11 4 -11 5 -11 4 -10 4 -11 5 -10 4 -10 
4 -10 5 -9 4 -10 4 -9 5 -9 4 -10 4 -8 5 -9 
4 -8 4 -9 5 -8 4 -8 4 -7 5 -8 4 -7 4 -7 
5 -7 4 -7 4 -7 5 -6 4 -6 4 -6 5 -6 4 -6 
4 -6 5 -5 4 -5 4 -5 5 -5 4 -4 4 -5 5 -4 
4 -4 4 -4 5 -4 4 -3 4 -4 5 -3 4 -3 4 -3 
5 -3 4 -3 4 -2 5 -3 4 -2 4 -2 5 -2 4 -2 
4 -1 5 -2 4 -2 4 -1 5 -1 4 -1 4 -1 5 -1 
4 -1 4 -1 5 -1 4 0 4 -1 5 0 4 -1 4 0 
5 0 4 -1 4 0 5 0 4 0 4 0 5 0 4 0 
4 0 5 0 4 0 4 -1 1819 3839 109 MP stroke
gr

24 w
c11
0 sg
%%IncludeResource: font Helvetica
/Helvetica /ISOLatin1Encoding 120 FMSR

1802 7124 mt 
( ) s
12646  638 mt 
( ) s
6 w
1 sg
0 846 8668 0 0 -846 3741 1558 4 MP
PP
-8668 0 0 846 8668 0 0 -846 3741 1558 5 MP stroke
4 w
DO
SO
6 w
0 sg
3741 1558 mt 12409 1558 L
3741  712 mt 12409  712 L
3741 1558 mt 3741  712 L
12409 1558 mt 12409  712 L
3741 1558 mt 12409 1558 L
3741 1558 mt 3741  712 L
3741 1558 mt 12409 1558 L
3741  712 mt 12409  712 L
3741 1558 mt 3741  712 L
12409 1558 mt 12409  712 L
%%IncludeResource: font Helvetica
/Helvetica /ISOLatin1Encoding 168 FMSR

4416  898 mt 
(Rayleigh-Plesset for two bubbles  for unknown values \(a, s\)\
 with Berknes forces \(eq 4,5\)) s
gs 3741 712 8669 847 rc
24 w
c8
519 0 3844 837 2 MP stroke
gr

24 w
c8
0 sg
4416 1096 mt 
(Rayleigh-Plesset for one bubble  for unknown values \(a, da/\
dt\) \(eq 1\)) s
gs 3741 712 8669 847 rc
c9
519 0 3844 1035 2 MP stroke
gr

c9
0 sg
4416 1295 mt 
(Rayleigh-Plesset for two bubbles  for unknown values \(a, da\
/dt\) with Berknes forces \(eq 3\)) s
gs 3741 712 8669 847 rc
c10
519 0 3844 1234 2 MP stroke
gr

c10
0 sg
4416 1493 mt 
(BEM simulation) s
gs 3741 712 8669 847 rc
c11
519 0 3844 1432 2 MP stroke
6 w
gr

6 w
c11

end %%Color Dict

eplot
%%EndObject

epage
end

showpage

%%Trailer
%%EOF
