\relax 
\catcode`"\active
\select@language{russian}
\@writefile{toc}{\select@language{russian}}
\@writefile{lof}{\select@language{russian}}
\@writefile{lot}{\select@language{russian}}
\@writefile{toc}{\contentsline {subsection}{\numberline {0.1}\IeC {\CYRU }\IeC {\cyrr }\IeC {\cyra }\IeC {\cyrv }\IeC {\cyrn }\IeC {\cyre }\IeC {\cyrn }\IeC {\cyri }\IeC {\cyre } \IeC {\CYRR }\IeC {\cyrerev }\IeC {\cyrl }\IeC {\cyre }\IeC {\cyrya }-\IeC {\CYRP }\IeC {\cyrl }\IeC {\cyre }\IeC {\cyrs }\IeC {\cyrs }\IeC {\cyre }\IeC {\cyrt }\IeC {\cyra } \IeC {\cyrb }\IeC {\cyre }\IeC {\cyrz } \IeC {\cyru }\IeC {\cyrch }\IeC {\cyryo }\IeC {\cyrt }\IeC {\cyra } \IeC {\cyrv }\IeC {\cyrt }\IeC {\cyro }\IeC {\cyrr }\IeC {\cyri }\IeC {\cyrch }\IeC {\cyrn }\IeC {\cyrery }\IeC {\cyrh } \IeC {\cyrs }\IeC {\cyri }\IeC {\cyrl } \IeC {\CYRB }\IeC {\cyrsftsn }\IeC {\cyryo }\IeC {\cyrr }\IeC {\cyrk }\IeC {\cyrn }\IeC {\cyre }\IeC {\cyrs }\IeC {\cyra }}{1}}
\newlabel{RP1}{{1}{1}}
\@writefile{toc}{\contentsline {subsection}{\numberline {0.2}\IeC {\CYRU }\IeC {\cyrr }\IeC {\cyra }\IeC {\cyrv }\IeC {\cyrn }\IeC {\cyre }\IeC {\cyrn }\IeC {\cyri }\IeC {\cyre } \IeC {\CYRR }\IeC {\cyrerev }\IeC {\cyrl }\IeC {\cyre }\IeC {\cyrya }-\IeC {\CYRP }\IeC {\cyrl }\IeC {\cyre }\IeC {\cyrs }\IeC {\cyrs }\IeC {\cyre }\IeC {\cyrt }\IeC {\cyra } \IeC {\cyrs } \IeC {\cyru }\IeC {\cyrch }\IeC {\cyryo }\IeC {\cyrt }\IeC {\cyro }\IeC {\cyrm } \IeC {\cyrv }\IeC {\cyrt }\IeC {\cyro }\IeC {\cyrr }\IeC {\cyri }\IeC {\cyrch }\IeC {\cyrn }\IeC {\cyrery }\IeC {\cyrh } \IeC {\cyrs }\IeC {\cyri }\IeC {\cyrl } \IeC {\CYRB }\IeC {\cyrsftsn }\IeC {\cyryo }\IeC {\cyrr }\IeC {\cyrk }\IeC {\cyrn }\IeC {\cyre }\IeC {\cyrs }\IeC {\cyra }}{1}}
\newlabel{RP2}{{3}{1}}
\@writefile{toc}{\contentsline {subsection}{\numberline {0.3}\IeC {\CYRU }\IeC {\cyrr }\IeC {\cyra }\IeC {\cyrv }\IeC {\cyrn }\IeC {\cyre }\IeC {\cyrn }\IeC {\cyri }\IeC {\cyre } \IeC {\cyri }\IeC {\cyrz } \IeC {\cyrr }\IeC {\cyra }\IeC {\cyrb }\IeC {\cyro }\IeC {\cyrt }\IeC {\cyrery } [1] \IeC {\cyrb }\IeC {\cyre }\IeC {\cyrz } \IeC {\cyrp }\IeC {\cyro }\IeC {\cyrs }\IeC {\cyrt }\IeC {\cyru }\IeC {\cyrp }\IeC {\cyra }\IeC {\cyrt }\IeC {\cyre }\IeC {\cyrl }\IeC {\cyrsftsn }\IeC {\cyrn }\IeC {\cyrery }\IeC {\cyrh } \IeC {\cyrs }\IeC {\cyrk }\IeC {\cyro }\IeC {\cyrr }\IeC {\cyro }\IeC {\cyrs }\IeC {\cyrt }\IeC {\cyre }\IeC {\cyrishrt }}{1}}
\bibcite{Gumerov}{1}
\@writefile{lof}{\contentsline {figure}{\numberline {1}{\ignorespaces \IeC {\CYRD }\IeC {\cyri }\IeC {\cyrn }\IeC {\cyra }\IeC {\cyrm }\IeC {\cyri }\IeC {\cyrk }\IeC {\cyra } \IeC {\cyrr }\IeC {\cyra }\IeC {\cyrd }\IeC {\cyri }\IeC {\cyru }\IeC {\cyrs }\IeC {\cyra } \IeC {\cyrp }\IeC {\cyru }\IeC {\cyrz }\IeC {\cyrery }\IeC {\cyrr }\IeC {\cyrsftsn }\IeC {\cyrk }\IeC {\cyra } \IeC {\cyrd }\IeC {\cyrl }\IeC {\cyrya } \IeC {\cyrs }\IeC {\cyrl }\IeC {\cyru }\IeC {\cyrch }\IeC {\cyra }\IeC {\cyrya } \IeC {\cyrd }\IeC {\cyrv }\IeC {\cyru }\IeC {\cyrh } \IeC {\cyrs }\IeC {\cyrzh }\IeC {\cyri }\IeC {\cyrm }\IeC {\cyra }\IeC {\cyre }\IeC {\cyrm }\IeC {\cyrery }\IeC {\cyrh } \IeC {\cyrp }\IeC {\cyru }\IeC {\cyrz }\IeC {\cyrery }\IeC {\cyrr }\IeC {\cyrsftsn }\IeC {\cyrk }\IeC {\cyro }\IeC {\cyrv }. \IeC {\CYRD }\IeC {\cyrl }\IeC {\cyrya } \IeC {\cyrr }\IeC {\cyra }\IeC {\cyrz }\IeC {\cyrn }\IeC {\cyrery }\IeC {\cyrh } \IeC {\cyrm }\IeC {\cyro }\IeC {\cyrd }\IeC {\cyre }\IeC {\cyrl }\IeC {\cyre }\IeC {\cyrishrt }.}}{2}}
\newlabel{r1}{{1}{2}}
\newlabel{OUR_M}{{5}{2}}
